\relax 
\providecommand\hyper@newdestlabel[2]{}
\@writefile{toc}{\contentsline {chapter}{\numberline {A}Esquem\'aticos}{101}{appendix.Alph1}}
\@writefile{lof}{\addvspace {10\p@ }}
\@writefile{lot}{\addvspace {10\p@ }}
\@writefile{toc}{\contentsline {chapter}{\numberline {B}Layout}{105}{appendix.Alph2}}
\@writefile{lof}{\addvspace {10\p@ }}
\@writefile{lot}{\addvspace {10\p@ }}
\@writefile{toc}{\contentsline {chapter}{\numberline {C}Programaci\'on utilizada}{109}{appendix.Alph3}}
\@writefile{lof}{\addvspace {10\p@ }}
\@writefile{lot}{\addvspace {10\p@ }}
\@writefile{toc}{\contentsline {section}{\numberline {C.1}Plataforma de pruebas}{109}{section.Alph3.1}}
\@writefile{toc}{\contentsline {section}{\numberline {C.2}Multiplexador}{110}{section.Alph3.2}}
\@writefile{toc}{\contentsline {section}{\numberline {C.3}Circuito Sensorizado}{112}{section.Alph3.3}}
\@writefile{toc}{\contentsline {chapter}{\numberline {D}Software Utilizado}{115}{appendix.Alph4}}
\@writefile{lof}{\addvspace {10\p@ }}
\@writefile{lot}{\addvspace {10\p@ }}
\@setckpt{capitulos/anexos}{
\setcounter{page}{116}
\setcounter{equation}{0}
\setcounter{enumi}{2}
\setcounter{enumii}{0}
\setcounter{enumiii}{0}
\setcounter{enumiv}{12}
\setcounter{footnote}{0}
\setcounter{mpfootnote}{0}
\setcounter{part}{0}
\setcounter{chapter}{4}
\setcounter{section}{0}
\setcounter{subsection}{0}
\setcounter{subsubsection}{0}
\setcounter{paragraph}{0}
\setcounter{subparagraph}{0}
\setcounter{figure}{0}
\setcounter{table}{0}
\setcounter{parentequation}{0}
\setcounter{subfigure}{0}
\setcounter{lofdepth}{1}
\setcounter{subtable}{0}
\setcounter{lotdepth}{1}
\setcounter{AM@survey}{0}
\setcounter{lstnumber}{97}
\setcounter{@pps}{0}
\setcounter{@ppsavesec}{0}
\setcounter{@ppsaveapp}{0}
\setcounter{float@type}{8}
\setcounter{Item}{14}
\setcounter{Hfootnote}{0}
\setcounter{bookmark@seq@number}{76}
\setcounter{lstlisting}{0}
\setcounter{section@level}{1}
}
