\relax 
\providecommand\hyper@newdestlabel[2]{}
\@writefile{toc}{\contentsline {chapter}{\numberline {3}Gesti\'on del proyecto}{19}{chapter.3}}
\@writefile{lof}{\addvspace {10\p@ }}
\@writefile{lot}{\addvspace {10\p@ }}
\@writefile{toc}{\contentsline {section}{\numberline {3.1}Ciclo de vida}{19}{section.3.1}}
\@writefile{toc}{\contentsline {section}{\numberline {3.2}Planificaci\'on}{19}{section.3.2}}
\@writefile{toc}{\contentsline {subsection}{\numberline {3.2.1}Planificaci\'on inicial}{19}{subsection.3.2.1}}
\@writefile{toc}{\contentsline {subsection}{\numberline {3.2.2}Planificaci\'on final}{19}{subsection.3.2.2}}
\@writefile{toc}{\contentsline {section}{\numberline {3.3}Presupuesto}{19}{section.3.3}}
\@writefile{toc}{\contentsline {subsection}{\numberline {3.3.1}Personal}{19}{subsection.3.3.1}}
\@writefile{toc}{\contentsline {subsection}{\numberline {3.3.2}Material}{19}{subsection.3.3.2}}
\@writefile{toc}{\contentsline {subsection}{\numberline {3.3.3}Resumen de costes}{19}{subsection.3.3.3}}
\@setckpt{capitulos/gestion}{
\setcounter{page}{20}
\setcounter{equation}{0}
\setcounter{enumi}{4}
\setcounter{enumii}{0}
\setcounter{enumiii}{0}
\setcounter{enumiv}{0}
\setcounter{footnote}{0}
\setcounter{mpfootnote}{0}
\setcounter{part}{0}
\setcounter{chapter}{3}
\setcounter{section}{3}
\setcounter{subsection}{3}
\setcounter{subsubsection}{0}
\setcounter{paragraph}{0}
\setcounter{subparagraph}{0}
\setcounter{figure}{0}
\setcounter{table}{0}
\setcounter{parentequation}{0}
\setcounter{subfigure}{0}
\setcounter{lofdepth}{1}
\setcounter{subtable}{0}
\setcounter{lotdepth}{1}
\setcounter{lstnumber}{1}
\setcounter{@pps}{0}
\setcounter{@ppsavesec}{0}
\setcounter{@ppsaveapp}{0}
\setcounter{float@type}{8}
\setcounter{Item}{12}
\setcounter{Hfootnote}{0}
\setcounter{bookmark@seq@number}{29}
\setcounter{lstlisting}{0}
\setcounter{section@level}{2}
}
