\relax 
\providecommand\hyper@newdestlabel[2]{}
\@writefile{toc}{\contentsline {chapter}{\numberline {1}Introducci\'on}{1}{chapter.1}}
\@writefile{lof}{\addvspace {10\p@ }}
\@writefile{lot}{\addvspace {10\p@ }}
\@writefile{toc}{\contentsline {section}{\numberline {1.1}Motivaci\'on del proyecto}{1}{section.1.1}}
\@writefile{toc}{\contentsline {section}{\numberline {1.2}Objetivos}{1}{section.1.2}}
\@writefile{toc}{\contentsline {section}{\numberline {1.3}Materiales utilizados}{1}{section.1.3}}
\@writefile{toc}{\contentsline {section}{\numberline {1.4}Gesti\'on del proyecto}{3}{section.1.4}}
\gtt@chartextrasize{0}{139.53294pt}
\@writefile{lof}{\contentsline {figure}{\numberline {1.1}{\ignorespaces Diagrama de Gantt: Primera Parte 2016}}{3}{figure.1.1}}
\newlabel{Ga:2016_a}{{1.1}{3}{Diagrama de Gantt: Primera Parte 2016}{figure.1.1}{}}
\gtt@chartextrasize{1}{162.12721pt}
\@writefile{lof}{\contentsline {figure}{\numberline {1.2}{\ignorespaces Diagrama de Gantt: Segunda Parte 2016}}{4}{figure.1.2}}
\newlabel{Ga:2016_b}{{1.2}{4}{Diagrama de Gantt: Segunda Parte 2016}{figure.1.2}{}}
\gtt@chartextrasize{2}{168.79898pt}
\@writefile{lof}{\contentsline {figure}{\numberline {1.3}{\ignorespaces Diagrama de Gantt: 2017}}{5}{figure.1.3}}
\newlabel{Ga:2017}{{1.3}{5}{Diagrama de Gantt: 2017}{figure.1.3}{}}
\@writefile{toc}{\contentsline {section}{\numberline {1.5}Estructura del documento}{5}{section.1.5}}
\@setckpt{capitulos/introduccion}{
\setcounter{page}{6}
\setcounter{equation}{0}
\setcounter{enumi}{5}
\setcounter{enumii}{0}
\setcounter{enumiii}{0}
\setcounter{enumiv}{0}
\setcounter{footnote}{0}
\setcounter{mpfootnote}{0}
\setcounter{part}{0}
\setcounter{chapter}{1}
\setcounter{section}{5}
\setcounter{subsection}{0}
\setcounter{subsubsection}{0}
\setcounter{paragraph}{0}
\setcounter{subparagraph}{0}
\setcounter{figure}{3}
\setcounter{table}{0}
\setcounter{parentequation}{0}
\setcounter{subfigure}{0}
\setcounter{lofdepth}{1}
\setcounter{subtable}{0}
\setcounter{lotdepth}{1}
\setcounter{AM@survey}{0}
\setcounter{lstnumber}{1}
\setcounter{@pps}{0}
\setcounter{@ppsavesec}{0}
\setcounter{@ppsaveapp}{0}
\setcounter{float@type}{8}
\setcounter{Item}{5}
\setcounter{Hfootnote}{0}
\setcounter{bookmark@seq@number}{9}
\setcounter{lstlisting}{0}
\setcounter{section@level}{1}
}
