\select@language {spanish}
\addvspace {10\p@ }
\addvspace {10\p@ }
\addvspace {10\p@ }
\addvspace {10\p@ }
\addvspace {10\p@ }
\addvspace {10\p@ }
\addvspace {10\p@ }
\contentsline {table}{\numberline {4.1}{\ignorespaces Conexiones Pro Trinket 5V}}{83}{table.4.1}
\contentsline {table}{\numberline {4.2}{\ignorespaces Conexiones Multiplexor TCA9548A}}{84}{table.4.2}
\addvspace {10\p@ }
\addvspace {10\p@ }
\addvspace {10\p@ }
\addvspace {10\p@ }
\addvspace {10\p@ }
