This is BibTeX, Version 0.99dThe top-level auxiliary file: TFG.aux
A level-1 auxiliary file: capitulos/portada.aux
A level-1 auxiliary file: capitulos/firmas.aux
A level-1 auxiliary file: capitulos/evaluacion.aux
A level-1 auxiliary file: capitulos/agradecimientos.aux
A level-1 auxiliary file: capitulos/resumen.aux
A level-1 auxiliary file: capitulos/introduccion.aux
A level-1 auxiliary file: capitulos/estadoarte.aux
A level-1 auxiliary file: capitulos/resultados.aux
A level-1 auxiliary file: capitulos/diseno.aux
A level-1 auxiliary file: capitulos/conclusion.aux
The style file: plain.bst
A level-1 auxiliary file: capitulos/anexos.aux
Database file #1: referencias/bibliografia.bib
Warning--empty year in Fukuda:99
(There was 1 warning)
