\BOOKMARK [0][-]{chapter*.1}{Agradecimientos}{}% 1
\BOOKMARK [0][-]{chapter*.2}{Resumen}{}% 2
\BOOKMARK [0][-]{chapter*.4}{Abstract}{}% 3
\BOOKMARK [0][-]{chapter.1}{Introducci\363n}{}% 4
\BOOKMARK [1][-]{section.1.1}{Motivaci\363n del proyecto}{chapter.1}% 5
\BOOKMARK [1][-]{section.1.2}{Objetivos}{chapter.1}% 6
\BOOKMARK [1][-]{section.1.3}{Materiales utilizados}{chapter.1}% 7
\BOOKMARK [1][-]{section.1.4}{Gesti\363n del proyecto}{chapter.1}% 8
\BOOKMARK [1][-]{section.1.5}{Estructura del documento}{chapter.1}% 9
\BOOKMARK [0][-]{chapter.2}{Estado del arte}{}% 10
\BOOKMARK [1][-]{section.2.1}{Introducci\363n a los Robots escaladores}{chapter.2}% 11
\BOOKMARK [1][-]{section.2.2}{Definiciones}{chapter.2}% 12
\BOOKMARK [1][-]{section.2.3}{Tipos de Robots escaladores}{chapter.2}% 13
\BOOKMARK [2][-]{subsection.2.3.1}{Clasificaci\363n seg\372n tipo de superficies}{section.2.3}% 14
\BOOKMARK [2][-]{subsection.2.3.2}{Clasificaci\363n seg\372n los Dispositivo de Sujeci\363n}{section.2.3}% 15
\BOOKMARK [2][-]{subsection.2.3.3}{Clasificaci\363n seg\372n tipo de Accionamiento}{section.2.3}% 16
\BOOKMARK [1][-]{section.2.4}{Introducci\363n a los sistemas mecatr\363nicos}{chapter.2}% 17
\BOOKMARK [1][-]{section.2.5}{Sistemas Generadores de Vac\355o}{chapter.2}% 18
\BOOKMARK [2][-]{subsection.2.5.1}{Teor\355a de Vac\355o}{section.2.5}% 19
\BOOKMARK [2][-]{subsection.2.5.2}{Producci\363n de Vac\355o}{section.2.5}% 20
\BOOKMARK [1][-]{section.2.6}{Dispositivos Electromec\341nicos y El\351ctricos}{chapter.2}% 21
\BOOKMARK [2][-]{subsection.2.6.1}{Motor Brushless}{section.2.6}% 22
\BOOKMARK [2][-]{subsection.2.6.2}{Variador ESC}{section.2.6}% 23
\BOOKMARK [2][-]{subsection.2.6.3}{Fotosensores}{section.2.6}% 24
\BOOKMARK [2][-]{subsection.2.6.4}{Microcontroladores}{section.2.6}% 25
\BOOKMARK [0][-]{chapter.3}{Optimizaci\363n del dise\361o de la turbina y el estator}{}% 26
\BOOKMARK [1][-]{section.3.1}{Estado de partida}{chapter.3}% 27
\BOOKMARK [2][-]{subsection.3.1.1}{Sistema de agarre}{section.3.1}% 28
\BOOKMARK [2][-]{subsection.3.1.2}{Plataforma de pruebas}{section.3.1}% 29
\BOOKMARK [1][-]{section.3.2}{Pruebas experimentales}{chapter.3}% 30
\BOOKMARK [2][-]{subsection.3.2.1}{An\341lisis del efecto del N\372mero de \301labes}{section.3.2}% 31
\BOOKMARK [2][-]{subsection.3.2.2}{An\341lisis del efecto del \301ngulo de los \301labes}{section.3.2}% 32
\BOOKMARK [2][-]{subsection.3.2.3}{An\341lisis del efecto del uso de \301labes Interiores}{section.3.2}% 33
\BOOKMARK [2][-]{subsection.3.2.4}{An\341lisis del efecto de la Altura del Rotor}{section.3.2}% 34
\BOOKMARK [2][-]{subsection.3.2.5}{An\341lisis del efecto del \301ngulo de las Toberas}{section.3.2}% 35
\BOOKMARK [2][-]{subsection.3.2.6}{An\341lisis del efecto del uso de \301labes Dobles}{section.3.2}% 36
\BOOKMARK [2][-]{subsection.3.2.7}{An\341lisis del efecto de la altura en el nuevo tipo de rotor}{section.3.2}% 37
\BOOKMARK [2][-]{subsection.3.2.8}{An\341lisis del efecto del \341ngulo de las toberas en el nuevo rotor}{section.3.2}% 38
\BOOKMARK [2][-]{subsection.3.2.9}{An\341lisis del efecto del Encaje del Motor}{section.3.2}% 39
\BOOKMARK [2][-]{subsection.3.2.10}{An\341lisis del efecto de la Posici\363n del \301labe Secundario}{section.3.2}% 40
\BOOKMARK [1][-]{section.3.3}{Discusi\363n}{chapter.3}% 41
\BOOKMARK [2][-]{subsection.3.3.1}{Discusi\363n an\341lisis efecto del n\372mero de \341labes}{section.3.3}% 42
\BOOKMARK [2][-]{subsection.3.3.2}{Discusi\363n an\341lisis efecto del uso de \341labes interiores}{section.3.3}% 43
\BOOKMARK [2][-]{subsection.3.3.3}{Discusi\363n an\341lisis efecto de la altura del rotor}{section.3.3}% 44
\BOOKMARK [2][-]{subsection.3.3.4}{Discusi\363n an\341lisis efecto del \341ngulo de los \341labes}{section.3.3}% 45
\BOOKMARK [2][-]{subsection.3.3.5}{Discusi\363n an\341lisis efecto del \341ngulo de las toberas}{section.3.3}% 46
\BOOKMARK [2][-]{subsection.3.3.6}{Discusi\363n an\341lisis efecto del uso de \341labes dobles}{section.3.3}% 47
\BOOKMARK [2][-]{subsection.3.3.7}{Discusi\363n an\341lisis efecto de la altura en el nuevo tipo de rotor}{section.3.3}% 48
\BOOKMARK [2][-]{subsection.3.3.8}{Discusi\363n an\341lisis efecto del \341ngulo de las toberas en el nuevo tipo de rotor}{section.3.3}% 49
\BOOKMARK [2][-]{subsection.3.3.9}{Discusi\363n an\341lisis efecto del encaje del motor}{section.3.3}% 50
\BOOKMARK [2][-]{subsection.3.3.10}{Discusi\363n an\341lisis efecto de la posici\363n del \341labe secundario}{section.3.3}% 51
\BOOKMARK [2][-]{subsection.3.3.11}{Discusi\363n Final}{section.3.3}% 52
\BOOKMARK [2][-]{subsection.3.3.12}{Planos Dise\361o Final}{section.3.3}% 53
\BOOKMARK [0][-]{chapter.4}{Dise\361o}{}% 54
\BOOKMARK [1][-]{section.4.1}{Concepto}{chapter.4}% 55
\BOOKMARK [1][-]{section.4.2}{Dise\361o electr\363nico de la ventosa}{chapter.4}% 56
\BOOKMARK [2][-]{subsection.4.2.1}{TCRT5000}{section.4.2}% 57
\BOOKMARK [2][-]{subsection.4.2.2}{BMP280}{section.4.2}% 58
\BOOKMARK [2][-]{subsection.4.2.3}{Motor Brushless}{section.4.2}% 59
\BOOKMARK [2][-]{subsection.4.2.4}{Variador ESC}{section.4.2}% 60
\BOOKMARK [1][-]{section.4.3}{Dise\361o electr\363nico de la placa centralizadora}{chapter.4}% 61
\BOOKMARK [2][-]{subsection.4.3.1}{Microcontrolador}{section.4.3}% 62
\BOOKMARK [2][-]{subsection.4.3.2}{Multiplexador I2C}{section.4.3}% 63
\BOOKMARK [2][-]{subsection.4.3.3}{Esquem\341tico Circuito}{section.4.3}% 64
\BOOKMARK [1][-]{section.4.4}{Dise\361o mec\341nico}{chapter.4}% 65
\BOOKMARK [0][-]{chapter.5}{Conclusiones y desarrollos futuros}{}% 66
\BOOKMARK [1][-]{section.5.1}{Conclusi\363n}{chapter.5}% 67
\BOOKMARK [1][-]{section.5.2}{Desarrollos futuros}{chapter.5}% 68
\BOOKMARK [0][-]{section.5.2}{Bibliograf\355a}{}% 69
\BOOKMARK [0][-]{appendix.Alph1}{Esquem\341ticos}{}% 70
\BOOKMARK [0][-]{appendix.Alph2}{Layout}{}% 71
\BOOKMARK [0][-]{appendix.Alph3}{Programaci\363n utilizada}{}% 72
\BOOKMARK [1][-]{section.Alph3.1}{Plataforma de pruebas}{appendix.Alph3}% 73
\BOOKMARK [1][-]{section.Alph3.2}{Multiplexador}{appendix.Alph3}% 74
\BOOKMARK [1][-]{section.Alph3.3}{Circuito Sensorizado}{appendix.Alph3}% 75
\BOOKMARK [0][-]{appendix.Alph4}{Software Utilizado}{}% 76
