\relax 
\providecommand\hyper@newdestlabel[2]{}
\catcode `"\active 
\catcode `<\active 
\catcode `>\active 
\@nameuse{es@quoting}
\providecommand\HyperFirstAtBeginDocument{\AtBeginDocument}
\HyperFirstAtBeginDocument{\ifx\hyper@anchor\@undefined
\global\let\oldcontentsline\contentsline
\gdef\contentsline#1#2#3#4{\oldcontentsline{#1}{#2}{#3}}
\global\let\oldnewlabel\newlabel
\gdef\newlabel#1#2{\newlabelxx{#1}#2}
\gdef\newlabelxx#1#2#3#4#5#6{\oldnewlabel{#1}{{#2}{#3}}}
\AtEndDocument{\ifx\hyper@anchor\@undefined
\let\contentsline\oldcontentsline
\let\newlabel\oldnewlabel
\fi}
\fi}
\global\let\hyper@last\relax 
\gdef\HyperFirstAtBeginDocument#1{#1}
\providecommand\HyField@AuxAddToFields[1]{}
\providecommand\HyField@AuxAddToCoFields[2]{}
\@input{capitulos/portada.aux}
\select@language{spanish}
\@writefile{toc}{\select@language{spanish}}
\@writefile{lof}{\select@language{spanish}}
\@writefile{lot}{\select@language{spanish}}
\@input{capitulos/firmas.aux}
\@input{capitulos/evaluacion.aux}
\@input{capitulos/agradecimientos.aux}
\@input{capitulos/resumen.aux}
\citation{Gimenez:00}
\citation{Gimenez:00}
\citation{Gimenez:00}
\citation{Bach:95}
\citation{Gimenez:00}
\citation{Gimenez:00}
\citation{Ismael}
\citation{Ismael}
\citation{Ismael}
\citation{Ismael}
\citation{Clarence:07}
\citation{Luis:08}
\@input{capitulos/introduccion.aux}
\@input{capitulos/estadoarte.aux}
\@input{capitulos/resultados.aux}
\@input{capitulos/diseno.aux}
\@input{capitulos/conclusion.aux}
\bibstyle{plain}
\bibdata{referencias/bibliografia}
\bibcite{Barrientos:97}{1}
\bibcite{Gimenez:00}{2}
\bibcite{Ismael}{3}
\bibcite{Janocha:04}{4}
\bibcite{John:05}{5}
\bibcite{Hanlon:03}{6}
\bibcite{Luis:08}{7}
\bibcite{Clarence:07}{8}
\bibcite{Ian:01}{9}
\bibcite{Fukuda:99}{10}
\bibcite{JMAngulo:99}{11}
\bibcite{Bach:95}{12}
\@writefile{toc}{\contentsline {chapter}{Bibliograf\IeC {\'\i }\-a}{99}{section.5.2}}
\@input{capitulos/anexos.aux}
