<?xml version="1.0" encoding="utf-8"?>
<!DOCTYPE eagle SYSTEM "eagle.dtd">
<eagle version="8.4.2">
<drawing>
<settings>
<setting alwaysvectorfont="no"/>
<setting verticaltext="up"/>
</settings>
<grid distance="0.005" unitdist="mm" unit="mm" style="lines" multiple="1" display="no" altdistance="5" altunitdist="mil" altunit="mil"/>
<layers>
<layer number="1" name="Top" color="4" fill="1" visible="yes" active="yes"/>
<layer number="2" name="Route2" color="1" fill="3" visible="no" active="no"/>
<layer number="3" name="Route3" color="4" fill="3" visible="no" active="no"/>
<layer number="4" name="Route4" color="1" fill="4" visible="no" active="no"/>
<layer number="5" name="Route5" color="4" fill="4" visible="no" active="no"/>
<layer number="6" name="Route6" color="1" fill="8" visible="no" active="no"/>
<layer number="7" name="Route7" color="4" fill="8" visible="no" active="no"/>
<layer number="8" name="Route8" color="1" fill="2" visible="no" active="no"/>
<layer number="9" name="Route9" color="4" fill="2" visible="no" active="no"/>
<layer number="10" name="Route10" color="1" fill="7" visible="no" active="no"/>
<layer number="11" name="Route11" color="4" fill="7" visible="no" active="no"/>
<layer number="12" name="Route12" color="1" fill="5" visible="no" active="no"/>
<layer number="13" name="Route13" color="4" fill="5" visible="no" active="no"/>
<layer number="14" name="Route14" color="1" fill="6" visible="no" active="no"/>
<layer number="15" name="Route15" color="4" fill="6" visible="no" active="no"/>
<layer number="16" name="Bottom" color="1" fill="1" visible="yes" active="yes"/>
<layer number="17" name="Pads" color="2" fill="1" visible="yes" active="yes"/>
<layer number="18" name="Vias" color="2" fill="1" visible="yes" active="yes"/>
<layer number="19" name="Unrouted" color="6" fill="1" visible="yes" active="yes"/>
<layer number="20" name="Dimension" color="24" fill="1" visible="yes" active="yes"/>
<layer number="21" name="tPlace" color="7" fill="1" visible="yes" active="yes"/>
<layer number="22" name="bPlace" color="7" fill="1" visible="yes" active="yes"/>
<layer number="23" name="tOrigins" color="15" fill="1" visible="yes" active="yes"/>
<layer number="24" name="bOrigins" color="15" fill="1" visible="yes" active="yes"/>
<layer number="25" name="tNames" color="7" fill="1" visible="yes" active="yes"/>
<layer number="26" name="bNames" color="7" fill="1" visible="yes" active="yes"/>
<layer number="27" name="tValues" color="7" fill="1" visible="yes" active="yes"/>
<layer number="28" name="bValues" color="7" fill="1" visible="yes" active="yes"/>
<layer number="29" name="tStop" color="7" fill="3" visible="no" active="yes"/>
<layer number="30" name="bStop" color="7" fill="6" visible="no" active="yes"/>
<layer number="31" name="tCream" color="7" fill="4" visible="no" active="yes"/>
<layer number="32" name="bCream" color="7" fill="5" visible="no" active="yes"/>
<layer number="33" name="tFinish" color="6" fill="3" visible="no" active="yes"/>
<layer number="34" name="bFinish" color="6" fill="6" visible="no" active="yes"/>
<layer number="35" name="tGlue" color="7" fill="4" visible="no" active="yes"/>
<layer number="36" name="bGlue" color="7" fill="5" visible="no" active="yes"/>
<layer number="37" name="tTest" color="7" fill="1" visible="no" active="yes"/>
<layer number="38" name="bTest" color="7" fill="1" visible="no" active="yes"/>
<layer number="39" name="tKeepout" color="4" fill="11" visible="yes" active="yes"/>
<layer number="40" name="bKeepout" color="1" fill="11" visible="yes" active="yes"/>
<layer number="41" name="tRestrict" color="4" fill="10" visible="yes" active="yes"/>
<layer number="42" name="bRestrict" color="1" fill="10" visible="yes" active="yes"/>
<layer number="43" name="vRestrict" color="2" fill="10" visible="yes" active="yes"/>
<layer number="44" name="Drills" color="7" fill="1" visible="yes" active="yes"/>
<layer number="45" name="Holes" color="7" fill="1" visible="yes" active="yes"/>
<layer number="46" name="Milling" color="3" fill="1" visible="no" active="yes"/>
<layer number="47" name="Measures" color="7" fill="1" visible="no" active="yes"/>
<layer number="48" name="Document" color="7" fill="1" visible="yes" active="yes"/>
<layer number="49" name="Reference" color="7" fill="1" visible="yes" active="yes"/>
<layer number="50" name="dxf" color="7" fill="1" visible="no" active="no"/>
<layer number="51" name="tDocu" color="7" fill="1" visible="yes" active="yes"/>
<layer number="52" name="bDocu" color="7" fill="1" visible="yes" active="yes"/>
<layer number="53" name="tGND_GNDA" color="7" fill="9" visible="no" active="no"/>
<layer number="54" name="bGND_GNDA" color="1" fill="9" visible="no" active="no"/>
<layer number="56" name="wert" color="7" fill="1" visible="no" active="no"/>
<layer number="57" name="tCAD" color="7" fill="1" visible="no" active="no"/>
<layer number="90" name="Modules" color="5" fill="1" visible="no" active="no"/>
<layer number="91" name="Nets" color="2" fill="1" visible="no" active="no"/>
<layer number="92" name="Busses" color="1" fill="1" visible="no" active="no"/>
<layer number="93" name="Pins" color="2" fill="1" visible="no" active="no"/>
<layer number="94" name="Symbols" color="4" fill="1" visible="no" active="no"/>
<layer number="95" name="Names" color="7" fill="1" visible="no" active="no"/>
<layer number="96" name="Values" color="7" fill="1" visible="no" active="no"/>
<layer number="97" name="Info" color="7" fill="1" visible="no" active="no"/>
<layer number="98" name="Guide" color="6" fill="1" visible="no" active="no"/>
<layer number="99" name="SpiceOrder" color="5" fill="1" visible="no" active="no"/>
<layer number="100" name="Muster" color="7" fill="1" visible="no" active="no"/>
<layer number="101" name="Patch_Top" color="12" fill="4" visible="yes" active="yes"/>
<layer number="102" name="Vscore" color="7" fill="1" visible="yes" active="yes"/>
<layer number="103" name="fp3" color="7" fill="1" visible="no" active="yes"/>
<layer number="104" name="Name" color="7" fill="1" visible="yes" active="yes"/>
<layer number="105" name="Beschreib" color="9" fill="1" visible="yes" active="yes"/>
<layer number="106" name="BGA-Top" color="4" fill="1" visible="yes" active="yes"/>
<layer number="107" name="BD-Top" color="5" fill="1" visible="yes" active="yes"/>
<layer number="108" name="fp8" color="7" fill="1" visible="no" active="yes"/>
<layer number="109" name="fp9" color="7" fill="1" visible="no" active="yes"/>
<layer number="110" name="fp0" color="7" fill="1" visible="no" active="yes"/>
<layer number="111" name="LPC17xx" color="7" fill="1" visible="yes" active="yes"/>
<layer number="112" name="tSilk" color="7" fill="1" visible="yes" active="yes"/>
<layer number="113" name="IDFDebug" color="4" fill="1" visible="yes" active="yes"/>
<layer number="116" name="Patch_BOT" color="9" fill="4" visible="yes" active="yes"/>
<layer number="121" name="_tsilk" color="7" fill="1" visible="yes" active="yes"/>
<layer number="122" name="_bsilk" color="7" fill="1" visible="yes" active="yes"/>
<layer number="123" name="tTestmark" color="7" fill="1" visible="no" active="yes"/>
<layer number="124" name="bTestmark" color="7" fill="1" visible="no" active="yes"/>
<layer number="125" name="_tNames" color="7" fill="1" visible="yes" active="yes"/>
<layer number="126" name="_bNames" color="7" fill="1" visible="yes" active="yes"/>
<layer number="127" name="_tValues" color="7" fill="1" visible="yes" active="yes"/>
<layer number="128" name="_bValues" color="7" fill="1" visible="yes" active="yes"/>
<layer number="131" name="tAdjust" color="7" fill="1" visible="no" active="yes"/>
<layer number="132" name="bAdjust" color="7" fill="1" visible="no" active="yes"/>
<layer number="144" name="Drill_legend" color="7" fill="1" visible="yes" active="yes"/>
<layer number="150" name="Notes" color="7" fill="1" visible="no" active="yes"/>
<layer number="151" name="HeatSink" color="7" fill="1" visible="yes" active="yes"/>
<layer number="152" name="_bDocu" color="7" fill="1" visible="yes" active="yes"/>
<layer number="153" name="FabDoc1" color="6" fill="1" visible="no" active="no"/>
<layer number="154" name="FabDoc2" color="2" fill="1" visible="no" active="no"/>
<layer number="155" name="FabDoc3" color="7" fill="15" visible="no" active="no"/>
<layer number="199" name="Contour" color="7" fill="1" visible="yes" active="yes"/>
<layer number="200" name="200bmp" color="1" fill="10" visible="no" active="no"/>
<layer number="201" name="201bmp" color="2" fill="1" visible="no" active="no"/>
<layer number="202" name="202bmp" color="3" fill="1" visible="no" active="no"/>
<layer number="203" name="203bmp" color="4" fill="10" visible="yes" active="yes"/>
<layer number="204" name="204bmp" color="5" fill="10" visible="yes" active="yes"/>
<layer number="205" name="205bmp" color="6" fill="10" visible="yes" active="yes"/>
<layer number="206" name="206bmp" color="7" fill="10" visible="yes" active="yes"/>
<layer number="207" name="207bmp" color="8" fill="10" visible="yes" active="yes"/>
<layer number="208" name="208bmp" color="9" fill="10" visible="yes" active="yes"/>
<layer number="209" name="209bmp" color="7" fill="1" visible="no" active="yes"/>
<layer number="210" name="210bmp" color="7" fill="1" visible="no" active="yes"/>
<layer number="211" name="211bmp" color="7" fill="1" visible="yes" active="yes"/>
<layer number="212" name="212bmp" color="7" fill="1" visible="yes" active="yes"/>
<layer number="213" name="213bmp" color="7" fill="1" visible="yes" active="yes"/>
<layer number="214" name="214bmp" color="7" fill="1" visible="yes" active="yes"/>
<layer number="215" name="215bmp" color="7" fill="1" visible="yes" active="yes"/>
<layer number="216" name="216bmp" color="7" fill="1" visible="yes" active="yes"/>
<layer number="217" name="217bmp" color="18" fill="1" visible="no" active="no"/>
<layer number="218" name="218bmp" color="19" fill="1" visible="no" active="no"/>
<layer number="219" name="219bmp" color="20" fill="1" visible="no" active="no"/>
<layer number="220" name="220bmp" color="21" fill="1" visible="no" active="no"/>
<layer number="221" name="221bmp" color="22" fill="1" visible="no" active="no"/>
<layer number="222" name="222bmp" color="23" fill="1" visible="no" active="no"/>
<layer number="223" name="223bmp" color="24" fill="1" visible="no" active="no"/>
<layer number="224" name="224bmp" color="25" fill="1" visible="no" active="no"/>
<layer number="248" name="Housing" color="7" fill="1" visible="yes" active="yes"/>
<layer number="249" name="Edge" color="7" fill="1" visible="yes" active="yes"/>
<layer number="250" name="Descript" color="3" fill="1" visible="no" active="no"/>
<layer number="251" name="SMDround" color="12" fill="11" visible="no" active="no"/>
<layer number="254" name="cooling" color="7" fill="1" visible="yes" active="yes"/>
</layers>
<board>
<plain>
<wire x1="2.0113125" y1="17.988625" x2="2.088790625" y2="0.78848125" width="0" layer="20"/>
<wire x1="2.088790625" y1="0.78848125" x2="4.588765625" y2="-1.7" width="0" layer="20" curve="89.741882"/>
<wire x1="4.588765625" y1="-1.7" x2="27.0887125" y2="-1.7" width="0" layer="20"/>
<wire x1="27.0887125" y1="-1.7" x2="29.5886875" y2="0.811375" width="0" layer="20" curve="90.260697"/>
<wire x1="29.5886875" y1="0.811375" x2="29.511209375" y2="18.01151875" width="0" layer="20"/>
<wire x1="29.511209375" y1="18.01151875" x2="27.011234375" y2="20.5" width="0" layer="20" curve="89.741882"/>
<wire x1="27.011234375" y1="20.5" x2="4.5112875" y2="20.5" width="0" layer="20"/>
<wire x1="4.5112875" y1="20.5" x2="2.0113125" y2="17.988625" width="0" layer="20" curve="90.260697"/>
</plain>
<libraries>
<library name="solpad" urn="urn:adsk.eagle:library:364">
<description>&lt;b&gt;Solder Pads/Test Points&lt;/b&gt;&lt;p&gt;
&lt;author&gt;Created by librarian@cadsoft.de&lt;/author&gt;</description>
<packages>
<package name="LSP13" urn="urn:adsk.eagle:footprint:26496/1" library_version="1">
<description>&lt;b&gt;SOLDER PAD&lt;/b&gt;&lt;p&gt;
drill 1.3 mm</description>
<wire x1="-1.524" y1="0.254" x2="-1.524" y2="-0.254" width="0.1524" layer="21"/>
<wire x1="1.524" y1="0.254" x2="1.524" y2="-0.254" width="0.1524" layer="21"/>
<wire x1="1.524" y1="0.254" x2="1.143" y2="0.254" width="0.1524" layer="21"/>
<wire x1="1.524" y1="-0.254" x2="1.143" y2="-0.254" width="0.1524" layer="21"/>
<wire x1="-1.524" y1="-0.254" x2="-1.143" y2="-0.254" width="0.1524" layer="21"/>
<wire x1="-1.524" y1="0.254" x2="-1.143" y2="0.254" width="0.1524" layer="21"/>
<wire x1="1.143" y1="0.254" x2="0.635" y2="0.254" width="0.1524" layer="51"/>
<wire x1="-1.143" y1="-0.254" x2="-0.635" y2="-0.254" width="0.1524" layer="51"/>
<wire x1="0.635" y1="0.254" x2="0.635" y2="-0.254" width="0.1524" layer="51"/>
<wire x1="0.635" y1="0.254" x2="-0.635" y2="0.254" width="0.1524" layer="51"/>
<wire x1="0.635" y1="-0.254" x2="1.143" y2="-0.254" width="0.1524" layer="51"/>
<wire x1="-0.635" y1="0.254" x2="-0.635" y2="-0.254" width="0.1524" layer="51"/>
<wire x1="-0.635" y1="0.254" x2="-1.143" y2="0.254" width="0.1524" layer="51"/>
<wire x1="-0.635" y1="-0.254" x2="0.635" y2="-0.254" width="0.1524" layer="51"/>
<pad name="MP" x="0" y="0" drill="1.3208" diameter="2.159" shape="octagon"/>
<text x="-1.524" y="1.27" size="1.27" layer="25" ratio="10">&gt;NAME</text>
<text x="0" y="0.254" size="0.0254" layer="27">&gt;VALUE</text>
</package>
</packages>
<packages3d>
<package3d name="LSP13" urn="urn:adsk.eagle:package:26509/1" type="box" library_version="1">
<description>SOLDER PAD
drill 1.3 mm</description>
</package3d>
</packages3d>
</library>
<library name="rcl" urn="urn:adsk.eagle:library:334">
<description>&lt;b&gt;Resistors, Capacitors, Inductors&lt;/b&gt;&lt;p&gt;
Based on the previous libraries:
&lt;ul&gt;
&lt;li&gt;r.lbr
&lt;li&gt;cap.lbr 
&lt;li&gt;cap-fe.lbr
&lt;li&gt;captant.lbr
&lt;li&gt;polcap.lbr
&lt;li&gt;ipc-smd.lbr
&lt;/ul&gt;
All SMD packages are defined according to the IPC specifications and  CECC&lt;p&gt;
&lt;author&gt;Created by librarian@cadsoft.de&lt;/author&gt;&lt;p&gt;
&lt;p&gt;
for Electrolyt Capacitors see also :&lt;p&gt;
www.bccomponents.com &lt;p&gt;
www.panasonic.com&lt;p&gt;
www.kemet.com&lt;p&gt;
http://www.secc.co.jp/pdf/os_e/2004/e_os_all.pdf &lt;b&gt;(SANYO)&lt;/b&gt;
&lt;p&gt;
for trimmer refence see : &lt;u&gt;www.electrospec-inc.com/cross_references/trimpotcrossref.asp&lt;/u&gt;&lt;p&gt;

&lt;table border=0 cellspacing=0 cellpadding=0 width="100%" cellpaddding=0&gt;
&lt;tr valign="top"&gt;

&lt;! &lt;td width="10"&gt;&amp;nbsp;&lt;/td&gt;
&lt;td width="90%"&gt;

&lt;b&gt;&lt;font color="#0000FF" size="4"&gt;TRIM-POT CROSS REFERENCE&lt;/font&gt;&lt;/b&gt;
&lt;P&gt;
&lt;TABLE BORDER=0 CELLSPACING=1 CELLPADDING=2&gt;
  &lt;TR&gt;
    &lt;TD COLSPAN=8&gt;
      &lt;FONT SIZE=3 FACE=ARIAL&gt;&lt;B&gt;RECTANGULAR MULTI-TURN&lt;/B&gt;&lt;/FONT&gt;
    &lt;/TD&gt;
  &lt;/TR&gt;
  &lt;TR&gt;
    &lt;TD ALIGN=CENTER&gt;
      &lt;B&gt;
      &lt;FONT SIZE=3 FACE=ARIAL color="#FF0000"&gt;BOURNS&lt;/FONT&gt;
      &lt;/B&gt;
    &lt;/TD&gt;
    &lt;TD ALIGN=CENTER&gt;
      &lt;B&gt;
      &lt;FONT SIZE=3 FACE=ARIAL color="#FF0000"&gt;BI&amp;nbsp;TECH&lt;/FONT&gt;
      &lt;/B&gt;
    &lt;/TD&gt;
    &lt;TD ALIGN=CENTER&gt;
      &lt;B&gt;
      &lt;FONT SIZE=3 FACE=ARIAL color="#FF0000"&gt;DALE-VISHAY&lt;/FONT&gt;
      &lt;/B&gt;
    &lt;/TD&gt;
    &lt;TD ALIGN=CENTER&gt;
      &lt;B&gt;
      &lt;FONT SIZE=3 FACE=ARIAL color="#FF0000"&gt;PHILIPS/MEPCO&lt;/FONT&gt;
      &lt;/B&gt;
    &lt;/TD&gt;
    &lt;TD ALIGN=CENTER&gt;
      &lt;B&gt;
      &lt;FONT SIZE=3 FACE=ARIAL color="#FF0000"&gt;MURATA&lt;/FONT&gt;
      &lt;/B&gt;
    &lt;/TD&gt;
    &lt;TD ALIGN=CENTER&gt;
      &lt;B&gt;
      &lt;FONT SIZE=3 FACE=ARIAL color="#FF0000"&gt;PANASONIC&lt;/FONT&gt;
      &lt;/B&gt;
    &lt;/TD&gt;
    &lt;TD ALIGN=CENTER&gt;
      &lt;B&gt;
      &lt;FONT SIZE=3 FACE=ARIAL color="#FF0000"&gt;SPECTROL&lt;/FONT&gt;
      &lt;/B&gt;
    &lt;/TD&gt;
    &lt;TD ALIGN=CENTER&gt;
      &lt;B&gt;
      &lt;FONT SIZE=3 FACE=ARIAL color="#FF0000"&gt;MILSPEC&lt;/FONT&gt;
      &lt;/B&gt;
    &lt;/TD&gt;&lt;TD&gt;&amp;nbsp;&lt;/TD&gt;
  &lt;/TR&gt;
  &lt;TR&gt;
    &lt;TD BGCOLOR="#cccccc" ALIGN=CENTER&gt;&lt;FONT FACE=ARIAL SIZE=3 &gt;
      3005P&lt;BR&gt;
      3006P&lt;BR&gt;
      3006W&lt;BR&gt;
      3006Y&lt;BR&gt;
      3009P&lt;BR&gt;
      3009W&lt;BR&gt;
      3009Y&lt;BR&gt;
      3057J&lt;BR&gt;
      3057L&lt;BR&gt;
      3057P&lt;BR&gt;
      3057Y&lt;BR&gt;
      3059J&lt;BR&gt;
      3059L&lt;BR&gt;
      3059P&lt;BR&gt;
      3059Y&lt;BR&gt;&lt;/FONT&gt;
    &lt;/TD&gt;
    &lt;TD BGCOLOR="#cccccc" ALIGN=CENTER&gt;&lt;FONT FACE=ARIAL SIZE=3&gt;
      -&lt;BR&gt;
      89P&lt;BR&gt;
      89W&lt;BR&gt;
      89X&lt;BR&gt;
      89PH&lt;BR&gt;
      76P&lt;BR&gt;
      89XH&lt;BR&gt;
      78SLT&lt;BR&gt;
      78L&amp;nbsp;ALT&lt;BR&gt;
      56P&amp;nbsp;ALT&lt;BR&gt;
      78P&amp;nbsp;ALT&lt;BR&gt;
      T8S&lt;BR&gt;
      78L&lt;BR&gt;
      56P&lt;BR&gt;
      78P&lt;BR&gt;&lt;/FONT&gt;
    &lt;/TD&gt;
    &lt;TD BGCOLOR="#cccccc" ALIGN=CENTER&gt;&lt;FONT FACE=ARIAL SIZE=3&gt;
      -&lt;BR&gt;
      T18/784&lt;BR&gt;
      783&lt;BR&gt;
      781&lt;BR&gt;
      -&lt;BR&gt;
      -&lt;BR&gt;
      -&lt;BR&gt;
      2199&lt;BR&gt;
      1697/1897&lt;BR&gt;
      1680/1880&lt;BR&gt;
      2187&lt;BR&gt;
      -&lt;BR&gt;
      -&lt;BR&gt;
      -&lt;BR&gt;
      -&lt;BR&gt;&lt;/FONT&gt;
    &lt;/TD&gt;
    &lt;TD BGCOLOR="#cccccc" ALIGN=CENTER&gt;&lt;FONT FACE=ARIAL SIZE=3&gt;
      -&lt;BR&gt;
      8035EKP/CT20/RJ-20P&lt;BR&gt;
      -&lt;BR&gt;
      RJ-20X&lt;BR&gt;
      -&lt;BR&gt;
      -&lt;BR&gt;
      -&lt;BR&gt;
      1211L&lt;BR&gt;
      8012EKQ&amp;nbsp;ALT&lt;BR&gt;
      8012EKR&amp;nbsp;ALT&lt;BR&gt;
      1211P&lt;BR&gt;
      8012EKJ&lt;BR&gt;
      8012EKL&lt;BR&gt;
      8012EKQ&lt;BR&gt;
      8012EKR&lt;BR&gt;&lt;/FONT&gt;
    &lt;/TD&gt;
    &lt;TD BGCOLOR="#cccccc" ALIGN=CENTER&gt;&lt;FONT FACE=ARIAL SIZE=3&gt;
      -&lt;BR&gt;
      2101P&lt;BR&gt;
      2101W&lt;BR&gt;
      2101Y&lt;BR&gt;
      -&lt;BR&gt;
      -&lt;BR&gt;
      -&lt;BR&gt;
      -&lt;BR&gt;
      -&lt;BR&gt;
      -&lt;BR&gt;
      -&lt;BR&gt;
      -&lt;BR&gt;
      2102L&lt;BR&gt;
      2102S&lt;BR&gt;
      2102Y&lt;BR&gt;&lt;/FONT&gt;
    &lt;/TD&gt;
    &lt;TD BGCOLOR="#cccccc" ALIGN=CENTER&gt;&lt;FONT FACE=ARIAL SIZE=3&gt;
      -&lt;BR&gt;
      EVMCOG&lt;BR&gt;
      -&lt;BR&gt;
      -&lt;BR&gt;
      -&lt;BR&gt;
      -&lt;BR&gt;
      -&lt;BR&gt;
      -&lt;BR&gt;
      -&lt;BR&gt;
      -&lt;BR&gt;
      -&lt;BR&gt;
      -&lt;BR&gt;
      -&lt;BR&gt;
      -&lt;BR&gt;
      -&lt;BR&gt;&lt;/FONT&gt;
    &lt;/TD&gt;
    &lt;TD BGCOLOR="#cccccc" ALIGN=CENTER&gt;&lt;FONT FACE=ARIAL SIZE=3&gt;
      -&lt;BR&gt;
      43P&lt;BR&gt;
      43W&lt;BR&gt;
      43Y&lt;BR&gt;
      -&lt;BR&gt;
      -&lt;BR&gt;
      -&lt;BR&gt;
      -&lt;BR&gt;
      40L&lt;BR&gt;
      40P&lt;BR&gt;
      40Y&lt;BR&gt;
      70Y-T602&lt;BR&gt;
      70L&lt;BR&gt;
      70P&lt;BR&gt;
      70Y&lt;BR&gt;&lt;/FONT&gt;
    &lt;/TD&gt;
    &lt;TD BGCOLOR="#cccccc" ALIGN=CENTER&gt;&lt;FONT FACE=ARIAL SIZE=3&gt;
      -&lt;BR&gt;
      -&lt;BR&gt;
      -&lt;BR&gt;
      -&lt;BR&gt;
      -&lt;BR&gt;
      -&lt;BR&gt;
      -&lt;BR&gt;
      -&lt;BR&gt;
      RT/RTR12&lt;BR&gt;
      RT/RTR12&lt;BR&gt;
      RT/RTR12&lt;BR&gt;
      -&lt;BR&gt;
      RJ/RJR12&lt;BR&gt;
      RJ/RJR12&lt;BR&gt;
      RJ/RJR12&lt;BR&gt;&lt;/FONT&gt;
    &lt;/TD&gt;
  &lt;/TR&gt;
  &lt;TR&gt;
    &lt;TD COLSPAN=8&gt;&amp;nbsp;
    &lt;/TD&gt;
  &lt;/TR&gt;
  &lt;TR&gt;
    &lt;TD COLSPAN=8&gt;
      &lt;FONT SIZE=4 FACE=ARIAL&gt;&lt;B&gt;SQUARE MULTI-TURN&lt;/B&gt;&lt;/FONT&gt;
    &lt;/TD&gt;
  &lt;/TR&gt;
  &lt;TR&gt;
   &lt;TD ALIGN=CENTER&gt;
      &lt;FONT SIZE=3 FACE=ARIAL&gt;&lt;B&gt;BOURN&lt;/B&gt;&lt;/FONT&gt;
    &lt;/TD&gt;
    &lt;TD ALIGN=CENTER&gt;
      &lt;FONT SIZE=3 FACE=ARIAL&gt;&lt;B&gt;BI&amp;nbsp;TECH&lt;/B&gt;&lt;/FONT&gt;
    &lt;/TD&gt;
    &lt;TD ALIGN=CENTER&gt;
      &lt;FONT SIZE=3 FACE=ARIAL&gt;&lt;B&gt;DALE-VISHAY&lt;/B&gt;&lt;/FONT&gt;
    &lt;/TD&gt;
    &lt;TD ALIGN=CENTER&gt;
      &lt;FONT SIZE=3 FACE=ARIAL&gt;&lt;B&gt;PHILIPS/MEPCO&lt;/B&gt;&lt;/FONT&gt;
    &lt;/TD&gt;
    &lt;TD ALIGN=CENTER&gt;
      &lt;FONT SIZE=3 FACE=ARIAL&gt;&lt;B&gt;MURATA&lt;/B&gt;&lt;/FONT&gt;
    &lt;/TD&gt;
    &lt;TD ALIGN=CENTER&gt;
      &lt;FONT SIZE=3 FACE=ARIAL&gt;&lt;B&gt;PANASONIC&lt;/B&gt;&lt;/FONT&gt;
    &lt;/TD&gt;
    &lt;TD ALIGN=CENTER&gt;
      &lt;FONT SIZE=3 FACE=ARIAL&gt;&lt;B&gt;SPECTROL&lt;/B&gt;&lt;/FONT&gt;
    &lt;/TD&gt;
    &lt;TD ALIGN=CENTER&gt;
      &lt;FONT SIZE=3 FACE=ARIAL&gt;&lt;B&gt;MILSPEC&lt;/B&gt;&lt;/FONT&gt;
    &lt;/TD&gt;
  &lt;/TR&gt;
  &lt;TR&gt;
    &lt;TD BGCOLOR="#cccccc" ALIGN=CENTER&gt;&lt;FONT FACE=ARIAL SIZE=3&gt;
      3250L&lt;BR&gt;
      3250P&lt;BR&gt;
      3250W&lt;BR&gt;
      3250X&lt;BR&gt;
      3252P&lt;BR&gt;
      3252W&lt;BR&gt;
      3252X&lt;BR&gt;
      3260P&lt;BR&gt;
      3260W&lt;BR&gt;
      3260X&lt;BR&gt;
      3262P&lt;BR&gt;
      3262W&lt;BR&gt;
      3262X&lt;BR&gt;
      3266P&lt;BR&gt;
      3266W&lt;BR&gt;
      3266X&lt;BR&gt;
      3290H&lt;BR&gt;
      3290P&lt;BR&gt;
      3290W&lt;BR&gt;
      3292P&lt;BR&gt;
      3292W&lt;BR&gt;
      3292X&lt;BR&gt;
      3296P&lt;BR&gt;
      3296W&lt;BR&gt;
      3296X&lt;BR&gt;
      3296Y&lt;BR&gt;
      3296Z&lt;BR&gt;
      3299P&lt;BR&gt;
      3299W&lt;BR&gt;
      3299X&lt;BR&gt;
      3299Y&lt;BR&gt;
      3299Z&lt;BR&gt;&lt;/FONT&gt;
    &lt;/TD&gt;
    &lt;TD BGCOLOR="#cccccc" ALIGN=CENTER&gt;&lt;FONT FACE=ARIAL SIZE=3&gt;
      -&lt;BR&gt;
      66P&amp;nbsp;ALT&lt;BR&gt;
      66W&amp;nbsp;ALT&lt;BR&gt;
      66X&amp;nbsp;ALT&lt;BR&gt;
      66P&amp;nbsp;ALT&lt;BR&gt;
      66W&amp;nbsp;ALT&lt;BR&gt;
      66X&amp;nbsp;ALT&lt;BR&gt;
      -&lt;BR&gt;
      64W&amp;nbsp;ALT&lt;BR&gt;
      -&lt;BR&gt;
      64P&amp;nbsp;ALT&lt;BR&gt;
      64W&amp;nbsp;ALT&lt;BR&gt;
      64X&amp;nbsp;ALT&lt;BR&gt;
      64P&lt;BR&gt;
      64W&lt;BR&gt;
      64X&lt;BR&gt;
      66X&amp;nbsp;ALT&lt;BR&gt;
      66P&amp;nbsp;ALT&lt;BR&gt;
      66W&amp;nbsp;ALT&lt;BR&gt;
      66P&lt;BR&gt;
      66W&lt;BR&gt;
      66X&lt;BR&gt;
      67P&lt;BR&gt;
      67W&lt;BR&gt;
      67X&lt;BR&gt;
      67Y&lt;BR&gt;
      67Z&lt;BR&gt;
      68P&lt;BR&gt;
      68W&lt;BR&gt;
      68X&lt;BR&gt;
      67Y&amp;nbsp;ALT&lt;BR&gt;
      67Z&amp;nbsp;ALT&lt;BR&gt;&lt;/FONT&gt;
    &lt;/TD&gt;
    &lt;TD BGCOLOR="#cccccc" ALIGN=CENTER&gt;&lt;FONT FACE=ARIAL SIZE=3&gt;
      5050&lt;BR&gt;
      5091&lt;BR&gt;
      5080&lt;BR&gt;
      5087&lt;BR&gt;
      -&lt;BR&gt;
      -&lt;BR&gt;
      -&lt;BR&gt;
      -&lt;BR&gt;
      -&lt;BR&gt;
      -&lt;BR&gt;
      -&lt;BR&gt;
      T63YB&lt;BR&gt;
      T63XB&lt;BR&gt;
      -&lt;BR&gt;
      -&lt;BR&gt;
      -&lt;BR&gt;
      5887&lt;BR&gt;
      5891&lt;BR&gt;
      5880&lt;BR&gt;
      -&lt;BR&gt;
      -&lt;BR&gt;
      -&lt;BR&gt;
      T93Z&lt;BR&gt;
      T93YA&lt;BR&gt;
      T93XA&lt;BR&gt;
      T93YB&lt;BR&gt;
      T93XB&lt;BR&gt;
      -&lt;BR&gt;
      -&lt;BR&gt;
      -&lt;BR&gt;
      -&lt;BR&gt;
      -&lt;BR&gt;&lt;/FONT&gt;
    &lt;/TD&gt;
    &lt;TD BGCOLOR="#cccccc" ALIGN=CENTER&gt;&lt;FONT FACE=ARIAL SIZE=3&gt;
      -&lt;BR&gt;
      -&lt;BR&gt;
      -&lt;BR&gt;
      -&lt;BR&gt;
      -&lt;BR&gt;
      -&lt;BR&gt;
      -&lt;BR&gt;
      -&lt;BR&gt;
      -&lt;BR&gt;
      -&lt;BR&gt;
      8026EKP&lt;BR&gt;
      8026EKW&lt;BR&gt;
      8026EKM&lt;BR&gt;
      8026EKP&lt;BR&gt;
      8026EKB&lt;BR&gt;
      8026EKM&lt;BR&gt;
      1309X&lt;BR&gt;
      1309P&lt;BR&gt;
      1309W&lt;BR&gt;
      8024EKP&lt;BR&gt;
      8024EKW&lt;BR&gt;
      8024EKN&lt;BR&gt;
      RJ-9P/CT9P&lt;BR&gt;
      RJ-9W&lt;BR&gt;
      RJ-9X&lt;BR&gt;
      -&lt;BR&gt;
      -&lt;BR&gt;
      -&lt;BR&gt;
      -&lt;BR&gt;
      -&lt;BR&gt;
      -&lt;BR&gt;
      -&lt;BR&gt;&lt;/FONT&gt;
    &lt;/TD&gt;
    &lt;TD BGCOLOR="#cccccc" ALIGN=CENTER&gt;&lt;FONT FACE=ARIAL SIZE=3&gt;
      -&lt;BR&gt;
      -&lt;BR&gt;
      -&lt;BR&gt;
      -&lt;BR&gt;
      -&lt;BR&gt;
      -&lt;BR&gt;
      -&lt;BR&gt;
      -&lt;BR&gt;
      -&lt;BR&gt;
      -&lt;BR&gt;
      3103P&lt;BR&gt;
      3103Y&lt;BR&gt;
      3103Z&lt;BR&gt;
      3103P&lt;BR&gt;
      3103Y&lt;BR&gt;
      3103Z&lt;BR&gt;
      -&lt;BR&gt;
      -&lt;BR&gt;
      -&lt;BR&gt;
      -&lt;BR&gt;
      -&lt;BR&gt;
      -&lt;BR&gt;
      3105P/3106P&lt;BR&gt;
      3105W/3106W&lt;BR&gt;
      3105X/3106X&lt;BR&gt;
      3105Y/3106Y&lt;BR&gt;
      3105Z/3105Z&lt;BR&gt;
      3102P&lt;BR&gt;
      3102W&lt;BR&gt;
      3102X&lt;BR&gt;
      3102Y&lt;BR&gt;
      3102Z&lt;BR&gt;&lt;/FONT&gt;
    &lt;/TD&gt;
    &lt;TD BGCOLOR="#cccccc" ALIGN=CENTER&gt;&lt;FONT FACE=ARIAL SIZE=3&gt;
      -&lt;BR&gt;
      -&lt;BR&gt;
      -&lt;BR&gt;
      -&lt;BR&gt;
      -&lt;BR&gt;
      -&lt;BR&gt;
      -&lt;BR&gt;
      -&lt;BR&gt;
      -&lt;BR&gt;
      -&lt;BR&gt;
      -&lt;BR&gt;
      -&lt;BR&gt;
      -&lt;BR&gt;
      -&lt;BR&gt;
      -&lt;BR&gt;
      -&lt;BR&gt;
      -&lt;BR&gt;
      -&lt;BR&gt;
      -&lt;BR&gt;
      -&lt;BR&gt;
      -&lt;BR&gt;
      -&lt;BR&gt;
      EVMCBG&lt;BR&gt;
      EVMCCG&lt;BR&gt;
      -&lt;BR&gt;
      -&lt;BR&gt;
      -&lt;BR&gt;
      -&lt;BR&gt;
      -&lt;BR&gt;
      -&lt;BR&gt;
      -&lt;BR&gt;
      -&lt;BR&gt;&lt;/FONT&gt;
    &lt;/TD&gt;
    &lt;TD BGCOLOR="#cccccc" ALIGN=CENTER&gt;&lt;FONT FACE=ARIAL SIZE=3&gt;
      55-1-X&lt;BR&gt;
      55-4-X&lt;BR&gt;
      55-3-X&lt;BR&gt;
      55-2-X&lt;BR&gt;
      -&lt;BR&gt;
      -&lt;BR&gt;
      -&lt;BR&gt;
      -&lt;BR&gt;
      -&lt;BR&gt;
      -&lt;BR&gt;
      -&lt;BR&gt;
      -&lt;BR&gt;
      -&lt;BR&gt;
      -&lt;BR&gt;
      -&lt;BR&gt;
      -&lt;BR&gt;
      50-2-X&lt;BR&gt;
      50-4-X&lt;BR&gt;
      50-3-X&lt;BR&gt;
      -&lt;BR&gt;
      -&lt;BR&gt;
      -&lt;BR&gt;
      64P&lt;BR&gt;
      64W&lt;BR&gt;
      64X&lt;BR&gt;
      64Y&lt;BR&gt;
      64Z&lt;BR&gt;
      -&lt;BR&gt;
      -&lt;BR&gt;
      -&lt;BR&gt;
      -&lt;BR&gt;
      -&lt;BR&gt;&lt;/FONT&gt;
    &lt;/TD&gt;
    &lt;TD BGCOLOR="#cccccc" ALIGN=CENTER&gt;&lt;FONT FACE=ARIAL SIZE=3&gt;
      RT/RTR22&lt;BR&gt;
      RT/RTR22&lt;BR&gt;
      RT/RTR22&lt;BR&gt;
      RT/RTR22&lt;BR&gt;
      RJ/RJR22&lt;BR&gt;
      RJ/RJR22&lt;BR&gt;
      RJ/RJR22&lt;BR&gt;
      RT/RTR26&lt;BR&gt;
      RT/RTR26&lt;BR&gt;
      RT/RTR26&lt;BR&gt;
      RJ/RJR26&lt;BR&gt;
      RJ/RJR26&lt;BR&gt;
      RJ/RJR26&lt;BR&gt;
      RJ/RJR26&lt;BR&gt;
      RJ/RJR26&lt;BR&gt;
      RJ/RJR26&lt;BR&gt;
      RT/RTR24&lt;BR&gt;
      RT/RTR24&lt;BR&gt;
      RT/RTR24&lt;BR&gt;
      RJ/RJR24&lt;BR&gt;
      RJ/RJR24&lt;BR&gt;
      RJ/RJR24&lt;BR&gt;
      RJ/RJR24&lt;BR&gt;
      RJ/RJR24&lt;BR&gt;
      RJ/RJR24&lt;BR&gt;
      -&lt;BR&gt;
      -&lt;BR&gt;
      -&lt;BR&gt;
      -&lt;BR&gt;
      -&lt;BR&gt;
      -&lt;BR&gt;
      -&lt;BR&gt;&lt;/FONT&gt;
    &lt;/TD&gt;
  &lt;/TR&gt;
  &lt;TR&gt;
    &lt;TD COLSPAN=8&gt;&amp;nbsp;
    &lt;/TD&gt;
  &lt;/TR&gt;
  &lt;TR&gt;
    &lt;TD COLSPAN=8&gt;
      &lt;FONT SIZE=4 FACE=ARIAL&gt;&lt;B&gt;SINGLE TURN&lt;/B&gt;&lt;/FONT&gt;
    &lt;/TD&gt;
  &lt;/TR&gt;
  &lt;TR&gt;
    &lt;TD ALIGN=CENTER&gt;
      &lt;FONT SIZE=3 FACE=ARIAL&gt;&lt;B&gt;BOURN&lt;/B&gt;&lt;/FONT&gt;
    &lt;/TD&gt;
    &lt;TD ALIGN=CENTER&gt;
      &lt;FONT SIZE=3 FACE=ARIAL&gt;&lt;B&gt;BI&amp;nbsp;TECH&lt;/B&gt;&lt;/FONT&gt;
    &lt;/TD&gt;
    &lt;TD ALIGN=CENTER&gt;
      &lt;FONT SIZE=3 FACE=ARIAL&gt;&lt;B&gt;DALE-VISHAY&lt;/B&gt;&lt;/FONT&gt;
    &lt;/TD&gt;
    &lt;TD ALIGN=CENTER&gt;
      &lt;FONT SIZE=3 FACE=ARIAL&gt;&lt;B&gt;PHILIPS/MEPCO&lt;/B&gt;&lt;/FONT&gt;
    &lt;/TD&gt;
    &lt;TD ALIGN=CENTER&gt;
      &lt;FONT SIZE=3 FACE=ARIAL&gt;&lt;B&gt;MURATA&lt;/B&gt;&lt;/FONT&gt;
    &lt;/TD&gt;
    &lt;TD ALIGN=CENTER&gt;
      &lt;FONT SIZE=3 FACE=ARIAL&gt;&lt;B&gt;PANASONIC&lt;/B&gt;&lt;/FONT&gt;
    &lt;/TD&gt;
    &lt;TD ALIGN=CENTER&gt;
      &lt;FONT SIZE=3 FACE=ARIAL&gt;&lt;B&gt;SPECTROL&lt;/B&gt;&lt;/FONT&gt;
    &lt;/TD&gt;
    &lt;TD ALIGN=CENTER&gt;
      &lt;FONT SIZE=3 FACE=ARIAL&gt;&lt;B&gt;MILSPEC&lt;/B&gt;&lt;/FONT&gt;
    &lt;/TD&gt;
  &lt;/TR&gt;
  &lt;TR&gt;
    &lt;TD BGCOLOR="#cccccc" ALIGN=CENTER&gt;&lt;FONT FACE=ARIAL SIZE=3&gt;
      3323P&lt;BR&gt;
      3323S&lt;BR&gt;
      3323W&lt;BR&gt;
      3329H&lt;BR&gt;
      3329P&lt;BR&gt;
      3329W&lt;BR&gt;
      3339H&lt;BR&gt;
      3339P&lt;BR&gt;
      3339W&lt;BR&gt;
      3352E&lt;BR&gt;
      3352H&lt;BR&gt;
      3352K&lt;BR&gt;
      3352P&lt;BR&gt;
      3352T&lt;BR&gt;
      3352V&lt;BR&gt;
      3352W&lt;BR&gt;
      3362H&lt;BR&gt;
      3362M&lt;BR&gt;
      3362P&lt;BR&gt;
      3362R&lt;BR&gt;
      3362S&lt;BR&gt;
      3362U&lt;BR&gt;
      3362W&lt;BR&gt;
      3362X&lt;BR&gt;
      3386B&lt;BR&gt;
      3386C&lt;BR&gt;
      3386F&lt;BR&gt;
      3386H&lt;BR&gt;
      3386K&lt;BR&gt;
      3386M&lt;BR&gt;
      3386P&lt;BR&gt;
      3386S&lt;BR&gt;
      3386W&lt;BR&gt;
      3386X&lt;BR&gt;&lt;/FONT&gt;
    &lt;/TD&gt;
    &lt;TD BGCOLOR="#cccccc" ALIGN=CENTER&gt;&lt;FONT FACE=ARIAL SIZE=3&gt;
      25P&lt;BR&gt;
      25S&lt;BR&gt;
      25RX&lt;BR&gt;
      82P&lt;BR&gt;
      82M&lt;BR&gt;
      82PA&lt;BR&gt;
      -&lt;BR&gt;
      -&lt;BR&gt;
      -&lt;BR&gt;
      91E&lt;BR&gt;
      91X&lt;BR&gt;
      91T&lt;BR&gt;
      91B&lt;BR&gt;
      91A&lt;BR&gt;
      91V&lt;BR&gt;
      91W&lt;BR&gt;
      25W&lt;BR&gt;
      25V&lt;BR&gt;
      25P&lt;BR&gt;
      -&lt;BR&gt;
      25S&lt;BR&gt;
      25U&lt;BR&gt;
      25RX&lt;BR&gt;
      25X&lt;BR&gt;
      72XW&lt;BR&gt;
      72XL&lt;BR&gt;
      72PM&lt;BR&gt;
      72RX&lt;BR&gt;
      -&lt;BR&gt;
      72PX&lt;BR&gt;
      72P&lt;BR&gt;
      72RXW&lt;BR&gt;
      72RXL&lt;BR&gt;
      72X&lt;BR&gt;&lt;/FONT&gt;
    &lt;/TD&gt;
    &lt;TD BGCOLOR="#cccccc" ALIGN=CENTER&gt;&lt;FONT FACE=ARIAL SIZE=3&gt;
      -&lt;BR&gt;
      -&lt;BR&gt;
      -&lt;BR&gt;
      T7YB&lt;BR&gt;
      T7YA&lt;BR&gt;
      -&lt;BR&gt;
      -&lt;BR&gt;
      -&lt;BR&gt;
      -&lt;BR&gt;
      -&lt;BR&gt;
      -&lt;BR&gt;
      -&lt;BR&gt;
      -&lt;BR&gt;
      -&lt;BR&gt;
      -&lt;BR&gt;
      -&lt;BR&gt;
      -&lt;BR&gt;
      TXD&lt;BR&gt;
      TYA&lt;BR&gt;
      TYP&lt;BR&gt;
      -&lt;BR&gt;
      TYD&lt;BR&gt;
      TX&lt;BR&gt;
      -&lt;BR&gt;
      150SX&lt;BR&gt;
      100SX&lt;BR&gt;
      102T&lt;BR&gt;
      101S&lt;BR&gt;
      190T&lt;BR&gt;
      150TX&lt;BR&gt;
      101&lt;BR&gt;
      -&lt;BR&gt;
      -&lt;BR&gt;
      101SX&lt;BR&gt;&lt;/FONT&gt;
    &lt;/TD&gt;
    &lt;TD BGCOLOR="#cccccc" ALIGN=CENTER&gt;&lt;FONT FACE=ARIAL SIZE=3&gt;
      ET6P&lt;BR&gt;
      ET6S&lt;BR&gt;
      ET6X&lt;BR&gt;
      RJ-6W/8014EMW&lt;BR&gt;
      RJ-6P/8014EMP&lt;BR&gt;
      RJ-6X/8014EMX&lt;BR&gt;
      TM7W&lt;BR&gt;
      TM7P&lt;BR&gt;
      TM7X&lt;BR&gt;
      -&lt;BR&gt;
      8017SMS&lt;BR&gt;
      -&lt;BR&gt;
      8017SMB&lt;BR&gt;
      8017SMA&lt;BR&gt;
      -&lt;BR&gt;
      -&lt;BR&gt;
      CT-6W&lt;BR&gt;
      CT-6H&lt;BR&gt;
      CT-6P&lt;BR&gt;
      CT-6R&lt;BR&gt;
      -&lt;BR&gt;
      CT-6V&lt;BR&gt;
      CT-6X&lt;BR&gt;
      -&lt;BR&gt;
      -&lt;BR&gt;
      8038EKV&lt;BR&gt;
      -&lt;BR&gt;
      8038EKX&lt;BR&gt;
      -&lt;BR&gt;
      -&lt;BR&gt;
      8038EKP&lt;BR&gt;
      8038EKZ&lt;BR&gt;
      8038EKW&lt;BR&gt;
      -&lt;BR&gt;&lt;/FONT&gt;
    &lt;/TD&gt;
    &lt;TD BGCOLOR="#cccccc" ALIGN=CENTER&gt;&lt;FONT FACE=ARIAL SIZE=3&gt;
      -&lt;BR&gt;
      -&lt;BR&gt;
      -&lt;BR&gt;
      3321H&lt;BR&gt;
      3321P&lt;BR&gt;
      3321N&lt;BR&gt;
      1102H&lt;BR&gt;
      1102P&lt;BR&gt;
      1102T&lt;BR&gt;
      RVA0911V304A&lt;BR&gt;
      -&lt;BR&gt;
      RVA0911H413A&lt;BR&gt;
      RVG0707V100A&lt;BR&gt;
      RVA0607V(H)306A&lt;BR&gt;
      RVA1214H213A&lt;BR&gt;
      -&lt;BR&gt;
      -&lt;BR&gt;
      -&lt;BR&gt;
      -&lt;BR&gt;
      -&lt;BR&gt;
      -&lt;BR&gt;
      -&lt;BR&gt;
      -&lt;BR&gt;
      -&lt;BR&gt;
      3104B&lt;BR&gt;
      3104C&lt;BR&gt;
      3104F&lt;BR&gt;
      3104H&lt;BR&gt;
      -&lt;BR&gt;
      3104M&lt;BR&gt;
      3104P&lt;BR&gt;
      3104S&lt;BR&gt;
      3104W&lt;BR&gt;
      3104X&lt;BR&gt;&lt;/FONT&gt;
    &lt;/TD&gt;
    &lt;TD BGCOLOR="#cccccc" ALIGN=CENTER&gt;&lt;FONT FACE=ARIAL SIZE=3&gt;
      EVMQ0G&lt;BR&gt;
      EVMQIG&lt;BR&gt;
      EVMQ3G&lt;BR&gt;
      EVMS0G&lt;BR&gt;
      EVMQ0G&lt;BR&gt;
      EVMG0G&lt;BR&gt;
      -&lt;BR&gt;
      -&lt;BR&gt;
      -&lt;BR&gt;
      EVMK4GA00B&lt;BR&gt;
      EVM30GA00B&lt;BR&gt;
      EVMK0GA00B&lt;BR&gt;
      EVM38GA00B&lt;BR&gt;
      EVMB6&lt;BR&gt;
      EVLQ0&lt;BR&gt;
      -&lt;BR&gt;
      EVMMSG&lt;BR&gt;
      EVMMBG&lt;BR&gt;
      EVMMAG&lt;BR&gt;
      -&lt;BR&gt;
      -&lt;BR&gt;
      EVMMCS&lt;BR&gt;
      -&lt;BR&gt;
      -&lt;BR&gt;
      -&lt;BR&gt;
      -&lt;BR&gt;
      -&lt;BR&gt;
      EVMM1&lt;BR&gt;
      -&lt;BR&gt;
      -&lt;BR&gt;
      EVMM0&lt;BR&gt;
      -&lt;BR&gt;
      -&lt;BR&gt;
      EVMM3&lt;BR&gt;&lt;/FONT&gt;
    &lt;/TD&gt;
    &lt;TD BGCOLOR="#cccccc" ALIGN=CENTER&gt;&lt;FONT FACE=ARIAL SIZE=3&gt;
      -&lt;BR&gt;
      -&lt;BR&gt;
      -&lt;BR&gt;
      62-3-1&lt;BR&gt;
      62-1-2&lt;BR&gt;
      -&lt;BR&gt;
      -&lt;BR&gt;
      -&lt;BR&gt;
      -&lt;BR&gt;
      -&lt;BR&gt;
      -&lt;BR&gt;
      -&lt;BR&gt;
      -&lt;BR&gt;
      -&lt;BR&gt;
      -&lt;BR&gt;
      -&lt;BR&gt;
      67R&lt;BR&gt;
      -&lt;BR&gt;
      67P&lt;BR&gt;
      -&lt;BR&gt;
      -&lt;BR&gt;
      -&lt;BR&gt;
      -&lt;BR&gt;
      67X&lt;BR&gt;
      63V&lt;BR&gt;
      63S&lt;BR&gt;
      63M&lt;BR&gt;
      -&lt;BR&gt;
      -&lt;BR&gt;
      63H&lt;BR&gt;
      63P&lt;BR&gt;
      -&lt;BR&gt;
      -&lt;BR&gt;
      63X&lt;BR&gt;&lt;/FONT&gt;
    &lt;/TD&gt;
    &lt;TD BGCOLOR="#cccccc" ALIGN=CENTER&gt;&lt;FONT FACE=ARIAL SIZE=3&gt;
      -&lt;BR&gt;
      -&lt;BR&gt;
      -&lt;BR&gt;
      RJ/RJR50&lt;BR&gt;
      RJ/RJR50&lt;BR&gt;
      RJ/RJR50&lt;BR&gt;
      -&lt;BR&gt;
      -&lt;BR&gt;
      -&lt;BR&gt;
      -&lt;BR&gt;
      -&lt;BR&gt;
      -&lt;BR&gt;
      -&lt;BR&gt;
      -&lt;BR&gt;
      -&lt;BR&gt;
      -&lt;BR&gt;
      -&lt;BR&gt;
      -&lt;BR&gt;
      -&lt;BR&gt;
      -&lt;BR&gt;
      -&lt;BR&gt;
      -&lt;BR&gt;
      -&lt;BR&gt;
      -&lt;BR&gt;
      -&lt;BR&gt;
      -&lt;BR&gt;
      -&lt;BR&gt;
      -&lt;BR&gt;
      -&lt;BR&gt;
      -&lt;BR&gt;
      -&lt;BR&gt;
      -&lt;BR&gt;
      -&lt;BR&gt;
      -&lt;BR&gt;&lt;/FONT&gt;
    &lt;/TD&gt;
  &lt;/TR&gt;
&lt;/TABLE&gt;
&lt;P&gt;&amp;nbsp;&lt;P&gt;
&lt;TABLE BORDER=0 CELLSPACING=1 CELLPADDING=3&gt;
  &lt;TR&gt;
    &lt;TD COLSPAN=7&gt;
      &lt;FONT color="#0000FF" SIZE=4 FACE=ARIAL&gt;&lt;B&gt;SMD TRIM-POT CROSS REFERENCE&lt;/B&gt;&lt;/FONT&gt;
      &lt;P&gt;
      &lt;FONT SIZE=4 FACE=ARIAL&gt;&lt;B&gt;MULTI-TURN&lt;/B&gt;&lt;/FONT&gt;
    &lt;/TD&gt;
  &lt;/TR&gt;
  &lt;TR&gt;
    &lt;TD&gt;
      &lt;FONT SIZE=3 FACE=ARIAL&gt;&lt;B&gt;BOURNS&lt;/B&gt;&lt;/FONT&gt;
    &lt;/TD&gt;
    &lt;TD&gt;
      &lt;FONT SIZE=3 FACE=ARIAL&gt;&lt;B&gt;BI&amp;nbsp;TECH&lt;/B&gt;&lt;/FONT&gt;
    &lt;/TD&gt;
    &lt;TD&gt;
      &lt;FONT SIZE=3 FACE=ARIAL&gt;&lt;B&gt;DALE-VISHAY&lt;/B&gt;&lt;/FONT&gt;
    &lt;/TD&gt;
    &lt;TD&gt;
      &lt;FONT SIZE=3 FACE=ARIAL&gt;&lt;B&gt;PHILIPS/MEPCO&lt;/B&gt;&lt;/FONT&gt;
    &lt;/TD&gt;
    &lt;TD&gt;
      &lt;FONT SIZE=3 FACE=ARIAL&gt;&lt;B&gt;PANASONIC&lt;/B&gt;&lt;/FONT&gt;
    &lt;/TD&gt;
    &lt;TD&gt;
      &lt;FONT SIZE=3 FACE=ARIAL&gt;&lt;B&gt;TOCOS&lt;/B&gt;&lt;/FONT&gt;
    &lt;/TD&gt;
    &lt;TD&gt;
      &lt;FONT SIZE=3 FACE=ARIAL&gt;&lt;B&gt;AUX/KYOCERA&lt;/B&gt;&lt;/FONT&gt;
    &lt;/TD&gt;
  &lt;/TR&gt;
  &lt;TR&gt;
    &lt;TD BGCOLOR="#cccccc" ALIGN=CENTER&gt;&lt;FONT FACE=ARIAL SIZE=3&gt;
      3224G&lt;BR&gt;
      3224J&lt;BR&gt;
      3224W&lt;BR&gt;
      3269P&lt;BR&gt;
      3269W&lt;BR&gt;
      3269X&lt;BR&gt;&lt;/FONT&gt;
    &lt;/TD&gt;
    &lt;TD BGCOLOR="#cccccc" ALIGN=CENTER&gt;&lt;FONT FACE=ARIAL SIZE=3&gt;
      44G&lt;BR&gt;
      44J&lt;BR&gt;
      44W&lt;BR&gt;
      84P&lt;BR&gt;
      84W&lt;BR&gt;
      84X&lt;BR&gt;&lt;/FONT&gt;
    &lt;/TD&gt;
    &lt;TD BGCOLOR="#cccccc" ALIGN=CENTER&gt;&lt;FONT FACE=ARIAL SIZE=3&gt;
      -&lt;BR&gt;
      -&lt;BR&gt;
      -&lt;BR&gt;
      ST63Z&lt;BR&gt;
      ST63Y&lt;BR&gt;
      -&lt;BR&gt;&lt;/FONT&gt;
    &lt;/TD&gt;
    &lt;TD BGCOLOR="#cccccc" ALIGN=CENTER&gt;&lt;FONT FACE=ARIAL SIZE=3&gt;
      -&lt;BR&gt;
      -&lt;BR&gt;
      -&lt;BR&gt;
      ST5P&lt;BR&gt;
      ST5W&lt;BR&gt;
      ST5X&lt;BR&gt;&lt;/FONT&gt;
    &lt;/TD&gt;
    &lt;TD BGCOLOR="#cccccc" ALIGN=CENTER&gt;&lt;FONT FACE=ARIAL SIZE=3&gt;
      -&lt;BR&gt;
      -&lt;BR&gt;
      -&lt;BR&gt;
      -&lt;BR&gt;
      -&lt;BR&gt;
      -&lt;BR&gt;&lt;/FONT&gt;
    &lt;/TD&gt;
    &lt;TD BGCOLOR="#cccccc" ALIGN=CENTER&gt;&lt;FONT FACE=ARIAL SIZE=3&gt;
      -&lt;BR&gt;
      -&lt;BR&gt;
      -&lt;BR&gt;
      -&lt;BR&gt;
      -&lt;BR&gt;
      -&lt;BR&gt;&lt;/FONT&gt;
    &lt;/TD&gt;
    &lt;TD BGCOLOR="#cccccc" ALIGN=CENTER&gt;&lt;FONT FACE=ARIAL SIZE=3&gt;
      -&lt;BR&gt;
      -&lt;BR&gt;
      -&lt;BR&gt;
      -&lt;BR&gt;
      -&lt;BR&gt;
      -&lt;BR&gt;&lt;/FONT&gt;
    &lt;/TD&gt;
  &lt;/TR&gt;
  &lt;TR&gt;
    &lt;TD COLSPAN=7&gt;&amp;nbsp;
    &lt;/TD&gt;
  &lt;/TR&gt;
  &lt;TR&gt;
    &lt;TD COLSPAN=7&gt;
      &lt;FONT SIZE=4 FACE=ARIAL&gt;&lt;B&gt;SINGLE TURN&lt;/B&gt;&lt;/FONT&gt;
    &lt;/TD&gt;
  &lt;/TR&gt;
  &lt;TR&gt;
    &lt;TD&gt;
      &lt;FONT SIZE=3 FACE=ARIAL&gt;&lt;B&gt;BOURNS&lt;/B&gt;&lt;/FONT&gt;
    &lt;/TD&gt;
    &lt;TD&gt;
      &lt;FONT SIZE=3 FACE=ARIAL&gt;&lt;B&gt;BI&amp;nbsp;TECH&lt;/B&gt;&lt;/FONT&gt;
    &lt;/TD&gt;
    &lt;TD&gt;
      &lt;FONT SIZE=3 FACE=ARIAL&gt;&lt;B&gt;DALE-VISHAY&lt;/B&gt;&lt;/FONT&gt;
    &lt;/TD&gt;
    &lt;TD&gt;
      &lt;FONT SIZE=3 FACE=ARIAL&gt;&lt;B&gt;PHILIPS/MEPCO&lt;/B&gt;&lt;/FONT&gt;
    &lt;/TD&gt;
    &lt;TD&gt;
      &lt;FONT SIZE=3 FACE=ARIAL&gt;&lt;B&gt;PANASONIC&lt;/B&gt;&lt;/FONT&gt;
    &lt;/TD&gt;
    &lt;TD&gt;
      &lt;FONT SIZE=3 FACE=ARIAL&gt;&lt;B&gt;TOCOS&lt;/B&gt;&lt;/FONT&gt;
    &lt;/TD&gt;
    &lt;TD&gt;
      &lt;FONT SIZE=3 FACE=ARIAL&gt;&lt;B&gt;AUX/KYOCERA&lt;/B&gt;&lt;/FONT&gt;
    &lt;/TD&gt;
  &lt;/TR&gt;
  &lt;TR&gt;
    &lt;TD BGCOLOR="#cccccc" ALIGN=CENTER&gt;&lt;FONT FACE=ARIAL SIZE=3&gt;
      3314G&lt;BR&gt;
      3314J&lt;BR&gt;
      3364A/B&lt;BR&gt;
      3364C/D&lt;BR&gt;
      3364W/X&lt;BR&gt;
      3313G&lt;BR&gt;
      3313J&lt;BR&gt;&lt;/FONT&gt;
    &lt;/TD&gt;
    &lt;TD BGCOLOR="#cccccc" ALIGN=CENTER&gt;&lt;FONT FACE=ARIAL SIZE=3&gt;
      23B&lt;BR&gt;
      23A&lt;BR&gt;
      21X&lt;BR&gt;
      21W&lt;BR&gt;
      -&lt;BR&gt;
      22B&lt;BR&gt;
      22A&lt;BR&gt;&lt;/FONT&gt;
    &lt;/TD&gt;
    &lt;TD BGCOLOR="#cccccc" ALIGN=CENTER&gt;&lt;FONT FACE=ARIAL SIZE=3&gt;
      ST5YL/ST53YL&lt;BR&gt;
      ST5YJ/5T53YJ&lt;BR&gt;
      ST-23A&lt;BR&gt;
      ST-22B&lt;BR&gt;
      ST-22&lt;BR&gt;
      -&lt;BR&gt;
      -&lt;BR&gt;&lt;/FONT&gt;
    &lt;/TD&gt;
    &lt;TD BGCOLOR="#cccccc" ALIGN=CENTER&gt;&lt;FONT FACE=ARIAL SIZE=3&gt;
      ST-4B&lt;BR&gt;
      ST-4A&lt;BR&gt;
      -&lt;BR&gt;
      -&lt;BR&gt;
      -&lt;BR&gt;
      ST-3B&lt;BR&gt;
      ST-3A&lt;BR&gt;&lt;/FONT&gt;
    &lt;/TD&gt;
    &lt;TD BGCOLOR="#cccccc" ALIGN=CENTER&gt;&lt;FONT FACE=ARIAL SIZE=3&gt;
      -&lt;BR&gt;
      EVM-6YS&lt;BR&gt;
      EVM-1E&lt;BR&gt;
      EVM-1G&lt;BR&gt;
      EVM-1D&lt;BR&gt;
      -&lt;BR&gt;
      -&lt;BR&gt;&lt;/FONT&gt;
    &lt;/TD&gt;
    &lt;TD BGCOLOR="#cccccc" ALIGN=CENTER&gt;&lt;FONT FACE=ARIAL SIZE=3&gt;
      G4B&lt;BR&gt;
      G4A&lt;BR&gt;
      TR04-3S1&lt;BR&gt;
      TRG04-2S1&lt;BR&gt;
      -&lt;BR&gt;
      -&lt;BR&gt;
      -&lt;BR&gt;&lt;/FONT&gt;
    &lt;/TD&gt;
    &lt;TD BGCOLOR="#cccccc" ALIGN=CENTER&gt;&lt;FONT FACE=ARIAL SIZE=3&gt;
      -&lt;BR&gt;
      -&lt;BR&gt;
      DVR-43A&lt;BR&gt;
      CVR-42C&lt;BR&gt;
      CVR-42A/C&lt;BR&gt;
      -&lt;BR&gt;
      -&lt;BR&gt;&lt;/FONT&gt;
    &lt;/TD&gt;
  &lt;/TR&gt;
&lt;/TABLE&gt;
&lt;P&gt;
&lt;FONT SIZE=4 FACE=ARIAL&gt;&lt;B&gt;ALT =&amp;nbsp;ALTERNATE&lt;/B&gt;&lt;/FONT&gt;
&lt;P&gt;

&amp;nbsp;
&lt;P&gt;
&lt;/td&gt;
&lt;/tr&gt;
&lt;/table&gt;</description>
<packages>
<package name="C0603" urn="urn:adsk.eagle:footprint:23123/1" library_version="2">
<description>&lt;b&gt;CAPACITOR&lt;/b&gt;</description>
<wire x1="-1.473" y1="0.983" x2="1.473" y2="0.983" width="0.0508" layer="39"/>
<wire x1="1.473" y1="0.983" x2="1.473" y2="-0.983" width="0.0508" layer="39"/>
<wire x1="1.473" y1="-0.983" x2="-1.473" y2="-0.983" width="0.0508" layer="39"/>
<wire x1="-1.473" y1="-0.983" x2="-1.473" y2="0.983" width="0.0508" layer="39"/>
<wire x1="-0.356" y1="0.432" x2="0.356" y2="0.432" width="0.1016" layer="51"/>
<wire x1="-0.356" y1="-0.419" x2="0.356" y2="-0.419" width="0.1016" layer="51"/>
<smd name="1" x="-0.85" y="0" dx="1.1" dy="1" layer="1"/>
<smd name="2" x="0.85" y="0" dx="1.1" dy="1" layer="1"/>
<text x="-0.635" y="0.635" size="1.27" layer="25">&gt;NAME</text>
<text x="-0.635" y="-1.905" size="1.27" layer="27">&gt;VALUE</text>
<rectangle x1="-0.8382" y1="-0.4699" x2="-0.3381" y2="0.4801" layer="51"/>
<rectangle x1="0.3302" y1="-0.4699" x2="0.8303" y2="0.4801" layer="51"/>
<rectangle x1="-0.1999" y1="-0.3" x2="0.1999" y2="0.3" layer="35"/>
</package>
<package name="R0805" urn="urn:adsk.eagle:footprint:23045/1" library_version="2">
<description>&lt;b&gt;RESISTOR&lt;/b&gt;&lt;p&gt;</description>
<wire x1="-0.41" y1="0.635" x2="0.41" y2="0.635" width="0.1524" layer="51"/>
<wire x1="-0.41" y1="-0.635" x2="0.41" y2="-0.635" width="0.1524" layer="51"/>
<wire x1="-1.973" y1="0.983" x2="1.973" y2="0.983" width="0.0508" layer="39"/>
<wire x1="1.973" y1="0.983" x2="1.973" y2="-0.983" width="0.0508" layer="39"/>
<wire x1="1.973" y1="-0.983" x2="-1.973" y2="-0.983" width="0.0508" layer="39"/>
<wire x1="-1.973" y1="-0.983" x2="-1.973" y2="0.983" width="0.0508" layer="39"/>
<smd name="1" x="-0.95" y="0" dx="1.3" dy="1.5" layer="1"/>
<smd name="2" x="0.95" y="0" dx="1.3" dy="1.5" layer="1"/>
<text x="-0.635" y="1.27" size="1.27" layer="25">&gt;NAME</text>
<text x="-0.635" y="-2.54" size="1.27" layer="27">&gt;VALUE</text>
<rectangle x1="0.4064" y1="-0.6985" x2="1.0564" y2="0.7015" layer="51"/>
<rectangle x1="-1.0668" y1="-0.6985" x2="-0.4168" y2="0.7015" layer="51"/>
<rectangle x1="-0.1999" y1="-0.5001" x2="0.1999" y2="0.5001" layer="35"/>
</package>
</packages>
<packages3d>
<package3d name="C0603" urn="urn:adsk.eagle:package:23616/2" type="model" library_version="2">
<description>CAPACITOR</description>
</package3d>
<package3d name="R0805" urn="urn:adsk.eagle:package:23553/2" type="model" library_version="2">
<description>RESISTOR</description>
</package3d>
</packages3d>
</library>
<library name="eagle-ltspice" urn="urn:adsk.eagle:library:217">
<description>Default symbols for import LTspice schematics&lt;p&gt;
2012-10-29 alf@cadsoft.de&lt;br&gt;</description>
<packages>
<package name="C0603" urn="urn:adsk.eagle:footprint:13198/1" library_version="1">
<description>&lt;b&gt;CAPACITOR&lt;/b&gt;</description>
<wire x1="-1.473" y1="0.983" x2="1.473" y2="0.983" width="0.0508" layer="39"/>
<wire x1="1.473" y1="0.983" x2="1.473" y2="-0.983" width="0.0508" layer="39"/>
<wire x1="1.473" y1="-0.983" x2="-1.473" y2="-0.983" width="0.0508" layer="39"/>
<wire x1="-1.473" y1="-0.983" x2="-1.473" y2="0.983" width="0.0508" layer="39"/>
<wire x1="-0.356" y1="0.432" x2="0.356" y2="0.432" width="0.1016" layer="51"/>
<wire x1="-0.356" y1="-0.419" x2="0.356" y2="-0.419" width="0.1016" layer="51"/>
<rectangle x1="-0.8382" y1="-0.4699" x2="-0.3381" y2="0.4801" layer="51"/>
<rectangle x1="0.3302" y1="-0.4699" x2="0.8303" y2="0.4801" layer="51"/>
<rectangle x1="-0.1999" y1="-0.3" x2="0.1999" y2="0.3" layer="35"/>
<smd name="1" x="-0.85" y="0" dx="1.1" dy="1" layer="1"/>
<smd name="2" x="0.85" y="0" dx="1.1" dy="1" layer="1"/>
<text x="-0.635" y="0.635" size="1.27" layer="25">&gt;NAME</text>
<text x="-0.635" y="-1.905" size="1.27" layer="27">&gt;VALUE</text>
</package>
</packages>
<packages3d>
<package3d name="C0603" urn="urn:adsk.eagle:package:13262/1" type="box" library_version="1">
<description>CAPACITOR</description>
</package3d>
</packages3d>
</library>
<library name="SamacSys_Parts">
<description>&lt;b&gt;https://componentsearchengine.com&lt;/b&gt;&lt;p&gt;
&lt;author&gt;Created by SamacSys&lt;/author&gt;</description>
<packages>
<package name="SOT96P240X135-3N">
<description>&lt;b&gt;SOT-23R&lt;/b&gt;&lt;br&gt;
</description>
<smd name="1" x="-1.1" y="0.96" dx="1.05" dy="0.65" layer="1"/>
<smd name="2" x="-1.1" y="-0.96" dx="1.05" dy="0.65" layer="1"/>
<smd name="3" x="1.1" y="0" dx="1.05" dy="0.65" layer="1"/>
<text x="0" y="0" size="1.27" layer="25" align="center">&gt;NAME</text>
<wire x1="-1.875" y1="1.75" x2="1.875" y2="1.75" width="0.05" layer="21"/>
<wire x1="1.875" y1="1.75" x2="1.875" y2="-1.75" width="0.05" layer="21"/>
<wire x1="1.875" y1="-1.75" x2="-1.875" y2="-1.75" width="0.05" layer="21"/>
<wire x1="-1.875" y1="-1.75" x2="-1.875" y2="1.75" width="0.05" layer="21"/>
<wire x1="-0.65" y1="1.45" x2="0.65" y2="1.45" width="0.1" layer="51"/>
<wire x1="0.65" y1="1.45" x2="0.65" y2="-1.45" width="0.1" layer="51"/>
<wire x1="0.65" y1="-1.45" x2="-0.65" y2="-1.45" width="0.1" layer="51"/>
<wire x1="-0.65" y1="-1.45" x2="-0.65" y2="1.45" width="0.1" layer="51"/>
<wire x1="-0.65" y1="0.49" x2="0.31" y2="1.45" width="0.1" layer="51"/>
<wire x1="-0.225" y1="1.45" x2="0.225" y2="1.45" width="0.2" layer="25"/>
<wire x1="0.225" y1="1.45" x2="0.225" y2="-1.45" width="0.2" layer="25"/>
<wire x1="0.225" y1="-1.45" x2="-0.225" y2="-1.45" width="0.2" layer="25"/>
<wire x1="-0.225" y1="-1.45" x2="-0.225" y2="1.45" width="0.2" layer="25"/>
<wire x1="-1.625" y1="1.535" x2="-0.575" y2="1.535" width="0.2" layer="25"/>
</package>
<package name="8-PIN-METAL-LID-LGA_1">
<description>&lt;b&gt;8-pin-metal-lid-LGA_1&lt;/b&gt;&lt;br&gt;
</description>
<smd name="1" x="0.8" y="0.975" dx="0.5" dy="0.35" layer="1"/>
<smd name="2" x="0.8" y="0.325" dx="0.5" dy="0.35" layer="1"/>
<smd name="3" x="0.8" y="-0.325" dx="0.5" dy="0.35" layer="1"/>
<smd name="4" x="0.8" y="-0.975" dx="0.5" dy="0.35" layer="1"/>
<smd name="5" x="-0.8" y="-0.975" dx="0.5" dy="0.35" layer="1"/>
<smd name="6" x="-0.8" y="-0.325" dx="0.5" dy="0.35" layer="1"/>
<smd name="7" x="-0.8" y="0.325" dx="0.5" dy="0.35" layer="1"/>
<smd name="8" x="-0.8" y="0.975" dx="0.5" dy="0.35" layer="1"/>
<text x="-0.366" y="0.129" size="1.27" layer="25" align="center">&gt;NAME</text>
<wire x1="-1" y1="1.25" x2="1" y2="1.25" width="0.254" layer="51"/>
<wire x1="1" y1="1.25" x2="1" y2="-1.25" width="0.254" layer="51"/>
<wire x1="1" y1="-1.25" x2="-1" y2="-1.25" width="0.254" layer="51"/>
<wire x1="-1" y1="-1.25" x2="-1" y2="1.25" width="0.254" layer="51"/>
<wire x1="-0.25" y1="1.25" x2="0.25" y2="1.25" width="0.254" layer="25"/>
<wire x1="-0.25" y1="-1.25" x2="0.25" y2="-1.25" width="0.254" layer="25"/>
<circle x="1.455" y="1.134" radius="0.02195" width="0.254" layer="25"/>
</package>
</packages>
</library>
<library name="tcrt5000">
<packages>
<package name="TCRT5000">
<wire x1="4.445" y1="-2.159" x2="-3.175" y2="-2.159" width="0.127" layer="21"/>
<wire x1="-3.175" y1="-2.159" x2="-4.318" y2="-1.016" width="0.127" layer="21"/>
<wire x1="4.445" y1="2.159" x2="4.445" y2="-2.159" width="0.127" layer="21"/>
<wire x1="4.445" y1="2.159" x2="-3.175" y2="2.159" width="0.127" layer="21"/>
<wire x1="-3.175" y1="2.159" x2="-4.318" y2="1.016" width="0.127" layer="21"/>
<wire x1="-4.318" y1="-1.016" x2="-4.318" y2="1.016" width="0.127" layer="21"/>
<circle x="4.318" y="2.032" radius="0.1796" width="0.254" layer="21"/>
<circle x="0.254" y="2.032" radius="0.5236" width="0.254" layer="21"/>
<circle x="0.254" y="-2.032" radius="0.5236" width="0.254" layer="21"/>
<pad name="K" x="-2.54" y="1.27" drill="0.8" shape="octagon" rot="R90"/>
<pad name="E" x="2.54" y="1.27" drill="0.8" shape="octagon" rot="R90"/>
<pad name="A" x="-2.54" y="-1.27" drill="0.8" shape="octagon" rot="R90"/>
<pad name="C" x="2.54" y="-1.27" drill="0.8" shape="octagon" rot="R90"/>
<text x="-5.08" y="-2.54" size="1.27" layer="21" rot="R90">&gt;NAME</text>
<text x="6.35" y="-2.54" size="1.27" layer="21" rot="R90">&gt;VALUE</text>
</package>
</packages>
</library>
</libraries>
<attributes>
</attributes>
<variantdefs>
</variantdefs>
<classes>
<class number="0" name="default" width="0" drill="0">
</class>
</classes>
<designrules name="default">
<description language="de">&lt;b&gt;EAGLE Design Rules&lt;/b&gt;
&lt;p&gt;
Die Standard-Design-Rules sind so gewählt, dass sie für 
die meisten Anwendungen passen. Sollte ihre Platine 
besondere Anforderungen haben, treffen Sie die erforderlichen
Einstellungen hier und speichern die Design Rules unter 
einem neuen Namen ab.</description>
<description language="en">&lt;b&gt;EAGLE Design Rules&lt;/b&gt;
&lt;p&gt;
The default Design Rules have been set to cover
a wide range of applications. Your particular design
may have different requirements, so please make the
necessary adjustments and save your customized
design rules under a new name.</description>
<param name="layerSetup" value="(1*16)"/>
<param name="mtCopper" value="0.035mm 0.035mm 0.035mm 0.035mm 0.035mm 0.035mm 0.035mm 0.035mm 0.035mm 0.035mm 0.035mm 0.035mm 0.035mm 0.035mm 0.035mm 0.035mm"/>
<param name="mtIsolate" value="1.5mm 0.15mm 0.2mm 0.15mm 0.2mm 0.15mm 0.2mm 0.15mm 0.2mm 0.15mm 0.2mm 0.15mm 0.2mm 0.15mm 0.2mm"/>
<param name="mdWireWire" value="6mil"/>
<param name="mdWirePad" value="6mil"/>
<param name="mdWireVia" value="6mil"/>
<param name="mdPadPad" value="6mil"/>
<param name="mdPadVia" value="6mil"/>
<param name="mdViaVia" value="6mil"/>
<param name="mdSmdPad" value="6mil"/>
<param name="mdSmdVia" value="6mil"/>
<param name="mdSmdSmd" value="6mil"/>
<param name="mdViaViaSameLayer" value="6mil"/>
<param name="mnLayersViaInSmd" value="2"/>
<param name="mdCopperDimension" value="40mil"/>
<param name="mdDrill" value="6mil"/>
<param name="mdSmdStop" value="0mil"/>
<param name="msWidth" value="6mil"/>
<param name="msDrill" value="0.35mm"/>
<param name="msMicroVia" value="9.99mm"/>
<param name="msBlindViaRatio" value="0.5"/>
<param name="rvPadTop" value="0.25"/>
<param name="rvPadInner" value="0.25"/>
<param name="rvPadBottom" value="0.25"/>
<param name="rvViaOuter" value="0.25"/>
<param name="rvViaInner" value="0.25"/>
<param name="rvMicroViaOuter" value="0.25"/>
<param name="rvMicroViaInner" value="0.25"/>
<param name="rlMinPadTop" value="10mil"/>
<param name="rlMaxPadTop" value="20mil"/>
<param name="rlMinPadInner" value="10mil"/>
<param name="rlMaxPadInner" value="20mil"/>
<param name="rlMinPadBottom" value="10mil"/>
<param name="rlMaxPadBottom" value="20mil"/>
<param name="rlMinViaOuter" value="8mil"/>
<param name="rlMaxViaOuter" value="20mil"/>
<param name="rlMinViaInner" value="8mil"/>
<param name="rlMaxViaInner" value="20mil"/>
<param name="rlMinMicroViaOuter" value="4mil"/>
<param name="rlMaxMicroViaOuter" value="20mil"/>
<param name="rlMinMicroViaInner" value="4mil"/>
<param name="rlMaxMicroViaInner" value="20mil"/>
<param name="psTop" value="-1"/>
<param name="psBottom" value="-1"/>
<param name="psFirst" value="-1"/>
<param name="psElongationLong" value="100"/>
<param name="psElongationOffset" value="100"/>
<param name="mvStopFrame" value="1"/>
<param name="mvCreamFrame" value="0"/>
<param name="mlMinStopFrame" value="4mil"/>
<param name="mlMaxStopFrame" value="4mil"/>
<param name="mlMinCreamFrame" value="0mil"/>
<param name="mlMaxCreamFrame" value="0mil"/>
<param name="mlViaStopLimit" value="0mil"/>
<param name="srRoundness" value="0"/>
<param name="srMinRoundness" value="0mil"/>
<param name="srMaxRoundness" value="0mil"/>
<param name="slThermalIsolate" value="10mil"/>
<param name="slThermalsForVias" value="0"/>
<param name="dpMaxLengthDifference" value="10mm"/>
<param name="dpGapFactor" value="2.5"/>
<param name="checkAngle" value="0"/>
<param name="checkFont" value="1"/>
<param name="checkRestrict" value="1"/>
<param name="checkStop" value="0"/>
<param name="useDiameter" value="13"/>
<param name="maxErrors" value="50"/>
</designrules>
<autorouter>
<pass name="Default">
<param name="RoutingGrid" value="50mil"/>
<param name="AutoGrid" value="1"/>
<param name="Efforts" value="2"/>
<param name="TopRouterVariant" value="1"/>
<param name="tpViaShape" value="round"/>
<param name="PrefDir.1" value="a"/>
<param name="PrefDir.2" value="0"/>
<param name="PrefDir.3" value="0"/>
<param name="PrefDir.4" value="0"/>
<param name="PrefDir.5" value="0"/>
<param name="PrefDir.6" value="0"/>
<param name="PrefDir.7" value="0"/>
<param name="PrefDir.8" value="0"/>
<param name="PrefDir.9" value="0"/>
<param name="PrefDir.10" value="0"/>
<param name="PrefDir.11" value="0"/>
<param name="PrefDir.12" value="0"/>
<param name="PrefDir.13" value="0"/>
<param name="PrefDir.14" value="0"/>
<param name="PrefDir.15" value="0"/>
<param name="PrefDir.16" value="a"/>
<param name="cfVia" value="8"/>
<param name="cfNonPref" value="5"/>
<param name="cfChangeDir" value="2"/>
<param name="cfOrthStep" value="2"/>
<param name="cfDiagStep" value="3"/>
<param name="cfExtdStep" value="0"/>
<param name="cfBonusStep" value="1"/>
<param name="cfMalusStep" value="1"/>
<param name="cfPadImpact" value="4"/>
<param name="cfSmdImpact" value="4"/>
<param name="cfBusImpact" value="0"/>
<param name="cfHugging" value="3"/>
<param name="cfAvoid" value="4"/>
<param name="cfPolygon" value="10"/>
<param name="cfBase.1" value="0"/>
<param name="cfBase.2" value="1"/>
<param name="cfBase.3" value="1"/>
<param name="cfBase.4" value="1"/>
<param name="cfBase.5" value="1"/>
<param name="cfBase.6" value="1"/>
<param name="cfBase.7" value="1"/>
<param name="cfBase.8" value="1"/>
<param name="cfBase.9" value="1"/>
<param name="cfBase.10" value="1"/>
<param name="cfBase.11" value="1"/>
<param name="cfBase.12" value="1"/>
<param name="cfBase.13" value="1"/>
<param name="cfBase.14" value="1"/>
<param name="cfBase.15" value="1"/>
<param name="cfBase.16" value="0"/>
<param name="mnVias" value="20"/>
<param name="mnSegments" value="9999"/>
<param name="mnExtdSteps" value="9999"/>
<param name="mnRipupLevel" value="10"/>
<param name="mnRipupSteps" value="100"/>
<param name="mnRipupTotal" value="100"/>
</pass>
<pass name="Follow-me" refer="Default" active="yes">
</pass>
<pass name="Busses" refer="Default" active="yes">
<param name="cfNonPref" value="4"/>
<param name="cfBusImpact" value="4"/>
<param name="cfHugging" value="0"/>
<param name="mnVias" value="0"/>
</pass>
<pass name="Route" refer="Default" active="yes">
</pass>
<pass name="Optimize1" refer="Default" active="yes">
<param name="cfVia" value="99"/>
<param name="cfExtdStep" value="10"/>
<param name="cfHugging" value="1"/>
<param name="mnExtdSteps" value="1"/>
<param name="mnRipupLevel" value="0"/>
</pass>
<pass name="Optimize2" refer="Optimize1" active="yes">
<param name="cfNonPref" value="0"/>
<param name="cfChangeDir" value="6"/>
<param name="cfExtdStep" value="0"/>
<param name="cfBonusStep" value="2"/>
<param name="cfMalusStep" value="2"/>
<param name="cfPadImpact" value="2"/>
<param name="cfSmdImpact" value="2"/>
<param name="cfHugging" value="0"/>
</pass>
<pass name="Optimize3" refer="Optimize2" active="yes">
<param name="cfChangeDir" value="8"/>
<param name="cfPadImpact" value="0"/>
<param name="cfSmdImpact" value="0"/>
</pass>
<pass name="Optimize4" refer="Optimize3" active="yes">
<param name="cfChangeDir" value="25"/>
</pass>
</autorouter>
<elements>
<element name="A3" library="solpad" library_urn="urn:adsk.eagle:library:364" package="LSP13" package3d_urn="urn:adsk.eagle:package:26509/1" value="LSP13" x="23.19" y="1.94"/>
<element name="A4" library="solpad" library_urn="urn:adsk.eagle:library:364" package="LSP13" package3d_urn="urn:adsk.eagle:package:26509/1" value="LSP13" x="16.58" y="2.04"/>
<element name="A5" library="solpad" library_urn="urn:adsk.eagle:library:364" package="LSP13" package3d_urn="urn:adsk.eagle:package:26509/1" value="LSP13" x="12.67" y="2.24"/>
<element name="C1" library="rcl" library_urn="urn:adsk.eagle:library:334" package="C0603" package3d_urn="urn:adsk.eagle:package:23616/2" value="1 uF" x="6.35" y="13.97" rot="R90"/>
<element name="C2" library="eagle-ltspice" library_urn="urn:adsk.eagle:library:217" package="C0603" package3d_urn="urn:adsk.eagle:package:13262/1" value="1 uF" x="6.35" y="17.78" rot="R90">
<attribute name="SPICEMODEL" value="NONE" x="6.35" y="17.78" size="1.778" layer="27" rot="R90" display="off"/>
<attribute name="SPICEPREFIX" value="C" x="6.35" y="17.78" size="1.778" layer="27" rot="R90" display="off"/>
</element>
<element name="C3" library="eagle-ltspice" library_urn="urn:adsk.eagle:library:217" package="C0603" package3d_urn="urn:adsk.eagle:package:13262/1" value="100 nF" x="6.35" y="10.16" rot="R90">
<attribute name="SPICEMODEL" value="NONE" x="6.35" y="10.16" size="1.778" layer="27" rot="R90" display="off"/>
<attribute name="SPICEPREFIX" value="C" x="6.35" y="10.16" size="1.778" layer="27" rot="R90" display="off"/>
</element>
<element name="C4" library="eagle-ltspice" library_urn="urn:adsk.eagle:library:217" package="C0603" package3d_urn="urn:adsk.eagle:package:13262/1" value="100 nF" x="6.35" y="6.35" rot="R90">
<attribute name="SPICEMODEL" value="NONE" x="6.35" y="6.35" size="1.778" layer="27" rot="R90" display="off"/>
<attribute name="SPICEPREFIX" value="C" x="6.35" y="6.35" size="1.778" layer="27" rot="R90" display="off"/>
</element>
<element name="GND" library="solpad" library_urn="urn:adsk.eagle:library:364" package="LSP13" package3d_urn="urn:adsk.eagle:package:26509/1" value="LSP13" x="7.96" y="2.24"/>
<element name="IC1" library="SamacSys_Parts" package="SOT96P240X135-3N" value="AP7333-33SAG-7" x="13.97" y="15.24">
<attribute name="3D_PACKAGE" value="" x="13.97" y="15.24" size="1.778" layer="27" display="off"/>
<attribute name="ALLIED_NUMBER" value="" x="13.97" y="15.24" size="1.778" layer="27" display="off"/>
<attribute name="DESCRIPTION" value="LDO Regulator Pos 3.3V 0.3A 3Pin SOT23 Diodes Inc AP7333 AP7333-33SAG-7, Single Linear Voltage Regulator, 300mA 3.3 V, 2%, 3-Pin SOT-23" x="13.97" y="15.24" size="1.778" layer="27" display="off"/>
<attribute name="HEIGHT" value="1.35mm" x="13.97" y="15.24" size="1.778" layer="27" display="off"/>
<attribute name="MANUFACTURER_NAME" value="Diodes Inc." x="13.97" y="15.24" size="1.778" layer="27" display="off"/>
<attribute name="MANUFACTURER_PART_NUMBER" value="AP7333-33SAG-7" x="13.97" y="15.24" size="1.778" layer="27" display="off"/>
<attribute name="OTHER_PART_NUMBER" value="" x="13.97" y="15.24" size="1.778" layer="27" display="off"/>
<attribute name="RS_PART_NUMBER" value="7513102" x="13.97" y="15.24" size="1.778" layer="27" display="off"/>
<attribute name="SUPPLIER_NAME" value="RS" x="13.97" y="15.24" size="1.778" layer="27" display="off"/>
</element>
<element name="IC2" library="SamacSys_Parts" package="8-PIN-METAL-LID-LGA_1" value="0273.300.354-1NV" x="13.97" y="10.16">
<attribute name="3D_PACKAGE" value="" x="13.97" y="10.16" size="1.778" layer="27" display="off"/>
<attribute name="ALLIED_NUMBER" value="" x="13.97" y="10.16" size="1.778" layer="27" display="off"/>
<attribute name="DESCRIPTION" value="0273.300.354-1NV, Gauge Pressure Sensor 1.71  3.6 V 8-Pin LGA" x="13.97" y="10.16" size="1.778" layer="27" display="off"/>
<attribute name="HEIGHT" value="mm" x="13.97" y="10.16" size="1.778" layer="27" display="off"/>
<attribute name="MANUFACTURER_NAME" value="Bosch" x="13.97" y="10.16" size="1.778" layer="27" display="off"/>
<attribute name="MANUFACTURER_PART_NUMBER" value="0273.300.354-1NV" x="13.97" y="10.16" size="1.778" layer="27" display="off"/>
<attribute name="OTHER_PART_NUMBER" value="" x="13.97" y="10.16" size="1.778" layer="27" display="off"/>
<attribute name="RS_PART_NUMBER" value="8496187" x="13.97" y="10.16" size="1.778" layer="27" display="off"/>
<attribute name="SUPPLIER_NAME" value="RS" x="13.97" y="10.16" size="1.778" layer="27" display="off"/>
</element>
<element name="OS1" library="tcrt5000" package="TCRT5000" value="" x="24.13" y="16.51"/>
<element name="R1" library="rcl" library_urn="urn:adsk.eagle:library:334" package="R0805" package3d_urn="urn:adsk.eagle:package:23553/2" value="270" x="21.59" y="8.89" rot="R90"/>
<element name="R2" library="rcl" library_urn="urn:adsk.eagle:library:334" package="R0805" package3d_urn="urn:adsk.eagle:package:23553/2" value="10 K" x="26.67" y="8.89" rot="R90"/>
<element name="VCC" library="solpad" library_urn="urn:adsk.eagle:library:364" package="LSP13" package3d_urn="urn:adsk.eagle:package:26509/1" value="LSP13" x="26.9" y="1.94"/>
</elements>
<signals>
<signal name="N$3">
<contactref element="OS1" pad="A"/>
<contactref element="R1" pad="2"/>
<wire x1="21.5" y1="9.9" x2="21.59" y2="9.84" width="0.3048" layer="1"/>
<via x="19.9" y="12.3" extent="1-16" drill="0.6"/>
<wire x1="19.9" y1="12.3" x2="21.45" y2="12.3" width="0.4064" layer="1"/>
<wire x1="21.5" y1="12.25" x2="21.5" y2="9.9" width="0.4064" layer="1"/>
<wire x1="21.45" y1="12.3" x2="21.5" y2="12.25" width="0.4064" layer="1"/>
<wire x1="21.59" y1="15.24" x2="19.9" y2="13.55" width="0.4064" layer="16"/>
<wire x1="19.9" y1="13.55" x2="19.9" y2="12.3" width="0.4064" layer="16"/>
</signal>
<signal name="N$6">
<contactref element="OS1" pad="C"/>
<contactref element="R2" pad="2"/>
<contactref element="A3" pad="MP"/>
<wire x1="26.67" y1="9.7536" x2="26.67" y2="9.84" width="0.1524" layer="1"/>
<wire x1="26.5" y1="9.8" x2="26.67" y2="9.84" width="0.3048" layer="1"/>
<via x="24.8" y="11.9" extent="1-16" drill="0.6"/>
<wire x1="23.19" y1="1.94" x2="23.46" y2="2.21" width="0.4064" layer="1"/>
<wire x1="23.46" y1="2.21" x2="23.46" y2="8.04" width="0.4064" layer="1"/>
<wire x1="23.46" y1="8.04" x2="25.22" y2="9.8" width="0.4064" layer="1"/>
<wire x1="25.22" y1="9.8" x2="26.5" y2="9.8" width="0.4064" layer="1"/>
<wire x1="26.67" y1="9.84" x2="24.8" y2="11.71" width="0.4064" layer="1"/>
<wire x1="24.8" y1="11.71" x2="24.8" y2="11.9" width="0.4064" layer="1"/>
<wire x1="26.67" y1="15.24" x2="24.8" y2="13.37" width="0.4064" layer="16"/>
<wire x1="24.8" y1="13.37" x2="24.8" y2="11.9" width="0.4064" layer="16"/>
</signal>
<signal name="N$2">
<contactref element="IC1" pad="1"/>
<contactref element="C1" pad="1"/>
<contactref element="VCC" pad="MP"/>
<contactref element="R1" pad="1"/>
<contactref element="R2" pad="1"/>
<wire x1="12.954" y1="16.1544" x2="12.87" y2="16.2" width="0.1524" layer="1"/>
<wire x1="21.506421875" y1="8.0528625" x2="21.59" y2="7.94" width="0.1524" layer="1"/>
<wire x1="21.4884" y1="8.0772" x2="21.506421875" y2="8.0528625" width="0.1524" layer="1"/>
<wire x1="21.7" y1="7.9" x2="21.59" y2="7.94" width="0.3048" layer="1"/>
<wire x1="26.7" y1="7.9" x2="26.67" y2="7.94" width="0.3048" layer="1"/>
<wire x1="6.35" y1="13.12" x2="3.296346875" y2="10.006346875" width="0.4064" layer="1"/>
<wire x1="3.296346875" y1="10.006346875" x2="3.325025" y2="3.640384375" width="0.4064" layer="1"/>
<wire x1="3.325025" y1="3.640384375" x2="7.446203125" y2="-0.48079375" width="0.4064" layer="1"/>
<wire x1="20.28" y1="-0.48079375" x2="18.84" y2="-0.48079375" width="0.4064" layer="1"/>
<wire x1="18.84" y1="-0.48079375" x2="7.446203125" y2="-0.48079375" width="0.4064" layer="1"/>
<wire x1="20.28" y1="-0.48079375" x2="24.47920625" y2="-0.48079375" width="0.4064" layer="1"/>
<wire x1="26.9" y1="1.94" x2="24.47920625" y2="-0.48079375" width="0.4064" layer="1"/>
<wire x1="21.59" y1="7.7" x2="21.59" y2="7.94" width="0.4064" layer="1"/>
<wire x1="21.59" y1="7.7" x2="21.59" y2="6.28" width="0.4064" layer="1"/>
<wire x1="20.31" y1="5" x2="21.59" y2="6.28" width="0.4064" layer="1"/>
<wire x1="20.31" y1="-0.45079375" x2="20.28" y2="-0.48079375" width="0.4064" layer="1"/>
<wire x1="12.87" y1="16.2" x2="12.87" y2="16.17" width="0.4064" layer="1"/>
<wire x1="12.87" y1="16.17" x2="14.06" y2="14.98" width="0.4064" layer="1"/>
<wire x1="14.06" y1="14.98" x2="14.06" y2="14.55" width="0.4064" layer="1"/>
<wire x1="14.06" y1="14.55" x2="16.05" y2="12.56" width="0.4064" layer="1"/>
<wire x1="16.05" y1="12.56" x2="16.73" y2="12.56" width="0.4064" layer="1"/>
<wire x1="16.73" y1="12.56" x2="21.59" y2="7.7" width="0.4064" layer="1"/>
<wire x1="26.67" y1="7.94" x2="26.67" y2="2.17" width="0.4064" layer="1"/>
<wire x1="26.67" y1="2.17" x2="26.9" y2="1.94" width="0.4064" layer="1"/>
<wire x1="18.84" y1="-0.48079375" x2="20.31" y2="0.98920625" width="0.4064" layer="1"/>
<wire x1="20.31" y1="0.98920625" x2="20.31" y2="5" width="0.4064" layer="1"/>
</signal>
<signal name="N$1">
<contactref element="C2" pad="1"/>
<contactref element="IC1" pad="2"/>
<contactref element="IC2" pad="8"/>
<contactref element="IC2" pad="6"/>
<contactref element="C3" pad="1"/>
<contactref element="C4" pad="1"/>
<wire x1="13.1064" y1="9.906" x2="13.17" y2="9.835" width="0.1524" layer="1"/>
<wire x1="6.4008" y1="16.9164" x2="6.35" y2="16.93" width="0.1524" layer="1"/>
<wire x1="12.87" y1="14.28" x2="12.8016" y2="14.3256" width="0.1524" layer="1"/>
<contactref element="IC2" pad="2"/>
<wire x1="6.3" y1="17" x2="6.4" y2="17.1" width="0.3048" layer="1"/>
<wire x1="12.8" y1="14.3" x2="12.87" y2="14.28" width="0.3048" layer="1"/>
<wire x1="6.3" y1="17" x2="6.35" y2="16.93" width="0.3048" layer="1"/>
<wire x1="6.4" y1="9.4" x2="6.35" y2="9.31" width="0.3048" layer="1"/>
<wire x1="6.3" y1="9.26" x2="6.35" y2="9.31" width="0.3048" layer="1"/>
<wire x1="10.36" y1="9.835" x2="13.17" y2="9.835" width="0.4064" layer="1"/>
<wire x1="10.36" y1="9.835" x2="6.875" y2="9.835" width="0.4064" layer="1"/>
<wire x1="6.875" y1="9.835" x2="6.3" y2="9.26" width="0.4064" layer="1"/>
<wire x1="12.87" y1="14.28" x2="12.87" y2="12" width="0.4064" layer="1"/>
<wire x1="12.87" y1="11.435" x2="12.87" y2="12" width="0.4064" layer="1"/>
<wire x1="13.17" y1="11.135" x2="12.87" y2="11.435" width="0.4064" layer="1"/>
<wire x1="12.87" y1="12" x2="10.42" y2="12" width="0.4064" layer="1"/>
<wire x1="10.42" y1="12" x2="10.41" y2="11.99" width="0.4064" layer="1"/>
<wire x1="10.41" y1="11.99" x2="10.41" y2="9.885" width="0.4064" layer="1"/>
<wire x1="10.41" y1="9.885" x2="10.36" y2="9.835" width="0.4064" layer="1"/>
<wire x1="6.35" y1="16.93" x2="6.68" y2="16.93" width="0.4064" layer="1"/>
<wire x1="6.68" y1="16.93" x2="9.32" y2="14.29" width="0.4064" layer="1"/>
<wire x1="9.32" y1="14.29" x2="12.86" y2="14.29" width="0.4064" layer="1"/>
<wire x1="12.86" y1="14.29" x2="12.87" y2="14.28" width="0.4064" layer="1"/>
<wire x1="6.35" y1="9.31" x2="5" y2="7.87" width="0.4064" layer="1"/>
<wire x1="5" y1="6.82" x2="6.35" y2="5.5" width="0.4064" layer="1"/>
<wire x1="5" y1="7.87" x2="5" y2="6.82" width="0.4064" layer="1"/>
<wire x1="13.17" y1="9.835" x2="13.605" y2="9.835" width="0.3048" layer="1"/>
<wire x1="13.605" y1="9.835" x2="14.26" y2="10.49" width="0.3048" layer="1"/>
<wire x1="14.26" y1="10.49" x2="14.765" y2="10.49" width="0.3048" layer="1"/>
<wire x1="14.765" y1="10.49" x2="14.77" y2="10.485" width="0.3048" layer="1"/>
<wire x1="14.77" y1="10.485" x2="14.795" y2="10.46" width="0.3048" layer="1"/>
<wire x1="14.795" y1="10.46" x2="15.5" y2="10.46" width="0.3048" layer="1"/>
</signal>
<signal name="N$4">
<contactref element="IC2" pad="1"/>
<contactref element="IC2" pad="5"/>
<contactref element="IC2" pad="7"/>
<wire x1="13.2588" y1="10.5156" x2="13.17" y2="10.485" width="0.1524" layer="1"/>
<contactref element="C3" pad="2"/>
<contactref element="C4" pad="2"/>
<contactref element="OS1" pad="K"/>
<contactref element="OS1" pad="E"/>
<contactref element="GND" pad="MP"/>
<contactref element="C1" pad="2"/>
<contactref element="C2" pad="2"/>
<wire x1="6.4008" y1="6.858" x2="6.4008" y2="7.1628" width="0.1524" layer="1"/>
<wire x1="6.4008" y1="7.1628" x2="6.35" y2="7.2" width="0.1524" layer="1"/>
<wire x1="13.2744" y1="10.5" x2="13.2588" y2="10.5156" width="0.1524" layer="1"/>
<contactref element="IC1" pad="3"/>
<wire x1="15" y1="15.25" x2="15.07" y2="15.24" width="0.1524" layer="1"/>
<wire x1="14.94134375" y1="15.240946875" x2="15" y2="15.25" width="0.1524" layer="1"/>
<wire x1="14.94134375" y1="15.240946875" x2="14.9352" y2="15.24" width="0.1524" layer="1"/>
<wire x1="6.6" y1="6.8" x2="6.4" y2="6.8" width="0.3048" layer="1"/>
<wire x1="6.4" y1="6.8" x2="6.35" y2="7.2" width="0.3048" layer="1"/>
<wire x1="7.9" y1="2.3" x2="7.96" y2="2.24" width="0.3048" layer="1"/>
<wire x1="15.2" y1="15.2" x2="15.07" y2="15.24" width="0.3048" layer="1"/>
<via x="18.9" y="17.7" extent="1-16" drill="0.6"/>
<wire x1="7.96" y1="2.24" x2="7.96" y2="1.16" width="0.4064" layer="1"/>
<wire x1="7.96" y1="1.16" x2="8.5" y2="0.62" width="0.4064" layer="1"/>
<wire x1="8.5" y1="0.62" x2="15.97045625" y2="0.62" width="0.4064" layer="1"/>
<wire x1="15.97045625" y1="0.62" x2="15.98555625" y2="0.6049" width="0.4064" layer="1"/>
<wire x1="15.98555625" y1="0.6049" x2="18.0749" y2="0.6049" width="0.4064" layer="1"/>
<wire x1="18.91" y1="1.44" x2="18.91" y2="8.35" width="0.4064" layer="1"/>
<wire x1="18.91" y1="8.35" x2="16.125" y2="11.135" width="0.4064" layer="1"/>
<wire x1="14.77" y1="11.135" x2="16.125" y2="11.135" width="0.4064" layer="1"/>
<wire x1="18.0749" y1="0.6049" x2="18.91" y2="1.44" width="0.4064" layer="1"/>
<wire x1="4.48" y1="18.63" x2="6.35" y2="18.63" width="0.4064" layer="1"/>
<wire x1="4.48" y1="18.63" x2="4.24" y2="18.39" width="0.4064" layer="1"/>
<wire x1="4.24" y1="18.39" x2="4.24" y2="16.93" width="0.4064" layer="1"/>
<wire x1="4.24" y1="16.93" x2="6.35" y2="14.82" width="0.4064" layer="1"/>
<wire x1="6.35" y1="14.82" x2="8.24" y2="12.93" width="0.4064" layer="1"/>
<wire x1="8.24" y1="12.93" x2="8.24" y2="12.68" width="0.4064" layer="1"/>
<wire x1="8.24" y1="12.68" x2="6.57" y2="11.01" width="0.4064" layer="1"/>
<wire x1="6.57" y1="11.01" x2="6.35" y2="11.01" width="0.4064" layer="1"/>
<wire x1="6.35" y1="11.01" x2="6.14" y2="10.8" width="0.4064" layer="1"/>
<wire x1="6.14" y1="10.8" x2="5.31" y2="10.8" width="0.4064" layer="1"/>
<wire x1="4.24" y1="9.55" x2="4.24" y2="5.6" width="0.4064" layer="1"/>
<wire x1="7.76" y1="2.3" x2="4.24" y2="5.6" width="0.4064" layer="1"/>
<wire x1="7.76" y1="2.3" x2="7.9" y2="2.3" width="0.4064" layer="1"/>
<wire x1="5.31" y1="10.8" x2="4.24" y2="9.55" width="0.4064" layer="1"/>
<wire x1="6.35" y1="7.2" x2="6.35" y2="7.17" width="0.4064" layer="1"/>
<wire x1="8.09" y1="5.43" x2="6.35" y2="7.17" width="0.4064" layer="1"/>
<wire x1="8.09" y1="5.43" x2="8.09" y2="2.63" width="0.4064" layer="1"/>
<wire x1="8.09" y1="2.63" x2="7.76" y2="2.3" width="0.4064" layer="1"/>
<wire x1="13.17" y1="9.185" x2="11.845" y2="9.185" width="0.4064" layer="1"/>
<wire x1="11.845" y1="9.185" x2="8.09" y2="5.43" width="0.4064" layer="1"/>
<wire x1="6.35" y1="18.63" x2="13.49" y2="18.63" width="0.4064" layer="1"/>
<wire x1="13.49" y1="18.63" x2="15.26" y2="16.86" width="0.4064" layer="1"/>
<wire x1="15.26" y1="16.86" x2="15.26" y2="15.559603125" width="0.4064" layer="1"/>
<wire x1="15.26" y1="15.559603125" x2="14.94134375" y2="15.240946875" width="0.4064" layer="1"/>
<wire x1="18.9" y1="17.7" x2="21.51" y2="17.7" width="0.4064" layer="16"/>
<wire x1="21.51" y1="17.7" x2="21.59" y2="17.78" width="0.4064" layer="16"/>
<wire x1="21.59" y1="17.78" x2="26.67" y2="17.78" width="0.4064" layer="16"/>
<wire x1="15.07" y1="15.24" x2="17.53" y2="17.7" width="0.4064" layer="1"/>
<wire x1="17.53" y1="17.7" x2="18.9" y2="17.7" width="0.4064" layer="1"/>
<wire x1="13.17" y1="10.485" x2="13.465" y2="10.485" width="0.3048" layer="1"/>
<wire x1="13.465" y1="10.485" x2="14.11" y2="11.13" width="0.3048" layer="1"/>
<wire x1="14.11" y1="11.13" x2="14.765" y2="11.13" width="0.3048" layer="1"/>
<wire x1="14.765" y1="11.13" x2="14.77" y2="11.135" width="0.3048" layer="1"/>
<wire x1="13.17" y1="10.485" x2="13.1" y2="10.555" width="0.3048" layer="1"/>
<wire x1="13.1" y1="10.555" x2="12.425" y2="10.555" width="0.3048" layer="1"/>
</signal>
<signal name="N$7">
<contactref element="IC2" pad="3"/>
<contactref element="A4" pad="MP"/>
<wire x1="14.77" y1="9.835" x2="15.865" y2="9.835" width="0.4064" layer="1"/>
<wire x1="15.865" y1="9.835" x2="17.06" y2="8.64" width="0.4064" layer="1"/>
<wire x1="17.06" y1="8.64" x2="17.06" y2="2.52" width="0.4064" layer="1"/>
<wire x1="17.06" y1="2.52" x2="16.58" y2="2.04" width="0.4064" layer="1"/>
</signal>
<signal name="N$8">
<contactref element="IC2" pad="4"/>
<contactref element="A5" pad="MP"/>
<wire x1="14.77" y1="4.34" x2="14.77" y2="9.185" width="0.4064" layer="1"/>
<wire x1="14.77" y1="4.34" x2="12.67" y2="2.24" width="0.4064" layer="1"/>
<wire x1="14.77" y1="9.185" x2="15.425" y2="9.185" width="0.3048" layer="1"/>
<wire x1="15.425" y1="9.185" x2="15.43" y2="9.18" width="0.3048" layer="1"/>
</signal>
</signals>
</board>
</drawing>
<compatibility>
<note version="8.2" severity="warning">
Since Version 8.2, EAGLE supports online libraries. The ids
of those online libraries will not be understood (or retained)
with this version.
</note>
<note version="8.3" severity="warning">
Since Version 8.3, EAGLE supports URNs for individual library
assets (packages, symbols, and devices). The URNs of those assets
will not be understood (or retained) with this version.
</note>
<note version="8.3" severity="warning">
Since Version 8.3, EAGLE supports the association of 3D packages
with devices in libraries, schematics, and board files. Those 3D
packages will not be understood (or retained) with this version.
</note>
</compatibility>
</eagle>
