<?xml version="1.0" encoding="utf-8"?>
<!DOCTYPE eagle SYSTEM "eagle.dtd">
<eagle version="8.6.0">
<drawing>
<settings>
<setting alwaysvectorfont="no"/>
<setting verticaltext="up"/>
</settings>
<grid distance="0.01" unitdist="mm" unit="mm" style="lines" multiple="1" display="no" altdistance="5" altunitdist="mil" altunit="mil"/>
<layers>
<layer number="1" name="Top" color="4" fill="1" visible="yes" active="yes"/>
<layer number="2" name="Route2" color="1" fill="3" visible="no" active="no"/>
<layer number="3" name="Route3" color="4" fill="3" visible="no" active="no"/>
<layer number="4" name="Route4" color="1" fill="4" visible="no" active="no"/>
<layer number="5" name="Route5" color="4" fill="4" visible="no" active="no"/>
<layer number="6" name="Route6" color="1" fill="8" visible="no" active="no"/>
<layer number="7" name="Route7" color="4" fill="8" visible="no" active="no"/>
<layer number="8" name="Route8" color="1" fill="2" visible="no" active="no"/>
<layer number="9" name="Route9" color="4" fill="2" visible="no" active="no"/>
<layer number="10" name="Route10" color="1" fill="7" visible="no" active="no"/>
<layer number="11" name="Route11" color="4" fill="7" visible="no" active="no"/>
<layer number="12" name="Route12" color="1" fill="5" visible="no" active="no"/>
<layer number="13" name="Route13" color="4" fill="5" visible="no" active="no"/>
<layer number="14" name="Route14" color="1" fill="6" visible="no" active="no"/>
<layer number="15" name="Route15" color="4" fill="6" visible="no" active="no"/>
<layer number="16" name="Bottom" color="1" fill="1" visible="yes" active="yes"/>
<layer number="17" name="Pads" color="2" fill="1" visible="yes" active="yes"/>
<layer number="18" name="Vias" color="2" fill="1" visible="yes" active="yes"/>
<layer number="19" name="Unrouted" color="6" fill="1" visible="yes" active="yes"/>
<layer number="20" name="Dimension" color="24" fill="1" visible="yes" active="yes"/>
<layer number="21" name="tPlace" color="7" fill="1" visible="yes" active="yes"/>
<layer number="22" name="bPlace" color="7" fill="1" visible="yes" active="yes"/>
<layer number="23" name="tOrigins" color="15" fill="1" visible="yes" active="yes"/>
<layer number="24" name="bOrigins" color="15" fill="1" visible="yes" active="yes"/>
<layer number="25" name="tNames" color="7" fill="1" visible="yes" active="yes"/>
<layer number="26" name="bNames" color="7" fill="1" visible="yes" active="yes"/>
<layer number="27" name="tValues" color="7" fill="1" visible="yes" active="yes"/>
<layer number="28" name="bValues" color="7" fill="1" visible="yes" active="yes"/>
<layer number="29" name="tStop" color="7" fill="3" visible="no" active="yes"/>
<layer number="30" name="bStop" color="7" fill="6" visible="no" active="yes"/>
<layer number="31" name="tCream" color="7" fill="4" visible="no" active="yes"/>
<layer number="32" name="bCream" color="7" fill="5" visible="no" active="yes"/>
<layer number="33" name="tFinish" color="6" fill="3" visible="no" active="yes"/>
<layer number="34" name="bFinish" color="6" fill="6" visible="no" active="yes"/>
<layer number="35" name="tGlue" color="7" fill="4" visible="no" active="yes"/>
<layer number="36" name="bGlue" color="7" fill="5" visible="no" active="yes"/>
<layer number="37" name="tTest" color="7" fill="1" visible="no" active="yes"/>
<layer number="38" name="bTest" color="7" fill="1" visible="no" active="yes"/>
<layer number="39" name="tKeepout" color="4" fill="11" visible="yes" active="yes"/>
<layer number="40" name="bKeepout" color="1" fill="11" visible="yes" active="yes"/>
<layer number="41" name="tRestrict" color="4" fill="10" visible="yes" active="yes"/>
<layer number="42" name="bRestrict" color="1" fill="10" visible="yes" active="yes"/>
<layer number="43" name="vRestrict" color="2" fill="10" visible="yes" active="yes"/>
<layer number="44" name="Drills" color="7" fill="1" visible="no" active="yes"/>
<layer number="45" name="Holes" color="7" fill="1" visible="yes" active="yes"/>
<layer number="46" name="Milling" color="3" fill="1" visible="no" active="yes"/>
<layer number="47" name="Measures" color="7" fill="1" visible="no" active="yes"/>
<layer number="48" name="Document" color="7" fill="1" visible="yes" active="yes"/>
<layer number="49" name="Reference" color="7" fill="1" visible="yes" active="yes"/>
<layer number="50" name="dxf" color="7" fill="1" visible="no" active="no"/>
<layer number="51" name="tDocu" color="7" fill="1" visible="yes" active="yes"/>
<layer number="52" name="bDocu" color="7" fill="1" visible="yes" active="yes"/>
<layer number="53" name="tGND_GNDA" color="7" fill="9" visible="no" active="no"/>
<layer number="54" name="bGND_GNDA" color="1" fill="9" visible="no" active="no"/>
<layer number="56" name="wert" color="7" fill="1" visible="no" active="no"/>
<layer number="57" name="tCAD" color="7" fill="1" visible="no" active="no"/>
<layer number="88" name="SimResults" color="9" fill="1" visible="no" active="no"/>
<layer number="89" name="SimProbes" color="9" fill="1" visible="no" active="no"/>
<layer number="90" name="Modules" color="5" fill="1" visible="no" active="no"/>
<layer number="91" name="Nets" color="2" fill="1" visible="no" active="no"/>
<layer number="92" name="Busses" color="1" fill="1" visible="no" active="no"/>
<layer number="93" name="Pins" color="2" fill="1" visible="no" active="no"/>
<layer number="94" name="Symbols" color="4" fill="1" visible="no" active="no"/>
<layer number="95" name="Names" color="7" fill="1" visible="no" active="no"/>
<layer number="96" name="Values" color="7" fill="1" visible="no" active="no"/>
<layer number="97" name="Info" color="7" fill="1" visible="no" active="no"/>
<layer number="98" name="Guide" color="6" fill="1" visible="no" active="no"/>
<layer number="99" name="SpiceOrder" color="7" fill="1" visible="no" active="no"/>
<layer number="100" name="Muster" color="7" fill="1" visible="no" active="no"/>
<layer number="101" name="Patch_Top" color="12" fill="4" visible="yes" active="yes"/>
<layer number="102" name="Vscore" color="7" fill="1" visible="yes" active="yes"/>
<layer number="103" name="fp3" color="7" fill="1" visible="no" active="yes"/>
<layer number="104" name="Name" color="7" fill="1" visible="yes" active="yes"/>
<layer number="105" name="Beschreib" color="9" fill="1" visible="yes" active="yes"/>
<layer number="106" name="BGA-Top" color="4" fill="1" visible="yes" active="yes"/>
<layer number="107" name="BD-Top" color="5" fill="1" visible="yes" active="yes"/>
<layer number="108" name="fp8" color="7" fill="1" visible="no" active="yes"/>
<layer number="109" name="fp9" color="7" fill="1" visible="no" active="yes"/>
<layer number="110" name="fp0" color="7" fill="1" visible="no" active="yes"/>
<layer number="111" name="LPC17xx" color="7" fill="1" visible="yes" active="yes"/>
<layer number="112" name="tSilk" color="7" fill="1" visible="yes" active="yes"/>
<layer number="113" name="ReferenceLS" color="7" fill="1" visible="no" active="no"/>
<layer number="116" name="Patch_BOT" color="9" fill="4" visible="yes" active="yes"/>
<layer number="118" name="Rect_Pads" color="7" fill="1" visible="no" active="no"/>
<layer number="121" name="_tsilk" color="7" fill="1" visible="yes" active="yes"/>
<layer number="122" name="_bsilk" color="7" fill="1" visible="yes" active="yes"/>
<layer number="123" name="tTestmark" color="7" fill="1" visible="no" active="yes"/>
<layer number="124" name="bTestmark" color="7" fill="1" visible="no" active="yes"/>
<layer number="125" name="_tNames" color="7" fill="1" visible="yes" active="yes"/>
<layer number="126" name="_bNames" color="7" fill="1" visible="yes" active="yes"/>
<layer number="127" name="_tValues" color="7" fill="1" visible="yes" active="yes"/>
<layer number="128" name="_bValues" color="7" fill="1" visible="yes" active="yes"/>
<layer number="131" name="tAdjust" color="7" fill="1" visible="no" active="yes"/>
<layer number="132" name="bAdjust" color="7" fill="1" visible="no" active="yes"/>
<layer number="144" name="Drill_legend" color="7" fill="1" visible="yes" active="yes"/>
<layer number="150" name="Notes" color="7" fill="1" visible="no" active="yes"/>
<layer number="151" name="HeatSink" color="7" fill="1" visible="yes" active="yes"/>
<layer number="152" name="_bDocu" color="7" fill="1" visible="yes" active="yes"/>
<layer number="153" name="FabDoc1" color="6" fill="1" visible="no" active="no"/>
<layer number="154" name="FabDoc2" color="2" fill="1" visible="no" active="no"/>
<layer number="155" name="FabDoc3" color="7" fill="15" visible="no" active="no"/>
<layer number="199" name="Contour" color="7" fill="1" visible="yes" active="yes"/>
<layer number="200" name="200bmp" color="1" fill="10" visible="no" active="no"/>
<layer number="201" name="201bmp" color="2" fill="1" visible="no" active="no"/>
<layer number="202" name="202bmp" color="3" fill="1" visible="no" active="no"/>
<layer number="203" name="203bmp" color="4" fill="10" visible="yes" active="yes"/>
<layer number="204" name="204bmp" color="5" fill="10" visible="yes" active="yes"/>
<layer number="205" name="205bmp" color="6" fill="10" visible="yes" active="yes"/>
<layer number="206" name="206bmp" color="7" fill="10" visible="yes" active="yes"/>
<layer number="207" name="207bmp" color="8" fill="10" visible="yes" active="yes"/>
<layer number="208" name="208bmp" color="9" fill="10" visible="yes" active="yes"/>
<layer number="209" name="209bmp" color="7" fill="1" visible="no" active="yes"/>
<layer number="210" name="210bmp" color="7" fill="1" visible="no" active="yes"/>
<layer number="211" name="211bmp" color="7" fill="1" visible="yes" active="yes"/>
<layer number="212" name="212bmp" color="7" fill="1" visible="yes" active="yes"/>
<layer number="213" name="213bmp" color="7" fill="1" visible="yes" active="yes"/>
<layer number="214" name="214bmp" color="7" fill="1" visible="yes" active="yes"/>
<layer number="215" name="215bmp" color="7" fill="1" visible="yes" active="yes"/>
<layer number="216" name="216bmp" color="7" fill="1" visible="yes" active="yes"/>
<layer number="217" name="217bmp" color="18" fill="1" visible="no" active="no"/>
<layer number="218" name="218bmp" color="19" fill="1" visible="no" active="no"/>
<layer number="219" name="219bmp" color="20" fill="1" visible="no" active="no"/>
<layer number="220" name="220bmp" color="21" fill="1" visible="no" active="no"/>
<layer number="221" name="221bmp" color="22" fill="1" visible="no" active="no"/>
<layer number="222" name="222bmp" color="23" fill="1" visible="no" active="no"/>
<layer number="223" name="223bmp" color="24" fill="1" visible="no" active="no"/>
<layer number="224" name="224bmp" color="25" fill="1" visible="no" active="no"/>
<layer number="231" name="Eagle3D_PG1" color="7" fill="1" visible="no" active="no"/>
<layer number="232" name="Eagle3D_PG2" color="7" fill="1" visible="no" active="no"/>
<layer number="233" name="Eagle3D_PG3" color="7" fill="1" visible="no" active="no"/>
<layer number="248" name="Housing" color="7" fill="1" visible="yes" active="yes"/>
<layer number="249" name="Edge" color="7" fill="1" visible="yes" active="yes"/>
<layer number="250" name="Descript" color="7" fill="1" visible="no" active="no"/>
<layer number="251" name="SMDround" color="7" fill="1" visible="no" active="no"/>
<layer number="254" name="cooling" color="7" fill="1" visible="yes" active="yes"/>
</layers>
<board>
<plain>
<wire x1="-1.157996875" y1="6.5420375" x2="115.485259375" y2="6.486746875" width="0" layer="20"/>
<wire x1="115.485259375" y1="6.486746875" x2="125.49" y2="16.48674375" width="0" layer="20" curve="90.022666"/>
<wire x1="125.49" y1="16.48674375" x2="125.49" y2="79.9767375" width="0" layer="20"/>
<wire x1="125.49" y1="79.9767375" x2="115.4947375" y2="89.9767375" width="0" layer="20" curve="89.972856"/>
<wire x1="115.4947375" y1="89.9767375" x2="-1.122003125" y2="90.031971875" width="0" layer="20"/>
<wire x1="-1.122003125" y1="90.031971875" x2="-11.14" y2="80.0319875" width="0" layer="20" curve="90.101518"/>
<wire x1="-11.14" y1="80.0319875" x2="-11.14" y2="16.54201875" width="0" layer="20"/>
<wire x1="-11.14" y1="16.54201875" x2="-1.157996875" y2="6.5420375" width="0" layer="20" curve="89.896885"/>
<dimension x1="115.4947375" y1="89.9767375" x2="-1.122003125" y2="90.031971875" x3="57.189965625" y3="97.59824375" textsize="1.778" layer="1"/>
<hole x="-3.11" y="82.47" drill="3.5"/>
<hole x="-1.93" y="13.5" drill="3.5"/>
<hole x="117.04" y="13.65" drill="3.5"/>
<hole x="117.78" y="82.76" drill="3.5"/>
<hole x="59.71" y="47.02" drill="3.5"/>
</plain>
<libraries>
<library name="solpad" urn="urn:adsk.eagle:library:364">
<description>&lt;b&gt;Solder Pads/Test Points&lt;/b&gt;&lt;p&gt;
&lt;author&gt;Created by librarian@cadsoft.de&lt;/author&gt;</description>
<packages>
<package name="LSP13" urn="urn:adsk.eagle:footprint:26496/1" library_version="1">
<description>&lt;b&gt;SOLDER PAD&lt;/b&gt;&lt;p&gt;
drill 1.3 mm</description>
<wire x1="-1.524" y1="0.254" x2="-1.524" y2="-0.254" width="0.1524" layer="21"/>
<wire x1="1.524" y1="0.254" x2="1.524" y2="-0.254" width="0.1524" layer="21"/>
<wire x1="1.524" y1="0.254" x2="1.143" y2="0.254" width="0.1524" layer="21"/>
<wire x1="1.524" y1="-0.254" x2="1.143" y2="-0.254" width="0.1524" layer="21"/>
<wire x1="-1.524" y1="-0.254" x2="-1.143" y2="-0.254" width="0.1524" layer="21"/>
<wire x1="-1.524" y1="0.254" x2="-1.143" y2="0.254" width="0.1524" layer="21"/>
<wire x1="1.143" y1="0.254" x2="0.635" y2="0.254" width="0.1524" layer="51"/>
<wire x1="-1.143" y1="-0.254" x2="-0.635" y2="-0.254" width="0.1524" layer="51"/>
<wire x1="0.635" y1="0.254" x2="0.635" y2="-0.254" width="0.1524" layer="51"/>
<wire x1="0.635" y1="0.254" x2="-0.635" y2="0.254" width="0.1524" layer="51"/>
<wire x1="0.635" y1="-0.254" x2="1.143" y2="-0.254" width="0.1524" layer="51"/>
<wire x1="-0.635" y1="0.254" x2="-0.635" y2="-0.254" width="0.1524" layer="51"/>
<wire x1="-0.635" y1="0.254" x2="-1.143" y2="0.254" width="0.1524" layer="51"/>
<wire x1="-0.635" y1="-0.254" x2="0.635" y2="-0.254" width="0.1524" layer="51"/>
<pad name="MP" x="0" y="0" drill="1.3208" diameter="2.159" shape="octagon"/>
<text x="-1.524" y="1.27" size="1.27" layer="25" ratio="10">&gt;NAME</text>
<text x="0" y="0.254" size="0.0254" layer="27">&gt;VALUE</text>
</package>
</packages>
<packages3d>
<package3d name="LSP13" urn="urn:adsk.eagle:package:26509/1" type="box" library_version="1">
<description>SOLDER PAD
drill 1.3 mm</description>
</package3d>
</packages3d>
</library>
<library name="con-molex" urn="urn:adsk.eagle:library:165">
<description>&lt;b&gt;Molex Connectors&lt;/b&gt;&lt;p&gt;
&lt;author&gt;Created by librarian@cadsoft.de&lt;/author&gt;</description>
<packages>
<package name="22-23-2051" library_version="1">
<description>.100" (2.54mm) Center Header - 5 Pin</description>
<wire x1="-6.35" y1="3.175" x2="6.35" y2="3.175" width="0.254" layer="21"/>
<wire x1="6.35" y1="3.175" x2="6.35" y2="1.27" width="0.254" layer="21"/>
<wire x1="6.35" y1="1.27" x2="6.35" y2="-3.175" width="0.254" layer="21"/>
<wire x1="6.35" y1="-3.175" x2="-6.35" y2="-3.175" width="0.254" layer="21"/>
<wire x1="-6.35" y1="-3.175" x2="-6.35" y2="1.27" width="0.254" layer="21"/>
<wire x1="-6.35" y1="1.27" x2="-6.35" y2="3.175" width="0.254" layer="21"/>
<wire x1="-6.35" y1="1.27" x2="6.35" y2="1.27" width="0.254" layer="21"/>
<pad name="1" x="-5.08" y="0" drill="1" shape="long" rot="R90"/>
<pad name="2" x="-2.54" y="0" drill="1" shape="long" rot="R90"/>
<pad name="3" x="0" y="0" drill="1" shape="long" rot="R90"/>
<pad name="4" x="2.54" y="0" drill="1" shape="long" rot="R90"/>
<pad name="5" x="5.08" y="0" drill="1" shape="long" rot="R90"/>
<text x="-6.35" y="3.81" size="1.016" layer="25" ratio="10">&gt;NAME</text>
<text x="-6.35" y="-5.08" size="1.016" layer="27" ratio="10">&gt;VALUE</text>
</package>
<package name="22-23-2021" library_version="1">
<description>.100" (2.54mm) Center Headers - 2 Pin</description>
<wire x1="-2.54" y1="3.175" x2="2.54" y2="3.175" width="0.254" layer="21"/>
<wire x1="2.54" y1="3.175" x2="2.54" y2="1.27" width="0.254" layer="21"/>
<wire x1="2.54" y1="1.27" x2="2.54" y2="-3.175" width="0.254" layer="21"/>
<wire x1="2.54" y1="-3.175" x2="-2.54" y2="-3.175" width="0.254" layer="21"/>
<wire x1="-2.54" y1="-3.175" x2="-2.54" y2="1.27" width="0.254" layer="21"/>
<wire x1="-2.54" y1="1.27" x2="-2.54" y2="3.175" width="0.254" layer="21"/>
<wire x1="-2.54" y1="1.27" x2="2.54" y2="1.27" width="0.254" layer="21"/>
<pad name="1" x="-1.27" y="0" drill="1" shape="long" rot="R90"/>
<pad name="2" x="1.27" y="0" drill="1" shape="long" rot="R90"/>
<text x="-2.54" y="3.81" size="1.016" layer="25" ratio="10">&gt;NAME</text>
<text x="-2.54" y="-5.08" size="1.016" layer="27" ratio="10">&gt;VALUE</text>
</package>
<package name="22-23-2031" library_version="1">
<description>.100" (2.54mm) Center Header - 3 Pin</description>
<wire x1="-3.81" y1="3.175" x2="3.81" y2="3.175" width="0.254" layer="21"/>
<wire x1="3.81" y1="3.175" x2="3.81" y2="1.27" width="0.254" layer="21"/>
<wire x1="3.81" y1="1.27" x2="3.81" y2="-3.175" width="0.254" layer="21"/>
<wire x1="3.81" y1="-3.175" x2="-3.81" y2="-3.175" width="0.254" layer="21"/>
<wire x1="-3.81" y1="-3.175" x2="-3.81" y2="1.27" width="0.254" layer="21"/>
<wire x1="-3.81" y1="1.27" x2="-3.81" y2="3.175" width="0.254" layer="21"/>
<wire x1="-3.81" y1="1.27" x2="3.81" y2="1.27" width="0.254" layer="21"/>
<pad name="1" x="-2.54" y="0" drill="1" shape="long" rot="R90"/>
<pad name="2" x="0" y="0" drill="1" shape="long" rot="R90"/>
<pad name="3" x="2.54" y="0" drill="1" shape="long" rot="R90"/>
<text x="-3.81" y="3.81" size="1.016" layer="25" ratio="10">&gt;NAME</text>
<text x="-3.81" y="-5.08" size="1.016" layer="27" ratio="10">&gt;VALUE</text>
</package>
</packages>
</library>
</libraries>
<attributes>
</attributes>
<variantdefs>
</variantdefs>
<classes>
<class number="0" name="default" width="0" drill="0">
</class>
<class number="1" name="power" width="0.3048" drill="0">
</class>
</classes>
<designrules name="default">
<description language="de">&lt;b&gt;EAGLE Design Rules&lt;/b&gt;
&lt;p&gt;
Die Standard-Design-Rules sind so gewählt, dass sie für 
die meisten Anwendungen passen. Sollte ihre Platine 
besondere Anforderungen haben, treffen Sie die erforderlichen
Einstellungen hier und speichern die Design Rules unter 
einem neuen Namen ab.</description>
<description language="en">&lt;b&gt;EAGLE Design Rules&lt;/b&gt;
&lt;p&gt;
The default Design Rules have been set to cover
a wide range of applications. Your particular design
may have different requirements, so please make the
necessary adjustments and save your customized
design rules under a new name.</description>
<param name="layerSetup" value="(1*16)"/>
<param name="mtCopper" value="0.035mm 0.035mm 0.035mm 0.035mm 0.035mm 0.035mm 0.035mm 0.035mm 0.035mm 0.035mm 0.035mm 0.035mm 0.035mm 0.035mm 0.035mm 0.035mm"/>
<param name="mtIsolate" value="1.5mm 0.15mm 0.2mm 0.15mm 0.2mm 0.15mm 0.2mm 0.15mm 0.2mm 0.15mm 0.2mm 0.15mm 0.2mm 0.15mm 0.2mm"/>
<param name="mdWireWire" value="6mil"/>
<param name="mdWirePad" value="6mil"/>
<param name="mdWireVia" value="6mil"/>
<param name="mdPadPad" value="6mil"/>
<param name="mdPadVia" value="6mil"/>
<param name="mdViaVia" value="6mil"/>
<param name="mdSmdPad" value="6mil"/>
<param name="mdSmdVia" value="6mil"/>
<param name="mdSmdSmd" value="6mil"/>
<param name="mdViaViaSameLayer" value="6mil"/>
<param name="mnLayersViaInSmd" value="2"/>
<param name="mdCopperDimension" value="40mil"/>
<param name="mdDrill" value="6mil"/>
<param name="mdSmdStop" value="0mil"/>
<param name="msWidth" value="6mil"/>
<param name="msDrill" value="0.35mm"/>
<param name="msMicroVia" value="9.99mm"/>
<param name="msBlindViaRatio" value="0.5"/>
<param name="rvPadTop" value="0.25"/>
<param name="rvPadInner" value="0.25"/>
<param name="rvPadBottom" value="0.25"/>
<param name="rvViaOuter" value="0.25"/>
<param name="rvViaInner" value="0.25"/>
<param name="rvMicroViaOuter" value="0.25"/>
<param name="rvMicroViaInner" value="0.25"/>
<param name="rlMinPadTop" value="10mil"/>
<param name="rlMaxPadTop" value="20mil"/>
<param name="rlMinPadInner" value="10mil"/>
<param name="rlMaxPadInner" value="20mil"/>
<param name="rlMinPadBottom" value="10mil"/>
<param name="rlMaxPadBottom" value="20mil"/>
<param name="rlMinViaOuter" value="8mil"/>
<param name="rlMaxViaOuter" value="20mil"/>
<param name="rlMinViaInner" value="8mil"/>
<param name="rlMaxViaInner" value="20mil"/>
<param name="rlMinMicroViaOuter" value="4mil"/>
<param name="rlMaxMicroViaOuter" value="20mil"/>
<param name="rlMinMicroViaInner" value="4mil"/>
<param name="rlMaxMicroViaInner" value="20mil"/>
<param name="psTop" value="-1"/>
<param name="psBottom" value="-1"/>
<param name="psFirst" value="-1"/>
<param name="psElongationLong" value="100"/>
<param name="psElongationOffset" value="100"/>
<param name="mvStopFrame" value="1"/>
<param name="mvCreamFrame" value="0"/>
<param name="mlMinStopFrame" value="4mil"/>
<param name="mlMaxStopFrame" value="4mil"/>
<param name="mlMinCreamFrame" value="0mil"/>
<param name="mlMaxCreamFrame" value="0mil"/>
<param name="mlViaStopLimit" value="0mil"/>
<param name="srRoundness" value="0"/>
<param name="srMinRoundness" value="0mil"/>
<param name="srMaxRoundness" value="0mil"/>
<param name="slThermalIsolate" value="10mil"/>
<param name="slThermalsForVias" value="0"/>
<param name="dpMaxLengthDifference" value="10mm"/>
<param name="dpGapFactor" value="2.5"/>
<param name="checkAngle" value="0"/>
<param name="checkFont" value="1"/>
<param name="checkRestrict" value="1"/>
<param name="checkStop" value="0"/>
<param name="checkValues" value="0"/>
<param name="useDiameter" value="13"/>
<param name="maxErrors" value="50"/>
</designrules>
<autorouter>
<pass name="Default">
<param name="RoutingGrid" value="50mil"/>
<param name="AutoGrid" value="1"/>
<param name="Efforts" value="2"/>
<param name="TopRouterVariant" value="1"/>
<param name="tpViaShape" value="round"/>
<param name="PrefDir.1" value="a"/>
<param name="PrefDir.2" value="0"/>
<param name="PrefDir.3" value="0"/>
<param name="PrefDir.4" value="0"/>
<param name="PrefDir.5" value="0"/>
<param name="PrefDir.6" value="0"/>
<param name="PrefDir.7" value="0"/>
<param name="PrefDir.8" value="0"/>
<param name="PrefDir.9" value="0"/>
<param name="PrefDir.10" value="0"/>
<param name="PrefDir.11" value="0"/>
<param name="PrefDir.12" value="0"/>
<param name="PrefDir.13" value="0"/>
<param name="PrefDir.14" value="0"/>
<param name="PrefDir.15" value="0"/>
<param name="PrefDir.16" value="a"/>
<param name="cfVia" value="8"/>
<param name="cfNonPref" value="5"/>
<param name="cfChangeDir" value="2"/>
<param name="cfOrthStep" value="2"/>
<param name="cfDiagStep" value="3"/>
<param name="cfExtdStep" value="0"/>
<param name="cfBonusStep" value="1"/>
<param name="cfMalusStep" value="1"/>
<param name="cfPadImpact" value="4"/>
<param name="cfSmdImpact" value="4"/>
<param name="cfBusImpact" value="0"/>
<param name="cfHugging" value="3"/>
<param name="cfAvoid" value="4"/>
<param name="cfPolygon" value="10"/>
<param name="cfBase.1" value="0"/>
<param name="cfBase.2" value="1"/>
<param name="cfBase.3" value="1"/>
<param name="cfBase.4" value="1"/>
<param name="cfBase.5" value="1"/>
<param name="cfBase.6" value="1"/>
<param name="cfBase.7" value="1"/>
<param name="cfBase.8" value="1"/>
<param name="cfBase.9" value="1"/>
<param name="cfBase.10" value="1"/>
<param name="cfBase.11" value="1"/>
<param name="cfBase.12" value="1"/>
<param name="cfBase.13" value="1"/>
<param name="cfBase.14" value="1"/>
<param name="cfBase.15" value="1"/>
<param name="cfBase.16" value="0"/>
<param name="mnVias" value="20"/>
<param name="mnSegments" value="9999"/>
<param name="mnExtdSteps" value="9999"/>
<param name="mnRipupLevel" value="10"/>
<param name="mnRipupSteps" value="100"/>
<param name="mnRipupTotal" value="100"/>
</pass>
<pass name="Follow-me" refer="Default" active="yes">
</pass>
<pass name="Busses" refer="Default" active="yes">
<param name="cfNonPref" value="4"/>
<param name="cfBusImpact" value="4"/>
<param name="cfHugging" value="0"/>
<param name="mnVias" value="0"/>
</pass>
<pass name="Route" refer="Default" active="yes">
</pass>
<pass name="Optimize1" refer="Default" active="yes">
<param name="cfVia" value="99"/>
<param name="cfExtdStep" value="10"/>
<param name="cfHugging" value="1"/>
<param name="mnExtdSteps" value="1"/>
<param name="mnRipupLevel" value="0"/>
</pass>
<pass name="Optimize2" refer="Optimize1" active="yes">
<param name="cfNonPref" value="0"/>
<param name="cfChangeDir" value="6"/>
<param name="cfExtdStep" value="0"/>
<param name="cfBonusStep" value="2"/>
<param name="cfMalusStep" value="2"/>
<param name="cfPadImpact" value="2"/>
<param name="cfSmdImpact" value="2"/>
<param name="cfHugging" value="0"/>
</pass>
<pass name="Optimize3" refer="Optimize2" active="yes">
<param name="cfChangeDir" value="8"/>
<param name="cfPadImpact" value="0"/>
<param name="cfSmdImpact" value="0"/>
</pass>
<pass name="Optimize4" refer="Optimize3" active="yes">
<param name="cfChangeDir" value="25"/>
</pass>
</autorouter>
<elements>
<element name="5V" library="solpad" library_urn="urn:adsk.eagle:library:364" package="LSP13" package3d_urn="urn:adsk.eagle:package:26509/1" value="LSP13" x="48.26" y="44.45" rot="R270"/>
<element name="5V150MA" library="solpad" library_urn="urn:adsk.eagle:library:364" package="LSP13" package3d_urn="urn:adsk.eagle:package:26509/1" value="LSP13" x="25.4" y="35.56" rot="R180"/>
<element name="A0" library="solpad" library_urn="urn:adsk.eagle:library:364" package="LSP13" package3d_urn="urn:adsk.eagle:package:26509/1" value="LSP13" x="33.02" y="50.8"/>
<element name="A1" library="solpad" library_urn="urn:adsk.eagle:library:364" package="LSP13" package3d_urn="urn:adsk.eagle:package:26509/1" value="LSP13" x="35.56" y="50.8"/>
<element name="A2" library="solpad" library_urn="urn:adsk.eagle:library:364" package="LSP13" package3d_urn="urn:adsk.eagle:package:26509/1" value="LSP13" x="38.1" y="50.8"/>
<element name="A3" library="solpad" library_urn="urn:adsk.eagle:library:364" package="LSP13" package3d_urn="urn:adsk.eagle:package:26509/1" value="LSP13" x="40.64" y="50.8"/>
<element name="A4" library="solpad" library_urn="urn:adsk.eagle:library:364" package="LSP13" package3d_urn="urn:adsk.eagle:package:26509/1" value="LSP13" x="43.18" y="50.8"/>
<element name="A5" library="solpad" library_urn="urn:adsk.eagle:library:364" package="LSP13" package3d_urn="urn:adsk.eagle:package:26509/1" value="LSP13" x="45.72" y="50.8"/>
<element name="A6" library="solpad" library_urn="urn:adsk.eagle:library:364" package="LSP13" package3d_urn="urn:adsk.eagle:package:26509/1" value="LSP13" x="33.02" y="48.26" rot="R180"/>
<element name="A7" library="solpad" library_urn="urn:adsk.eagle:library:364" package="LSP13" package3d_urn="urn:adsk.eagle:package:26509/1" value="LSP13" x="35.56" y="48.26" rot="R180"/>
<element name="AR" library="solpad" library_urn="urn:adsk.eagle:library:364" package="LSP13" package3d_urn="urn:adsk.eagle:package:26509/1" value="LSP13" x="30.48" y="50.8" rot="R180"/>
<element name="BAT" library="solpad" library_urn="urn:adsk.eagle:library:364" package="LSP13" package3d_urn="urn:adsk.eagle:package:26509/1" value="LSP13" x="17.78" y="35.56" rot="R180"/>
<element name="D10" library="solpad" library_urn="urn:adsk.eagle:library:364" package="LSP13" package3d_urn="urn:adsk.eagle:package:26509/1" value="LSP13" x="20.32" y="50.8" rot="R180"/>
<element name="D11" library="solpad" library_urn="urn:adsk.eagle:library:364" package="LSP13" package3d_urn="urn:adsk.eagle:package:26509/1" value="LSP13" x="22.86" y="50.8"/>
<element name="D12" library="solpad" library_urn="urn:adsk.eagle:library:364" package="LSP13" package3d_urn="urn:adsk.eagle:package:26509/1" value="LSP13" x="25.4" y="50.8" rot="R180"/>
<element name="D13" library="solpad" library_urn="urn:adsk.eagle:library:364" package="LSP13" package3d_urn="urn:adsk.eagle:package:26509/1" value="LSP13" x="27.94" y="50.8"/>
<element name="D3" library="solpad" library_urn="urn:adsk.eagle:library:364" package="LSP13" package3d_urn="urn:adsk.eagle:package:26509/1" value="LSP13" x="38.1" y="35.56"/>
<element name="D4" library="solpad" library_urn="urn:adsk.eagle:library:364" package="LSP13" package3d_urn="urn:adsk.eagle:package:26509/1" value="LSP13" x="35.56" y="35.56"/>
<element name="D5" library="solpad" library_urn="urn:adsk.eagle:library:364" package="LSP13" package3d_urn="urn:adsk.eagle:package:26509/1" value="LSP13" x="33.02" y="35.56"/>
<element name="D6" library="solpad" library_urn="urn:adsk.eagle:library:364" package="LSP13" package3d_urn="urn:adsk.eagle:package:26509/1" value="LSP13" x="30.48" y="35.56"/>
<element name="D8" library="solpad" library_urn="urn:adsk.eagle:library:364" package="LSP13" package3d_urn="urn:adsk.eagle:package:26509/1" value="LSP13" x="27.94" y="35.56"/>
<element name="D9" library="solpad" library_urn="urn:adsk.eagle:library:364" package="LSP13" package3d_urn="urn:adsk.eagle:package:26509/1" value="LSP13" x="17.78" y="50.8"/>
<element name="GND1" library="solpad" library_urn="urn:adsk.eagle:library:364" package="LSP13" package3d_urn="urn:adsk.eagle:package:26509/1" value="LSP13" x="20.32" y="35.56"/>
<element name="GND2" library="solpad" library_urn="urn:adsk.eagle:library:364" package="LSP13" package3d_urn="urn:adsk.eagle:package:26509/1" value="LSP13" x="48.26" y="46.99" rot="R90"/>
<element name="GND3" library="solpad" library_urn="urn:adsk.eagle:library:364" package="LSP13" package3d_urn="urn:adsk.eagle:package:26509/1" value="LSP13" x="48.26" y="49.53" rot="R270"/>
<element name="RESET" library="solpad" library_urn="urn:adsk.eagle:library:364" package="LSP13" package3d_urn="urn:adsk.eagle:package:26509/1" value="LSP13" x="45.72" y="35.56" rot="R180"/>
<element name="RST" library="solpad" library_urn="urn:adsk.eagle:library:364" package="LSP13" package3d_urn="urn:adsk.eagle:package:26509/1" value="LSP13" x="48.26" y="36.83" rot="R270"/>
<element name="RX" library="solpad" library_urn="urn:adsk.eagle:library:364" package="LSP13" package3d_urn="urn:adsk.eagle:package:26509/1" value="LSP13" x="43.18" y="35.56"/>
<element name="TX2" library="solpad" library_urn="urn:adsk.eagle:library:364" package="LSP13" package3d_urn="urn:adsk.eagle:package:26509/1" value="LSP13" x="48.26" y="39.37" rot="R90"/>
<element name="RX2" library="solpad" library_urn="urn:adsk.eagle:library:364" package="LSP13" package3d_urn="urn:adsk.eagle:package:26509/1" value="LSP13" x="48.26" y="41.91" rot="R270"/>
<element name="TX" library="solpad" library_urn="urn:adsk.eagle:library:364" package="LSP13" package3d_urn="urn:adsk.eagle:package:26509/1" value="LSP13" x="40.64" y="35.56"/>
<element name="BUS" library="solpad" library_urn="urn:adsk.eagle:library:364" package="LSP13" package3d_urn="urn:adsk.eagle:package:26509/1" value="LSP13" x="22.86" y="35.56"/>
<element name="PATA_0" library="con-molex" library_urn="urn:adsk.eagle:library:165" package="22-23-2051" value="22-23-2051" x="21.59" y="77.47">
<attribute name="MF" value="MOLEX" x="21.59" y="77.47" size="1.778" layer="27" display="off"/>
<attribute name="MPN" value="22-23-2051" x="21.59" y="77.47" size="1.778" layer="27" display="off"/>
<attribute name="OC_FARNELL" value="1462952" x="21.59" y="77.47" size="1.778" layer="27" display="off"/>
<attribute name="OC_NEWARK" value="38C9178" x="21.59" y="77.47" size="1.778" layer="27" display="off"/>
</element>
<element name="PATA_1" library="con-molex" library_urn="urn:adsk.eagle:library:165" package="22-23-2051" value="22-23-2051" x="58.42" y="77.47">
<attribute name="MF" value="MOLEX" x="58.42" y="77.47" size="1.778" layer="27" display="off"/>
<attribute name="MPN" value="22-23-2051" x="58.42" y="77.47" size="1.778" layer="27" display="off"/>
<attribute name="OC_FARNELL" value="1462952" x="58.42" y="77.47" size="1.778" layer="27" display="off"/>
<attribute name="OC_NEWARK" value="38C9178" x="58.42" y="77.47" size="1.778" layer="27" display="off"/>
</element>
<element name="PATA_2" library="con-molex" library_urn="urn:adsk.eagle:library:165" package="22-23-2051" value="22-23-2051" x="95.25" y="77.47">
<attribute name="MF" value="MOLEX" x="95.25" y="77.47" size="1.778" layer="27" display="off"/>
<attribute name="MPN" value="22-23-2051" x="95.25" y="77.47" size="1.778" layer="27" display="off"/>
<attribute name="OC_FARNELL" value="1462952" x="95.25" y="77.47" size="1.778" layer="27" display="off"/>
<attribute name="OC_NEWARK" value="38C9178" x="95.25" y="77.47" size="1.778" layer="27" display="off"/>
</element>
<element name="PATA_3" library="con-molex" library_urn="urn:adsk.eagle:library:165" package="22-23-2051" value="22-23-2051" x="104.72" y="16.64" rot="R180">
<attribute name="MF" value="MOLEX" x="104.72" y="16.64" size="1.778" layer="27" rot="R180" display="off"/>
<attribute name="MPN" value="22-23-2051" x="104.72" y="16.64" size="1.778" layer="27" rot="R180" display="off"/>
<attribute name="OC_FARNELL" value="1462952" x="104.72" y="16.64" size="1.778" layer="27" rot="R180" display="off"/>
<attribute name="OC_NEWARK" value="38C9178" x="104.72" y="16.64" size="1.778" layer="27" rot="R180" display="off"/>
</element>
<element name="PATA_4" library="con-molex" library_urn="urn:adsk.eagle:library:165" package="22-23-2051" value="22-23-2051" x="67.83" y="16.65" rot="R180">
<attribute name="MF" value="MOLEX" x="67.83" y="16.65" size="1.778" layer="27" rot="R180" display="off"/>
<attribute name="MPN" value="22-23-2051" x="67.83" y="16.65" size="1.778" layer="27" rot="R180" display="off"/>
<attribute name="OC_FARNELL" value="1462952" x="67.83" y="16.65" size="1.778" layer="27" rot="R180" display="off"/>
<attribute name="OC_NEWARK" value="38C9178" x="67.83" y="16.65" size="1.778" layer="27" rot="R180" display="off"/>
</element>
<element name="PATA_5" library="con-molex" library_urn="urn:adsk.eagle:library:165" package="22-23-2051" value="22-23-2051" x="30.52" y="16.76" rot="R180">
<attribute name="MF" value="MOLEX" x="30.52" y="16.76" size="1.778" layer="27" rot="R180" display="off"/>
<attribute name="MPN" value="22-23-2051" x="30.52" y="16.76" size="1.778" layer="27" rot="R180" display="off"/>
<attribute name="OC_FARNELL" value="1462952" x="30.52" y="16.76" size="1.778" layer="27" rot="R180" display="off"/>
<attribute name="OC_NEWARK" value="38C9178" x="30.52" y="16.76" size="1.778" layer="27" rot="R180" display="off"/>
</element>
<element name="VIN" library="solpad" library_urn="urn:adsk.eagle:library:364" package="LSP13" package3d_urn="urn:adsk.eagle:package:26509/1" value="LSP13" x="72.39" y="50.8"/>
<element name="GND" library="solpad" library_urn="urn:adsk.eagle:library:364" package="LSP13" package3d_urn="urn:adsk.eagle:package:26509/1" value="LSP13" x="74.93" y="50.8" rot="R180"/>
<element name="SDA" library="solpad" library_urn="urn:adsk.eagle:library:364" package="LSP13" package3d_urn="urn:adsk.eagle:package:26509/1" value="LSP13" x="77.47" y="50.8"/>
<element name="SDL" library="solpad" library_urn="urn:adsk.eagle:library:364" package="LSP13" package3d_urn="urn:adsk.eagle:package:26509/1" value="LSP13" x="80.01" y="50.8" rot="R180"/>
<element name="REST" library="solpad" library_urn="urn:adsk.eagle:library:364" package="LSP13" package3d_urn="urn:adsk.eagle:package:26509/1" value="LSP13" x="82.55" y="50.8"/>
<element name="A_0" library="solpad" library_urn="urn:adsk.eagle:library:364" package="LSP13" package3d_urn="urn:adsk.eagle:package:26509/1" value="LSP13" x="85.09" y="50.8" rot="R180"/>
<element name="A_1" library="solpad" library_urn="urn:adsk.eagle:library:364" package="LSP13" package3d_urn="urn:adsk.eagle:package:26509/1" value="LSP13" x="87.63" y="50.8"/>
<element name="A_2" library="solpad" library_urn="urn:adsk.eagle:library:364" package="LSP13" package3d_urn="urn:adsk.eagle:package:26509/1" value="LSP13" x="90.17" y="50.8" rot="R180"/>
<element name="SD0" library="solpad" library_urn="urn:adsk.eagle:library:364" package="LSP13" package3d_urn="urn:adsk.eagle:package:26509/1" value="LSP13" x="92.71" y="50.8"/>
<element name="SC0" library="solpad" library_urn="urn:adsk.eagle:library:364" package="LSP13" package3d_urn="urn:adsk.eagle:package:26509/1" value="LSP13" x="95.25" y="50.8" rot="R180"/>
<element name="SD1" library="solpad" library_urn="urn:adsk.eagle:library:364" package="LSP13" package3d_urn="urn:adsk.eagle:package:26509/1" value="LSP13" x="97.79" y="50.8"/>
<element name="SC1" library="solpad" library_urn="urn:adsk.eagle:library:364" package="LSP13" package3d_urn="urn:adsk.eagle:package:26509/1" value="LSP13" x="100.33" y="50.8" rot="R180"/>
<element name="SC7" library="solpad" library_urn="urn:adsk.eagle:library:364" package="LSP13" package3d_urn="urn:adsk.eagle:package:26509/1" value="LSP13" x="72.39" y="35.56"/>
<element name="SD7" library="solpad" library_urn="urn:adsk.eagle:library:364" package="LSP13" package3d_urn="urn:adsk.eagle:package:26509/1" value="LSP13" x="74.93" y="35.56" rot="R180"/>
<element name="SC6" library="solpad" library_urn="urn:adsk.eagle:library:364" package="LSP13" package3d_urn="urn:adsk.eagle:package:26509/1" value="LSP13" x="77.47" y="35.56"/>
<element name="SD6" library="solpad" library_urn="urn:adsk.eagle:library:364" package="LSP13" package3d_urn="urn:adsk.eagle:package:26509/1" value="LSP13" x="80.01" y="35.56" rot="R180"/>
<element name="SC5" library="solpad" library_urn="urn:adsk.eagle:library:364" package="LSP13" package3d_urn="urn:adsk.eagle:package:26509/1" value="LSP13" x="82.55" y="35.56"/>
<element name="SD5" library="solpad" library_urn="urn:adsk.eagle:library:364" package="LSP13" package3d_urn="urn:adsk.eagle:package:26509/1" value="LSP13" x="85.09" y="35.56" rot="R180"/>
<element name="SC4" library="solpad" library_urn="urn:adsk.eagle:library:364" package="LSP13" package3d_urn="urn:adsk.eagle:package:26509/1" value="LSP13" x="87.63" y="35.56"/>
<element name="SD4" library="solpad" library_urn="urn:adsk.eagle:library:364" package="LSP13" package3d_urn="urn:adsk.eagle:package:26509/1" value="LSP13" x="90.17" y="35.56" rot="R180"/>
<element name="SC3" library="solpad" library_urn="urn:adsk.eagle:library:364" package="LSP13" package3d_urn="urn:adsk.eagle:package:26509/1" value="LSP13" x="92.71" y="35.56"/>
<element name="SD3" library="solpad" library_urn="urn:adsk.eagle:library:364" package="LSP13" package3d_urn="urn:adsk.eagle:package:26509/1" value="LSP13" x="95.25" y="35.56" rot="R180"/>
<element name="SC2" library="solpad" library_urn="urn:adsk.eagle:library:364" package="LSP13" package3d_urn="urn:adsk.eagle:package:26509/1" value="LSP13" x="97.79" y="35.56"/>
<element name="SD2" library="solpad" library_urn="urn:adsk.eagle:library:364" package="LSP13" package3d_urn="urn:adsk.eagle:package:26509/1" value="LSP13" x="100.33" y="35.56" rot="R180"/>
<element name="BATERIA" library="con-molex" library_urn="urn:adsk.eagle:library:165" package="22-23-2021" value="22-23-2021" x="-2.31" y="36.84" rot="R90">
<attribute name="MF" value="MOLEX" x="-2.31" y="36.84" size="1.778" layer="27" rot="R90" display="off"/>
<attribute name="MPN" value="22-23-2021" x="-2.31" y="36.84" size="1.778" layer="27" rot="R90" display="off"/>
<attribute name="OC_FARNELL" value="1462926" x="-2.31" y="36.84" size="1.778" layer="27" rot="R90" display="off"/>
<attribute name="OC_NEWARK" value="25C3832" x="-2.31" y="36.84" size="1.778" layer="27" rot="R90" display="off"/>
</element>
<element name="COMUNICACION" library="con-molex" library_urn="urn:adsk.eagle:library:165" package="22-23-2021" value="22-23-2021" x="-2.44" y="51.39" rot="R90">
<attribute name="MF" value="MOLEX" x="-2.44" y="51.39" size="1.778" layer="27" rot="R90" display="off"/>
<attribute name="MPN" value="22-23-2021" x="-2.44" y="51.39" size="1.778" layer="27" rot="R90" display="off"/>
<attribute name="OC_FARNELL" value="1462926" x="-2.44" y="51.39" size="1.778" layer="27" rot="R90" display="off"/>
<attribute name="OC_NEWARK" value="25C3832" x="-2.44" y="51.39" size="1.778" layer="27" rot="R90" display="off"/>
</element>
<element name="ESC_0" library="con-molex" library_urn="urn:adsk.eagle:library:165" package="22-23-2031" value="22-23-2031" x="33.51" y="77.47">
<attribute name="MF" value="MOLEX" x="33.51" y="77.47" size="1.778" layer="27" display="off"/>
<attribute name="MPN" value="22-23-2031" x="33.51" y="77.47" size="1.778" layer="27" display="off"/>
<attribute name="OC_FARNELL" value="1462950" x="33.51" y="77.47" size="1.778" layer="27" display="off"/>
<attribute name="OC_NEWARK" value="30C0862" x="33.51" y="77.47" size="1.778" layer="27" display="off"/>
</element>
<element name="ESC_1" library="con-molex" library_urn="urn:adsk.eagle:library:165" package="22-23-2031" value="22-23-2031" x="70.44" y="77.49">
<attribute name="MF" value="MOLEX" x="70.44" y="77.49" size="1.778" layer="27" display="off"/>
<attribute name="MPN" value="22-23-2031" x="70.44" y="77.49" size="1.778" layer="27" display="off"/>
<attribute name="OC_FARNELL" value="1462950" x="70.44" y="77.49" size="1.778" layer="27" display="off"/>
<attribute name="OC_NEWARK" value="30C0862" x="70.44" y="77.49" size="1.778" layer="27" display="off"/>
</element>
<element name="ESC_2" library="con-molex" library_urn="urn:adsk.eagle:library:165" package="22-23-2031" value="22-23-2031" x="107.38" y="77.48">
<attribute name="MF" value="MOLEX" x="107.38" y="77.48" size="1.778" layer="27" display="off"/>
<attribute name="MPN" value="22-23-2031" x="107.38" y="77.48" size="1.778" layer="27" display="off"/>
<attribute name="OC_FARNELL" value="1462950" x="107.38" y="77.48" size="1.778" layer="27" display="off"/>
<attribute name="OC_NEWARK" value="30C0862" x="107.38" y="77.48" size="1.778" layer="27" display="off"/>
</element>
<element name="ESC_4" library="con-molex" library_urn="urn:adsk.eagle:library:165" package="22-23-2031" value="22-23-2031" x="55.79" y="16.61" rot="R180">
<attribute name="MF" value="MOLEX" x="55.79" y="16.61" size="1.778" layer="27" rot="R180" display="off"/>
<attribute name="MPN" value="22-23-2031" x="55.79" y="16.61" size="1.778" layer="27" rot="R180" display="off"/>
<attribute name="OC_FARNELL" value="1462950" x="55.79" y="16.61" size="1.778" layer="27" rot="R180" display="off"/>
<attribute name="OC_NEWARK" value="30C0862" x="55.79" y="16.61" size="1.778" layer="27" rot="R180" display="off"/>
</element>
<element name="ESC_5" library="con-molex" library_urn="urn:adsk.eagle:library:165" package="22-23-2031" value="22-23-2031" x="18.77" y="16.84" rot="R180">
<attribute name="MF" value="MOLEX" x="18.77" y="16.84" size="1.778" layer="27" rot="R180" display="off"/>
<attribute name="MPN" value="22-23-2031" x="18.77" y="16.84" size="1.778" layer="27" rot="R180" display="off"/>
<attribute name="OC_FARNELL" value="1462950" x="18.77" y="16.84" size="1.778" layer="27" rot="R180" display="off"/>
<attribute name="OC_NEWARK" value="30C0862" x="18.77" y="16.84" size="1.778" layer="27" rot="R180" display="off"/>
</element>
<element name="ESC_3" library="con-molex" library_urn="urn:adsk.eagle:library:165" package="22-23-2031" value="22-23-2031" x="92.86" y="16.69" rot="R180">
<attribute name="MF" value="MOLEX" x="92.86" y="16.69" size="1.778" layer="27" rot="R180" display="off"/>
<attribute name="MPN" value="22-23-2031" x="92.86" y="16.69" size="1.778" layer="27" rot="R180" display="off"/>
<attribute name="OC_FARNELL" value="1462950" x="92.86" y="16.69" size="1.778" layer="27" rot="R180" display="off"/>
<attribute name="OC_NEWARK" value="30C0862" x="92.86" y="16.69" size="1.778" layer="27" rot="R180" display="off"/>
</element>
</elements>
<signals>
<signal name="D3">
<contactref element="D3" pad="MP"/>
<contactref element="ESC_0" pad="3"/>
<wire x1="36.05" y1="77.47" x2="35.96" y2="77.56" width="0.4064" layer="1"/>
<wire x1="35.96" y1="77.56" x2="35.96" y2="81.65" width="0.8128" layer="1"/>
<wire x1="35.96" y1="81.65" x2="35.6" y2="82.01" width="0.8128" layer="1"/>
<wire x1="35.6" y1="82.01" x2="13.64" y2="82.01" width="0.8128" layer="1"/>
<wire x1="10.89" y1="79.26" x2="10.89" y2="44.8" width="0.8128" layer="1"/>
<wire x1="14.46" y1="42.19" x2="10.89" y2="44.8" width="0.8128" layer="1"/>
<wire x1="13.64" y1="82.01" x2="10.89" y2="79.26" width="0.8128" layer="1"/>
<wire x1="37.92" y1="35.74" x2="37.92" y2="38.95" width="0.8128" layer="1"/>
<wire x1="37.92" y1="38.95" x2="35.64" y2="42.19" width="0.8128" layer="1"/>
<wire x1="35.64" y1="42.19" x2="14.46" y2="42.19" width="0.8128" layer="1"/>
<wire x1="37.92" y1="35.74" x2="38.1" y2="35.56" width="0" layer="19" extent="1-1"/>
</signal>
<signal name="A3">
<contactref element="PATA_3" pad="2"/>
<wire x1="44.47" y1="57.79" x2="40.89" y2="54.21" width="0.8128" layer="1"/>
<wire x1="44.47" y1="57.79" x2="89.78" y2="57.79" width="0.8128" layer="1"/>
<wire x1="89.78" y1="57.79" x2="89.78" y2="57.86" width="0.4064" layer="1"/>
<via x="89.78" y="57.86" extent="1-16" drill="0.6" diameter="1.2"/>
<wire x1="89.78" y1="57.86" x2="89.99" y2="57.65" width="0.4064" layer="16"/>
<wire x1="89.99" y1="57.65" x2="112.51" y2="57.65" width="0.8128" layer="16"/>
<wire x1="112.51" y1="57.65" x2="112.58" y2="57.72" width="0.4064" layer="16"/>
<via x="112.58" y="57.72" extent="1-16" drill="0.6" diameter="1.2"/>
<wire x1="112.58" y1="57.72" x2="113.44" y2="56.86" width="0.8128" layer="1"/>
<wire x1="113.44" y1="56.86" x2="113.44" y2="28.47" width="0.8128" layer="1"/>
<wire x1="113.44" y1="28.47" x2="107.26" y2="22.29" width="0.8128" layer="1"/>
<wire x1="107.26" y1="22.29" x2="107.26" y2="16.64" width="0.8128" layer="1"/>
<contactref element="A3" pad="MP"/>
<wire x1="40.89" y1="54.21" x2="40.89" y2="51.05" width="0.8128" layer="1"/>
<wire x1="40.89" y1="51.05" x2="40.64" y2="50.8" width="0.8128" layer="1"/>
</signal>
<signal name="A2">
<contactref element="PATA_2" pad="2"/>
<wire x1="92.71" y1="77.47" x2="92.71" y2="74.76" width="0.8128" layer="1"/>
<wire x1="92.71" y1="74.76" x2="90.72" y2="72.77" width="0.8128" layer="1"/>
<via x="81.14" y="72.66" extent="1-16" drill="0.6" diameter="1.2"/>
<wire x1="81.14" y1="72.66" x2="81.14" y2="62.53" width="0.8128" layer="16"/>
<wire x1="81.14" y1="62.53" x2="81.15" y2="62.52" width="0.4064" layer="16"/>
<wire x1="81.15" y1="62.52" x2="81.12" y2="62.49" width="0.4064" layer="16"/>
<wire x1="81.12" y1="62.49" x2="81.12" y2="62.4" width="0.4064" layer="16"/>
<via x="81.12" y="62.4" extent="1-16" drill="0.6" diameter="1.2"/>
<wire x1="81.12" y1="62.4" x2="78.64" y2="59.92" width="0.8128" layer="1"/>
<wire x1="78.64" y1="59.92" x2="43.23" y2="59.92" width="0.8128" layer="1"/>
<wire x1="43.23" y1="59.92" x2="38.1" y2="54.79" width="0.8128" layer="1"/>
<wire x1="90.72" y1="72.77" x2="81.25" y2="72.77" width="0.8128" layer="1"/>
<wire x1="81.25" y1="72.77" x2="81.14" y2="72.66" width="0.4064" layer="1"/>
<contactref element="A2" pad="MP"/>
<wire x1="38.1" y1="54.79" x2="38.1" y2="50.8" width="0.8128" layer="1"/>
</signal>
<signal name="A0">
<contactref element="PATA_0" pad="2"/>
<wire x1="19.05" y1="77.47" x2="19.21" y2="77.31" width="0.4064" layer="1"/>
<wire x1="19.21" y1="77.31" x2="19.21" y2="70.65" width="0.8128" layer="1"/>
<wire x1="19.21" y1="70.65" x2="33.02" y2="56.84" width="0.8128" layer="1"/>
<contactref element="A0" pad="MP"/>
<wire x1="33.02" y1="56.84" x2="33.02" y2="50.8" width="0.8128" layer="1"/>
</signal>
<signal name="A1">
<contactref element="PATA_1" pad="2"/>
<wire x1="55.88" y1="77.47" x2="55.88" y2="68.61" width="0.8128" layer="1"/>
<wire x1="55.88" y1="68.61" x2="55.87" y2="68.6" width="0.4064" layer="1"/>
<wire x1="55.87" y1="68.6" x2="55.87" y2="68.56" width="0.4064" layer="1"/>
<wire x1="55.87" y1="68.56" x2="55.96" y2="68.47" width="0.4064" layer="1"/>
<via x="55.96" y="68.47" extent="1-16" drill="0.6" diameter="1.2"/>
<wire x1="55.96" y1="68.47" x2="55.96" y2="62.48" width="0.8128" layer="16"/>
<wire x1="55.96" y1="62.48" x2="55.96" y2="62.39" width="0.4064" layer="16"/>
<wire x1="55.96" y1="62.39" x2="56" y2="62.35" width="0.4064" layer="16"/>
<wire x1="56" y1="62.35" x2="56" y2="62.44" width="0.4064" layer="16"/>
<wire x1="56" y1="62.44" x2="55.96" y2="62.48" width="0.4064" layer="16"/>
<via x="55.96" y="62.48" extent="1-16" drill="0.6" diameter="1.2"/>
<wire x1="55.96" y1="62.48" x2="41.95" y2="62.48" width="0.8128" layer="1"/>
<contactref element="A1" pad="MP"/>
<wire x1="35.56" y1="56.09" x2="35.56" y2="50.8" width="0.8128" layer="1"/>
<wire x1="41.95" y1="62.48" x2="35.56" y2="56.09" width="0.8128" layer="1"/>
</signal>
<signal name="SC3">
<contactref element="SC3" pad="MP"/>
<wire x1="102.18" y1="19.86" x2="92.67" y2="29.37" width="0.8128" layer="1"/>
<wire x1="92.67" y1="29.37" x2="92.67" y2="35.52" width="0.8128" layer="1"/>
<wire x1="92.67" y1="35.52" x2="92.71" y2="35.56" width="0.4064" layer="1"/>
<contactref element="PATA_3" pad="4"/>
<wire x1="102.18" y1="19.86" x2="102.18" y2="16.64" width="0.8128" layer="1"/>
</signal>
<signal name="SD3">
<contactref element="PATA_3" pad="3"/>
<wire x1="104.72" y1="16.64" x2="104.72" y2="20.4" width="0.8128" layer="1"/>
<wire x1="104.72" y1="20.4" x2="95.25" y2="29.87" width="0.8128" layer="1"/>
<contactref element="SD3" pad="MP"/>
<wire x1="95.25" y1="29.87" x2="95.25" y2="35.56" width="0.8128" layer="1"/>
</signal>
<signal name="SD2">
<contactref element="SD2" pad="MP"/>
<wire x1="95.48" y1="71.19" x2="105.23" y2="61.44" width="0.8128" layer="1"/>
<wire x1="105.23" y1="61.44" x2="105.23" y2="40.5" width="0.8128" layer="1"/>
<wire x1="105.23" y1="40.5" x2="100.33" y2="35.6" width="0.8128" layer="1"/>
<wire x1="100.33" y1="35.6" x2="100.33" y2="35.56" width="0.4064" layer="1"/>
<contactref element="PATA_2" pad="3"/>
<wire x1="95.25" y1="77.47" x2="95.48" y2="77.24" width="0.8128" layer="1"/>
<wire x1="95.48" y1="77.24" x2="95.48" y2="71.19" width="0.8128" layer="1"/>
</signal>
<signal name="SC2">
<contactref element="SC2" pad="MP"/>
<wire x1="97.79" y1="35.56" x2="97.79" y2="34.15" width="0.8128" layer="1"/>
<wire x1="97.79" y1="34.15" x2="100.93" y2="31.01" width="0.8128" layer="1"/>
<wire x1="100.93" y1="31.01" x2="101.03" y2="30.91" width="0.4064" layer="1"/>
<wire x1="101.03" y1="30.91" x2="101.13" y2="30.81" width="0.4064" layer="1"/>
<wire x1="101.13" y1="30.81" x2="105.46" y2="30.81" width="0.8128" layer="1"/>
<wire x1="105.46" y1="30.81" x2="108.54" y2="33.89" width="0.8128" layer="1"/>
<wire x1="108.54" y1="33.89" x2="108.54" y2="62.23" width="0.8128" layer="1"/>
<wire x1="97.79" y1="72.98" x2="108.54" y2="62.23" width="0.8128" layer="1"/>
<contactref element="PATA_2" pad="4"/>
<wire x1="97.79" y1="77.47" x2="97.79" y2="72.98" width="0.8128" layer="1"/>
</signal>
<signal name="SC1">
<contactref element="PATA_1" pad="4"/>
<wire x1="100.33" y1="60.2" x2="100.31" y2="60.22" width="0.4064" layer="1"/>
<wire x1="100.33" y1="60.2" x2="90.28" y2="70.25" width="0.8128" layer="1"/>
<wire x1="90.28" y1="70.25" x2="64.82" y2="70.25" width="0.8128" layer="1"/>
<wire x1="64.82" y1="70.25" x2="60.96" y2="74.11" width="0.8128" layer="1"/>
<wire x1="60.96" y1="74.11" x2="60.96" y2="77.47" width="0.8128" layer="1"/>
<contactref element="SC1" pad="MP"/>
<wire x1="100.33" y1="50.8" x2="100.33" y2="60.2" width="0.8128" layer="1"/>
</signal>
<signal name="N$26">
<contactref element="PATA_4" pad="3"/>
<contactref element="SD4" pad="MP"/>
<wire x1="67.83" y1="16.65" x2="68.01" y2="16.83" width="0.4064" layer="1"/>
<wire x1="68.01" y1="16.83" x2="68.01" y2="21.17" width="0.8128" layer="1"/>
<wire x1="68.01" y1="21.17" x2="72.16" y2="25.32" width="0.8128" layer="1"/>
<wire x1="85.22" y1="25.32" x2="90.22" y2="30.32" width="0.8128" layer="1"/>
<wire x1="90.22" y1="30.32" x2="90.22" y2="35.51" width="0.8128" layer="1"/>
<wire x1="90.22" y1="35.51" x2="90.17" y2="35.56" width="0.4064" layer="1"/>
<wire x1="72.16" y1="25.32" x2="85.22" y2="25.32" width="0.8128" layer="1"/>
</signal>
<signal name="N$27">
<contactref element="PATA_4" pad="4"/>
<contactref element="SC4" pad="MP"/>
<wire x1="87.63" y1="35.56" x2="87.63" y2="31.01" width="0.8128" layer="1"/>
<wire x1="87.63" y1="31.01" x2="83.65" y2="27.03" width="0.8128" layer="1"/>
<wire x1="83.65" y1="27.03" x2="69.86" y2="27.03" width="0.8128" layer="1"/>
<wire x1="69.86" y1="27.03" x2="65.29" y2="22.46" width="0.8128" layer="1"/>
<wire x1="65.29" y1="22.46" x2="65.29" y2="16.65" width="0.8128" layer="1"/>
</signal>
<signal name="SCL">
<contactref element="SDL" pad="MP"/>
<wire x1="80.01" y1="50.8" x2="80.32" y2="51.11" width="0.4064" layer="1"/>
<wire x1="80.32" y1="51.11" x2="80.32" y2="53.64" width="0.8128" layer="1"/>
<wire x1="80.32" y1="53.64" x2="80.11" y2="53.85" width="0.4064" layer="1"/>
<wire x1="80.11" y1="53.85" x2="80.11" y2="53.86" width="0.4064" layer="1"/>
<via x="80.11" y="53.86" extent="1-16" drill="0.6" diameter="1.2"/>
<wire x1="80.11" y1="53.86" x2="74.67" y2="53.86" width="0.8128" layer="16"/>
<wire x1="74.67" y1="53.86" x2="74.53" y2="54" width="0.4064" layer="16"/>
<wire x1="74.53" y1="54" x2="74.53" y2="53.78" width="0.4064" layer="16"/>
<wire x1="74.53" y1="53.78" x2="74.3" y2="54.12" width="0.4064" layer="16"/>
<via x="74.3" y="54.12" extent="1-16" drill="0.6" diameter="1.2"/>
<wire x1="46.05" y1="51.12" x2="47.86" y2="53.47" width="0.8128" layer="1"/>
<contactref element="A5" pad="MP"/>
<wire x1="47.86" y1="53.47" x2="48.51" y2="54.12" width="0.8128" layer="1"/>
<wire x1="48.51" y1="54.12" x2="74.3" y2="54.12" width="0.8128" layer="1"/>
<wire x1="45.72" y1="50.8" x2="46.05" y2="51.12" width="0" layer="19" extent="1-1"/>
</signal>
<signal name="GND">
<contactref element="GND1" pad="MP"/>
<wire x1="20.32" y1="35.56" x2="20.24059375" y2="35.56" width="1.016" layer="1"/>
<wire x1="20.24059375" y1="35.56" x2="18.50069375" y2="37.2999" width="1.016" layer="1"/>
<wire x1="5.1101" y1="37.2999" x2="4.22" y2="38.24" width="1.016" layer="1"/>
<wire x1="18.50069375" y1="37.2999" x2="5.1101" y2="37.2999" width="1.016" layer="1"/>
<wire x1="4.22" y1="38.24" x2="4.26" y2="40.19" width="1.016" layer="1"/>
<wire x1="4.26" y1="40.19" x2="4.3" y2="40.23" width="1.016" layer="1"/>
<wire x1="4.3" y1="40.23" x2="4.19" y2="40.34" width="1.016" layer="1"/>
<wire x1="4.19" y1="40.34" x2="4.19" y2="40.39" width="1.016" layer="1"/>
<via x="4.19" y="40.39" extent="1-16" drill="0.6" diameter="1.2"/>
<polygon width="0.8128" layer="16" isolate="0.8128">
<vertex x="-7.55" y="71.09"/>
<vertex x="-7.55" y="27.96"/>
<vertex x="12.21" y="8.2"/>
<vertex x="106.96" y="8.2"/>
<vertex x="122.57" y="23.81"/>
<vertex x="122.57" y="69.67"/>
<vertex x="104.74" y="87.5"/>
<vertex x="8.86" y="87.5"/>
</polygon>
<contactref element="ESC_0" pad="1"/>
<wire x1="30.97" y1="77.47" x2="30.97" y2="76.14" width="0.8128" layer="1"/>
<wire x1="30.97" y1="76.14" x2="34.26" y2="72.85" width="0.8128" layer="1"/>
<wire x1="34.26" y1="72.85" x2="34.26" y2="72.84" width="0.4064" layer="1"/>
<wire x1="34.26" y1="72.84" x2="34.5" y2="72.6" width="0.4064" layer="1"/>
<via x="34.5" y="72.6" extent="1-16" drill="0.6" diameter="1.2"/>
<contactref element="GND" pad="MP"/>
<contactref element="GND2" pad="MP"/>
<contactref element="GND3" pad="MP"/>
<wire x1="48.26" y1="49.53" x2="48.27" y2="49.52" width="0.8128" layer="1"/>
<wire x1="53.56" y1="49.52" x2="55.04" y2="49.54" width="0.8128" layer="1"/>
<via x="55.04" y="49.54" extent="1-16" drill="0.6" diameter="1.2"/>
<wire x1="53.05" y1="49.52" x2="48.27" y2="49.52" width="0.8128" layer="1"/>
<wire x1="53.05" y1="49.52" x2="53.56" y2="49.52" width="0.8128" layer="1"/>
<wire x1="48.26" y1="46.99" x2="50.87" y2="46.99" width="0.8128" layer="1"/>
<wire x1="53.05" y1="49.17" x2="53.05" y2="49.52" width="0.8128" layer="1"/>
<wire x1="50.87" y1="46.99" x2="53.05" y2="49.17" width="0.8128" layer="1"/>
<contactref element="ESC_1" pad="1"/>
<contactref element="ESC_5" pad="1"/>
<contactref element="ESC_4" pad="1"/>
<contactref element="ESC_3" pad="1"/>
<contactref element="ESC_2" pad="1"/>
<contactref element="PATA_5" pad="5"/>
<contactref element="PATA_4" pad="5"/>
<contactref element="PATA_1" pad="5"/>
<contactref element="PATA_0" pad="5"/>
<contactref element="PATA_2" pad="5"/>
<contactref element="PATA_3" pad="5"/>
<contactref element="BATERIA" pad="2"/>
<wire x1="-2.31" y1="38.11" x2="-2.18" y2="38.24" width="1.016" layer="1"/>
<wire x1="-2.18" y1="38.24" x2="4.22" y2="38.24" width="1.016" layer="1"/>
</signal>
<signal name="BATERIA+">
<contactref element="BAT" pad="MP"/>
<contactref element="BATERIA" pad="1"/>
<wire x1="-2.31" y1="35.57" x2="17.77" y2="35.57" width="1.016" layer="1"/>
<wire x1="17.77" y1="35.57" x2="17.78" y2="35.56" width="1.016" layer="1"/>
</signal>
<signal name="TX">
<contactref element="COMUNICACION" pad="2"/>
<contactref element="RX" pad="MP"/>
<wire x1="-2.25" y1="52.47" x2="3.1" y2="52.47" width="0.8128" layer="1"/>
<wire x1="3.1" y1="52.47" x2="4.35" y2="51.22" width="0.8128" layer="1"/>
<wire x1="4.35" y1="51.22" x2="4.35" y2="51.1" width="0.4064" layer="1"/>
<wire x1="4.35" y1="51.04" x2="4.35" y2="51.1" width="0.4064" layer="1"/>
<via x="4.35" y="51.1" extent="1-16" drill="0.6" diameter="1.2"/>
<wire x1="4.35" y1="51.1" x2="13.99" y2="51.1" width="0.8128" layer="16"/>
<wire x1="13.99" y1="51.1" x2="14.11" y2="50.98" width="0.4064" layer="16"/>
<wire x1="14.11" y1="50.98" x2="14.11" y2="50.92" width="0.4064" layer="16"/>
<via x="14.11" y="50.92" extent="1-16" drill="0.6" diameter="1.2"/>
<wire x1="43.29" y1="35.67" x2="43.18" y2="35.56" width="0.4064" layer="1"/>
<wire x1="14.11" y1="50.92" x2="14.19" y2="50.84" width="0.8128" layer="1"/>
<wire x1="14.19" y1="50.84" x2="14.19" y2="46.72" width="0.8128" layer="1"/>
<wire x1="14.19" y1="46.72" x2="15.53" y2="45.75" width="0.8128" layer="1"/>
<wire x1="15.53" y1="45.75" x2="40.58" y2="45.75" width="0.8128" layer="1"/>
<wire x1="40.58" y1="45.75" x2="43.29" y2="42.67" width="0.8128" layer="1"/>
<wire x1="43.29" y1="42.67" x2="43.29" y2="35.67" width="0.8128" layer="1"/>
<wire x1="-2.25" y1="52.47" x2="-2.44" y2="52.66" width="0" layer="19" extent="1-1"/>
</signal>
<signal name="N$6">
</signal>
<signal name="N$10">
</signal>
<signal name="N$35">
</signal>
<signal name="N$36">
</signal>
<signal name="N$37">
</signal>
<signal name="V+">
<contactref element="5V150MA" pad="MP"/>
<wire x1="35.6" y1="14.67" x2="33.59" y2="12.66" width="0.8128" layer="1"/>
<wire x1="33.59" y1="12.66" x2="24.94" y2="12.66" width="0.8128" layer="1"/>
<wire x1="24.94" y1="12.66" x2="23.37" y2="14.23" width="0.8128" layer="1"/>
<wire x1="23.37" y1="14.23" x2="23.37" y2="20.6" width="0.8128" layer="1"/>
<wire x1="23.37" y1="20.6" x2="18.36" y2="25.61" width="0.8128" layer="1"/>
<wire x1="18.36" y1="25.61" x2="18.36" y2="28.52" width="0.8128" layer="1"/>
<wire x1="18.36" y1="28.52" x2="25.4" y2="35.56" width="0.8128" layer="1"/>
<wire x1="25.4" y1="35.56" x2="25.34" y2="35.5" width="0.8128" layer="1"/>
<wire x1="25.34" y1="35.5" x2="25.34" y2="32.81" width="0.8128" layer="1"/>
<wire x1="25.34" y1="32.81" x2="26.49" y2="31.66" width="0.8128" layer="1"/>
<wire x1="26.49" y1="31.66" x2="49.54" y2="31.66" width="0.8128" layer="1"/>
<wire x1="68.68" y1="50.8" x2="49.54" y2="31.66" width="0.8128" layer="1"/>
<contactref element="VIN" pad="MP"/>
<contactref element="PATA_3" pad="1"/>
<contactref element="PATA_2" pad="1"/>
<contactref element="PATA_0" pad="1"/>
<contactref element="PATA_1" pad="1"/>
<contactref element="PATA_4" pad="1"/>
<contactref element="PATA_5" pad="1"/>
<wire x1="16.51" y1="77.47" x2="16.51" y2="78.45" width="0.8128" layer="1"/>
<wire x1="16.51" y1="78.45" x2="18.1" y2="80.04" width="0.8128" layer="1"/>
<wire x1="18.1" y1="80.04" x2="27.32" y2="80.04" width="0.8128" layer="1"/>
<wire x1="27.32" y1="80.04" x2="29.11" y2="78.25" width="0.8128" layer="1"/>
<wire x1="29.11" y1="78.25" x2="29.11" y2="73.97" width="0.8128" layer="1"/>
<wire x1="29.11" y1="73.97" x2="32.39" y2="70.69" width="0.8128" layer="1"/>
<wire x1="32.39" y1="70.69" x2="46.56" y2="70.69" width="0.8128" layer="1"/>
<wire x1="46.56" y1="70.69" x2="53.34" y2="77.47" width="0.8128" layer="1"/>
<wire x1="53.34" y1="77.47" x2="53.41" y2="77.54" width="0.4064" layer="1"/>
<wire x1="53.41" y1="77.54" x2="53.41" y2="79.98" width="0.8128" layer="1"/>
<wire x1="53.41" y1="79.98" x2="54.48" y2="81.05" width="0.8128" layer="1"/>
<wire x1="54.48" y1="81.05" x2="54.48" y2="81.23" width="0.4064" layer="1"/>
<wire x1="54.48" y1="81.23" x2="64.18" y2="81.23" width="0.8128" layer="1"/>
<wire x1="64.18" y1="81.23" x2="65.79" y2="79.62" width="0.8128" layer="1"/>
<wire x1="65.79" y1="79.62" x2="65.79" y2="74.27" width="0.8128" layer="1"/>
<wire x1="65.79" y1="74.27" x2="67.82" y2="72.24" width="0.8128" layer="1"/>
<wire x1="67.82" y1="72.24" x2="74.42" y2="72.24" width="0.8128" layer="1"/>
<wire x1="74.42" y1="72.24" x2="79.66" y2="77.48" width="0.8128" layer="1"/>
<wire x1="79.66" y1="77.48" x2="90.16" y2="77.48" width="0.8128" layer="1"/>
<wire x1="90.16" y1="77.48" x2="90.17" y2="77.47" width="0.4064" layer="1"/>
<wire x1="90.17" y1="77.47" x2="90.17" y2="79.62" width="0.8128" layer="1"/>
<wire x1="90.17" y1="79.62" x2="92.29" y2="81.74" width="0.8128" layer="1"/>
<wire x1="92.29" y1="81.74" x2="100.51" y2="81.74" width="0.8128" layer="1"/>
<wire x1="100.51" y1="81.74" x2="102.62" y2="79.63" width="0.8128" layer="1"/>
<wire x1="102.62" y1="79.63" x2="102.62" y2="74.62" width="0.8128" layer="1"/>
<wire x1="102.62" y1="74.62" x2="112.62" y2="64.62" width="0.8128" layer="1"/>
<wire x1="114.84" y1="64.62" x2="116.41" y2="63.05" width="0.8128" layer="1"/>
<wire x1="116.41" y1="63.05" x2="116.41" y2="23.25" width="0.8128" layer="1"/>
<wire x1="116.41" y1="23.25" x2="109.8" y2="16.64" width="0.8128" layer="1"/>
<wire x1="112.62" y1="64.62" x2="114.84" y2="64.62" width="0.8128" layer="1"/>
<wire x1="109.8" y1="16.64" x2="109.8" y2="13.75" width="0.8128" layer="1"/>
<wire x1="109.8" y1="13.75" x2="106.77" y2="10.72" width="0.8128" layer="1"/>
<wire x1="106.77" y1="10.72" x2="100.21" y2="10.72" width="0.8128" layer="1"/>
<wire x1="97.48" y1="13.45" x2="97.48" y2="19.73" width="0.8128" layer="1"/>
<wire x1="97.48" y1="19.73" x2="97.42" y2="19.73" width="0.4064" layer="1"/>
<wire x1="97.42" y1="19.73" x2="94.34" y2="22.81" width="0.8128" layer="1"/>
<wire x1="94.34" y1="22.81" x2="79.07" y2="22.81" width="0.8128" layer="1"/>
<wire x1="79.07" y1="22.81" x2="72.91" y2="16.65" width="0.8128" layer="1"/>
<wire x1="100.21" y1="10.72" x2="97.48" y2="13.45" width="0.8128" layer="1"/>
<wire x1="72.91" y1="16.65" x2="72.91" y2="14.24" width="0.8128" layer="1"/>
<wire x1="72.91" y1="14.24" x2="70.11" y2="11.44" width="0.8128" layer="1"/>
<wire x1="70.11" y1="11.44" x2="62.25" y2="11.44" width="0.8128" layer="1"/>
<wire x1="62.25" y1="11.44" x2="60.46" y2="13.23" width="0.8128" layer="1"/>
<wire x1="60.46" y1="13.23" x2="60.46" y2="19.52" width="0.8128" layer="1"/>
<wire x1="60.46" y1="19.52" x2="58.6" y2="21.38" width="0.8128" layer="1"/>
<wire x1="58.6" y1="21.38" x2="40.22" y2="21.38" width="0.8128" layer="1"/>
<wire x1="40.22" y1="21.38" x2="35.6" y2="16.76" width="0.8128" layer="1"/>
<wire x1="72.39" y1="50.8" x2="68.68" y2="50.8" width="0.8128" layer="1"/>
<wire x1="35.6" y1="14.67" x2="35.6" y2="16.76" width="0" layer="19" extent="1-1"/>
</signal>
<signal name="RX">
<contactref element="COMUNICACION" pad="1"/>
<contactref element="TX" pad="MP"/>
<via x="12.65" y="49.46" extent="1-16" drill="0.6" diameter="1.2"/>
<wire x1="3.89" y1="49.46" x2="3.68" y2="49.46" width="0.4064" layer="16"/>
<wire x1="3.68" y1="49.46" x2="3.58" y2="49.36" width="0.4064" layer="16"/>
<via x="3.58" y="49.36" extent="1-16" drill="0.6" diameter="1.2"/>
<wire x1="2.82" y1="50.12" x2="3.58" y2="49.36" width="0.8128" layer="1"/>
<wire x1="3.58" y1="49.36" x2="12.55" y2="49.36" width="0.8128" layer="16"/>
<wire x1="12.55" y1="49.36" x2="12.65" y2="49.46" width="0.8128" layer="16"/>
<wire x1="12.5" y1="49.31" x2="12.65" y2="49.46" width="0.8128" layer="1"/>
<wire x1="12.65" y1="49.46" x2="12.65" y2="46.01" width="0.8128" layer="1"/>
<wire x1="40.64" y1="41.67" x2="40.64" y2="35.56" width="0.8128" layer="1"/>
<wire x1="12.65" y1="46.01" x2="15.21" y2="44.04" width="0.8128" layer="1"/>
<wire x1="15.21" y1="44.04" x2="38.76" y2="44.04" width="0.8128" layer="1"/>
<wire x1="38.76" y1="44.04" x2="40.54" y2="41.67" width="0.8128" layer="1"/>
<wire x1="40.54" y1="41.67" x2="40.64" y2="41.67" width="0.8128" layer="1"/>
<wire x1="-2.44" y1="50.12" x2="2.82" y2="50.12" width="0" layer="19" extent="1-1"/>
</signal>
<signal name="SDA">
<contactref element="A4" pad="MP"/>
<contactref element="SDA" pad="MP"/>
<wire x1="77.47" y1="50.8" x2="77.47" y2="54.76" width="0.8128" layer="1"/>
<wire x1="77.47" y1="54.76" x2="76.37" y2="55.86" width="0.8128" layer="1"/>
<wire x1="76.37" y1="55.86" x2="45.54" y2="55.86" width="0.8128" layer="1"/>
<wire x1="45.54" y1="55.86" x2="43.28" y2="53.6" width="0.8128" layer="1"/>
<wire x1="43.28" y1="53.6" x2="43.28" y2="50.9" width="0.8128" layer="1"/>
<wire x1="43.28" y1="50.9" x2="43.18" y2="50.8" width="0" layer="19" extent="1-1"/>
</signal>
<signal name="D9">
<contactref element="D9" pad="MP"/>
<contactref element="ESC_3" pad="3"/>
<wire x1="90.32" y1="16.69" x2="83.11" y2="9.48" width="0.8128" layer="1"/>
<wire x1="83.11" y1="9.48" x2="14.3" y2="9.48" width="0.8128" layer="1"/>
<wire x1="8.42241875" y1="14.227278125" x2="14.3" y2="9.48" width="0.8128" layer="1"/>
<wire x1="8.42241875" y1="14.227278125" x2="8.32" y2="14.31" width="0.4064" layer="1"/>
<wire x1="17.78" y1="49.71" x2="16.09" y2="47.94" width="0.8128" layer="1"/>
<wire x1="16.09" y1="47.94" x2="16.08" y2="47.94" width="0.4064" layer="1"/>
<wire x1="16.08" y1="47.94" x2="15.97" y2="48.05" width="0.4064" layer="1"/>
<via x="15.97" y="48.05" extent="1-16" drill="0.6" diameter="1.2"/>
<wire x1="15.97" y1="48.05" x2="8.33" y2="40.49" width="0.8128" layer="16"/>
<wire x1="8.33" y1="40.49" x2="8.33" y2="29.78" width="0.8128" layer="16"/>
<via x="8.33" y="29.78" extent="1-16" drill="0.6" diameter="1.2"/>
<wire x1="8.33" y1="29.78" x2="8.33" y2="14.319696875" width="0.8128" layer="1"/>
<wire x1="8.33" y1="14.319696875" x2="8.42241875" y2="14.227278125" width="0.4064" layer="1"/>
<wire x1="17.78" y1="49.71" x2="17.78" y2="50.8" width="0" layer="19" extent="1-1"/>
</signal>
<signal name="D10">
<contactref element="D10" pad="MP"/>
<contactref element="ESC_4" pad="3"/>
<wire x1="53.25" y1="16.61" x2="48.01" y2="11.19" width="0.8128" layer="1"/>
<wire x1="48.01" y1="11.19" x2="15.65" y2="11.19" width="0.8128" layer="1"/>
<wire x1="15.65" y1="11.19" x2="10.22" y2="16.8" width="0.8128" layer="1"/>
<wire x1="10.22" y1="16.8" x2="10.22" y2="16.81" width="0.4064" layer="1"/>
<wire x1="10.22" y1="16.81" x2="10.22" y2="32.35" width="0.8128" layer="1"/>
<wire x1="10.22" y1="32.35" x2="10.25" y2="32.38" width="0.4064" layer="1"/>
<wire x1="10.25" y1="32.38" x2="10.21" y2="32.42" width="0.4064" layer="1"/>
<wire x1="10.21" y1="32.42" x2="10.21" y2="33.08" width="0.8128" layer="1"/>
<via x="10.21" y="33.08" extent="1-16" drill="0.6" diameter="1.2"/>
<wire x1="10.21" y1="33.08" x2="10.21" y2="40.01" width="0.8128" layer="16"/>
<wire x1="10.21" y1="40.01" x2="16.61" y2="46.41" width="0.8128" layer="16"/>
<wire x1="16.61" y1="46.41" x2="20.3" y2="46.41" width="0.8128" layer="16"/>
<wire x1="20.3" y1="46.41" x2="20.33" y2="46.44" width="0.4064" layer="16"/>
<wire x1="20.33" y1="46.44" x2="20.25" y2="47.74" width="0.8128" layer="16"/>
<via x="20.25" y="47.74" extent="1-16" drill="0.6" diameter="1.2"/>
<wire x1="20.25" y1="47.74" x2="20.33" y2="50.79" width="0.6096" layer="1"/>
<wire x1="20.33" y1="50.79" x2="20.32" y2="50.8" width="0" layer="19" extent="1-1"/>
</signal>
<signal name="A7">
<contactref element="A7" pad="MP"/>
<contactref element="PATA_5" pad="2"/>
<wire x1="33.06" y1="16.76" x2="33.45" y2="17.15" width="0.8128" layer="1"/>
<via x="33.47" y="21.24" extent="1-16" drill="0.6" diameter="1.2"/>
<wire x1="22.75" y1="31.97" x2="33.47" y2="21.24" width="0.8128" layer="16"/>
<wire x1="22.75" y1="31.97" x2="16.01" y2="31.95" width="0.8128" layer="16"/>
<wire x1="16.01" y1="31.95" x2="15.23" y2="32.73" width="0.8128" layer="16"/>
<wire x1="15.23" y1="32.73" x2="15.23" y2="36.67" width="0.8128" layer="16"/>
<wire x1="18.87" y1="40.31" x2="15.23" y2="36.67" width="0.8128" layer="16"/>
<wire x1="33.45" y1="17.15" x2="33.47" y2="21.24" width="0.8128" layer="1"/>
<wire x1="35.57" y1="48.27" x2="38.86" y2="48.27" width="0.8128" layer="1"/>
<wire x1="39.03" y1="48.27" x2="38.86" y2="48.27" width="0.8128" layer="1"/>
<via x="38.86" y="48.27" extent="1-16" drill="0.85" diameter="1.2"/>
<wire x1="38.86" y1="48.27" x2="35.87" y2="45.28" width="0.8128" layer="16"/>
<wire x1="35.87" y1="45.28" x2="30.18" y2="45.28" width="0.8128" layer="16"/>
<wire x1="30.18" y1="45.28" x2="25.21" y2="40.31" width="0.8128" layer="16"/>
<wire x1="25.21" y1="40.31" x2="18.87" y2="40.31" width="0.8128" layer="16"/>
<wire x1="35.57" y1="48.27" x2="35.56" y2="48.26" width="0" layer="19" extent="1-1"/>
</signal>
<signal name="A6">
<contactref element="A6" pad="MP"/>
<contactref element="PATA_4" pad="2"/>
<wire x1="70.37" y1="16.65" x2="70.37" y2="19.42" width="0.8128" layer="1"/>
<wire x1="70.37" y1="19.42" x2="72.19" y2="21.24" width="0.8128" layer="1"/>
<wire x1="32.76" y1="48" x2="28.9" y2="48" width="0.8128" layer="1"/>
<wire x1="28.9" y1="48" x2="28.83" y2="48.07" width="0.8128" layer="1"/>
<wire x1="28.83" y1="48.07" x2="28.43" y2="48.07" width="0.8128" layer="1"/>
<via x="28.43" y="48.07" extent="1-16" drill="0.6" diameter="1.2"/>
<wire x1="28.43" y1="48.07" x2="25.41" y2="45.05" width="0.8128" layer="16"/>
<wire x1="25.41" y1="45.05" x2="25.41" y2="44.3" width="0.8128" layer="16"/>
<wire x1="25.41" y1="44.3" x2="23.88" y2="42.77" width="0.8128" layer="16"/>
<wire x1="23.88" y1="42.77" x2="18.58" y2="42.77" width="0.8128" layer="16"/>
<wire x1="18.58" y1="42.77" x2="13.8" y2="37.99" width="0.8128" layer="16"/>
<wire x1="13.8" y1="37.99" x2="13.8" y2="30.2" width="0.8128" layer="16"/>
<wire x1="13.8" y1="30.2" x2="16.39" y2="27.61" width="0.8128" layer="16"/>
<wire x1="16.39" y1="27.61" x2="22.03" y2="27.61" width="0.8128" layer="16"/>
<wire x1="22.03" y1="27.61" x2="22.11" y2="27.61" width="0.8128" layer="16"/>
<wire x1="22.11" y1="27.61" x2="22.03" y2="27.61" width="0.8128" layer="16"/>
<via x="22.03" y="27.61" extent="1-16" drill="0.6" diameter="1.2"/>
<wire x1="22.03" y1="27.61" x2="23.24" y2="28.82" width="0.8128" layer="1"/>
<wire x1="23.24" y1="28.82" x2="31.87" y2="28.82" width="0.8128" layer="1"/>
<wire x1="31.87" y1="28.82" x2="32.51" y2="28.18" width="0.8128" layer="1"/>
<wire x1="32.51" y1="28.18" x2="59.79" y2="28.18" width="0.8128" layer="1"/>
<wire x1="59.79" y1="28.18" x2="59.79" y2="28.42" width="0.8128" layer="1"/>
<via x="59.79" y="28.42" extent="1-16" drill="0.6" diameter="1.2"/>
<wire x1="59.79" y1="28.42" x2="59.95" y2="28.26" width="0.8128" layer="16"/>
<wire x1="59.95" y1="28.26" x2="69.07" y2="28.26" width="0.8128" layer="16"/>
<wire x1="69.07" y1="28.26" x2="72.38" y2="24.95" width="0.8128" layer="16"/>
<wire x1="72.38" y1="24.95" x2="72.38" y2="22.61" width="0.8128" layer="16"/>
<wire x1="72.38" y1="22.61" x2="72.19" y2="22.42" width="0.8128" layer="16"/>
<wire x1="72.19" y1="22.42" x2="72.19" y2="21.24" width="0.8128" layer="16"/>
<via x="72.19" y="21.24" extent="1-16" drill="0.6" diameter="1.2"/>
<wire x1="32.76" y1="48" x2="33.02" y2="48.26" width="0" layer="19" extent="1-1"/>
</signal>
<signal name="D6">
<contactref element="D6" pad="MP"/>
<contactref element="ESC_2" pad="3"/>
<wire x1="109.92" y1="77.48" x2="101.24" y2="86.16" width="0.8128" layer="1"/>
<wire x1="101.24" y1="86.16" x2="13.38" y2="86.16" width="0.8128" layer="1"/>
<wire x1="13.38" y1="86.16" x2="6.69" y2="79.47" width="0.8128" layer="1"/>
<wire x1="28.78" y1="38.95" x2="30.48" y2="36.1" width="0.8128" layer="1"/>
<wire x1="6.69" y1="79.47" x2="6.69" y2="41" width="0.8128" layer="1"/>
<wire x1="6.69" y1="41" x2="8.74" y2="38.95" width="0.8128" layer="1"/>
<wire x1="8.74" y1="38.95" x2="28.78" y2="38.95" width="0.8128" layer="1"/>
<wire x1="30.48" y1="36.1" x2="30.48" y2="35.56" width="0" layer="19" extent="1-1"/>
</signal>
<signal name="D5">
<contactref element="D5" pad="MP"/>
<wire x1="33.02" y1="36.59" x2="33.02" y2="35.56" width="0.8128" layer="1"/>
<contactref element="ESC_1" pad="3"/>
<wire x1="72.98" y1="77.49" x2="72.89" y2="77.58" width="0.4064" layer="1"/>
<wire x1="72.89" y1="77.58" x2="72.89" y2="82.39" width="0.8128" layer="1"/>
<wire x1="72.89" y1="82.39" x2="71.12" y2="84.16" width="0.8128" layer="1"/>
<wire x1="71.12" y1="84.16" x2="13.58" y2="84.16" width="0.8128" layer="1"/>
<wire x1="8.95" y1="79.02" x2="13.58" y2="84.16" width="0.8128" layer="1"/>
<wire x1="33.02" y1="37.41" x2="30.73" y2="40.58" width="0.8128" layer="1"/>
<wire x1="30.73" y1="40.58" x2="11.68" y2="40.58" width="0.8128" layer="1"/>
<wire x1="11.68" y1="40.58" x2="8.95" y2="42.94" width="0.8128" layer="1"/>
<wire x1="8.95" y1="42.94" x2="8.95" y2="79.02" width="0.8128" layer="1"/>
<wire x1="33.02" y1="37.41" x2="33.02" y2="36.59" width="0" layer="19" extent="1-1"/>
</signal>
<signal name="D11">
<contactref element="D11" pad="MP"/>
<contactref element="ESC_5" pad="3"/>
<wire x1="16.23" y1="16.84" x2="11.86" y2="21.21" width="0.8128" layer="1"/>
<wire x1="11.86" y1="21.21" x2="11.86" y2="29.8" width="0.8128" layer="1"/>
<wire x1="11.86" y1="29.8" x2="11.72" y2="29.94" width="0.4064" layer="1"/>
<wire x1="11.72" y1="29.94" x2="11.72" y2="30.09" width="0.8128" layer="1"/>
<via x="11.72" y="30.09" extent="1-16" drill="0.6" diameter="1.2"/>
<wire x1="11.72" y1="30.09" x2="11.72" y2="39.41" width="0.8128" layer="16"/>
<wire x1="11.72" y1="39.41" x2="16.82" y2="44.51" width="0.8128" layer="16"/>
<wire x1="16.82" y1="44.51" x2="21.64" y2="44.51" width="0.8128" layer="16"/>
<wire x1="23.22" y1="46.09" x2="23.14" y2="47.59" width="0.8128" layer="16"/>
<via x="23.14" y="47.59" extent="1-16" drill="0.6" diameter="1.2"/>
<wire x1="23.14" y1="47.59" x2="23.22" y2="50.44" width="0.8128" layer="1"/>
<wire x1="21.64" y1="44.51" x2="23.22" y2="46.09" width="0.8128" layer="16"/>
<wire x1="23.22" y1="50.44" x2="22.86" y2="50.8" width="0" layer="19" extent="1-1"/>
</signal>
<signal name="SD0">
<contactref element="SD0" pad="MP"/>
<wire x1="92.71" y1="50.8" x2="92.71" y2="60.44" width="0.8128" layer="1"/>
<wire x1="89.24" y1="63.91" x2="29.15" y2="63.91" width="0.8128" layer="1"/>
<wire x1="29.15" y1="63.91" x2="21.59" y2="71.47" width="0.8128" layer="1"/>
<wire x1="92.71" y1="60.44" x2="89.24" y2="63.91" width="0.8128" layer="1"/>
<contactref element="PATA_0" pad="3"/>
<wire x1="21.59" y1="71.47" x2="21.59" y2="77.47" width="0.8128" layer="1"/>
</signal>
<signal name="SC0">
<contactref element="SC0" pad="MP"/>
<contactref element="PATA_0" pad="4"/>
<wire x1="24.13" y1="77.47" x2="24.18" y2="77.42" width="0.4064" layer="1"/>
<wire x1="24.18" y1="77.42" x2="24.18" y2="71.71" width="0.8128" layer="1"/>
<wire x1="24.18" y1="71.71" x2="29.67" y2="66.22" width="0.8128" layer="1"/>
<wire x1="89.51" y1="66.22" x2="29.67" y2="66.22" width="0.8128" layer="1"/>
<wire x1="95.64" y1="50.34" x2="95.57" y2="50.27" width="0.8128" layer="1"/>
<wire x1="95.57" y1="50.27" x2="95.22" y2="50.27" width="0.8128" layer="1"/>
<wire x1="95.25" y1="50.8" x2="95.25" y2="60.48" width="0.8128" layer="1"/>
<wire x1="95.25" y1="60.48" x2="89.51" y2="66.22" width="0.8128" layer="1"/>
<wire x1="95.25" y1="50.8" x2="95.22" y2="50.27" width="0" layer="19" extent="1-1"/>
</signal>
<signal name="SD1">
<contactref element="PATA_1" pad="3"/>
<contactref element="SD1" pad="MP"/>
<wire x1="58.3" y1="77.35" x2="58.3" y2="71.46" width="0.8128" layer="1"/>
<wire x1="58.3" y1="71.46" x2="61.56" y2="68.2" width="0.8128" layer="1"/>
<wire x1="61.56" y1="68.2" x2="89.77" y2="68.2" width="0.8128" layer="1"/>
<wire x1="89.77" y1="68.2" x2="97.79" y2="60.18" width="0.8128" layer="1"/>
<wire x1="97.79" y1="60.18" x2="97.79" y2="50.8" width="0.8128" layer="1"/>
<wire x1="58.3" y1="77.35" x2="58.42" y2="77.47" width="0" layer="19" extent="1-1"/>
</signal>
<signal name="SD5">
<contactref element="PATA_5" pad="3"/>
<contactref element="SD5" pad="MP"/>
<wire x1="85.09" y1="35.56" x2="85.09" y2="30.89" width="0.8128" layer="1"/>
<wire x1="85.09" y1="30.89" x2="82.68" y2="28.48" width="0.8128" layer="1"/>
<wire x1="82.68" y1="28.48" x2="67.16" y2="28.48" width="0.8128" layer="1"/>
<wire x1="62.45" y1="23.77" x2="67.16" y2="28.48" width="0.8128" layer="1"/>
<wire x1="33.08" y1="23.77" x2="30.52" y2="21.21" width="0.8128" layer="1"/>
<wire x1="33.08" y1="23.77" x2="62.45" y2="23.77" width="0.8128" layer="1"/>
<wire x1="30.52" y1="21.21" x2="30.52" y2="16.76" width="0.8128" layer="1"/>
</signal>
<signal name="SC5">
<contactref element="PATA_5" pad="4"/>
<contactref element="SC5" pad="MP"/>
<wire x1="28.02" y1="16.8" x2="28.02" y2="21.14" width="0.8128" layer="1"/>
<wire x1="28.02" y1="21.14" x2="32.73" y2="25.85" width="0.8128" layer="1"/>
<wire x1="32.73" y1="25.85" x2="62.1" y2="25.85" width="0.8128" layer="1"/>
<wire x1="62.1" y1="25.85" x2="66.52" y2="30.27" width="0.8128" layer="1"/>
<wire x1="66.52" y1="30.27" x2="80.75" y2="30.27" width="0.8128" layer="1"/>
<wire x1="80.75" y1="30.27" x2="82.55" y2="32.07" width="0.8128" layer="1"/>
<wire x1="82.55" y1="32.07" x2="82.55" y2="35.56" width="0.8128" layer="1"/>
<wire x1="28.02" y1="16.8" x2="27.98" y2="16.76" width="0" layer="19" extent="1-1"/>
</signal>
</signals>
</board>
</drawing>
<compatibility>
<note version="8.2" severity="warning">
Since Version 8.2, EAGLE supports online libraries. The ids
of those online libraries will not be understood (or retained)
with this version.
</note>
<note version="8.3" severity="warning">
Since Version 8.3, EAGLE supports URNs for individual library
assets (packages, symbols, and devices). The URNs of those assets
will not be understood (or retained) with this version.
</note>
<note version="8.3" severity="warning">
Since Version 8.3, EAGLE supports the association of 3D packages
with devices in libraries, schematics, and board files. Those 3D
packages will not be understood (or retained) with this version.
</note>
</compatibility>
</eagle>
